C51 COMPILER V5.50,  PERCENTS                                                              15/08/07  08:08:50  PAGE 1   


DOS C51 COMPILER V5.50, COMPILATION OF MODULE PERCENTS
OBJECT MODULE PLACED IN PERCENTS.OBJ
COMPILER INVOKED BY: E:\C51_V5.5\BIN\C51.EXE PERCENTS.C51 CD DB

stmt level    source

   1          //*****************************************************************************
   2          //
   3          //    Percents.c - Vykresleni prubehu
   4          //    Version 1.0
   5          //
   6          //*****************************************************************************
   7          
   8          #include "Percents.h"
   9          
  10          #include "..\inc\El12864.h"    // Displej
  11          #include "..\inc\Display.h"    // Displej
  12          #include "..\inc\Font.h"       // Fonty
  13          
  14          //-----------------------------------------------------------------------------
  15          // Lokalni promenne
  16          //-----------------------------------------------------------------------------
  17          
  18          static byte     Percents;       // Aktualni procenta prubehu
  19          static dword    MaxValue;       // Maximalni hodnota pro vypocet procent
  20          
  21          //-----------------------------------------------------------------------------
  22          // Definice
  23          //-----------------------------------------------------------------------------
  24          
  25          #define PERCENTS_X      63
  26          #define PERCENTS_DY     16
  27          
  28          //-----------------------------------------------------------------------------
  29          // Inicializace
  30          //-----------------------------------------------------------------------------
  31          
  32          void PercentsInit(byte Index, dword Max) {
  33   1        // Inicializace hodnot
  34   1        MaxValue = Max;
  35   1        Percents = 0xFF;              // Aby hned prekreslil
  36   1        DisplayChar(PERCENTS_X + 3, Index * PERCENTS_DY, '%');
  37   1      }
  38          
  39          //-----------------------------------------------------------------------------
  40          // Obnoveni zobrazeni
  41          //-----------------------------------------------------------------------------
  42          
  43          void PercentsExecute(byte Index, dword Value) {
  44   1        // Vypocte a zobrazi novou hodnotu procent
  45   1        byte NewPercents;
  46   1      
  47   1        // Vypocet nove hodnoty
  48   1        NewPercents = (dword)(100L * Value / MaxValue);
  49   1        if (NewPercents > 99) {
  50   2          NewPercents = 99;           // Omezim kvuli vykreslovani
  51   2        }
  52   1      
  53   1        // Vykresleni nove hodnoty
  54   1        if (Percents != NewPercents) {
  55   2          // Hodnota se zmenila, prekreslim
  56   2          Percents = NewPercents;             // Ulozim
  57   2          DisplayClearAreaFast(PERCENTS_X - 14, (Index * PERCENTS_DY) / 8, PERCENTS_X, (Index * PERCENTS_DY) / 8
             - + 2);
  58   2          UN.DT = Percents;
C51 COMPILER V5.50,  PERCENTS                                                              15/08/07  08:08:50  PAGE 2   

  59   2          DisplayNumber(PERCENTS_X, Index * PERCENTS_DY, 0, 0);
  60   2        }
  61   1      }
  62          
  63          //-----------------------------------------------------------------------------
  64          // Vymazani z displeje
  65          //-----------------------------------------------------------------------------
  66          
  67          void PercentsClear(byte Index) {
  68   1        // Vymaze procenta z displeje, vcetne symbolu %
  69   1        DisplayClearAreaFast(PERCENTS_X - 14, (Index * PERCENTS_DY) / 8, PERCENTS_X + 12, (Index * PERCENTS_DY) 
             -/ 8 + 2);
  70   1      }
C51 COMPILER V5.50,  PERCENTS                                                              15/08/07  08:08:50  PAGE 3   

ASSEMBLY LISTING OF GENERATED OBJECT CODE


             ; FUNCTION _PercentsInit (BEGIN)
;---- Variable 'Index' assigned to Register 'R3' ----
0000 AB07          MOV     R3,AR7
                                           ; SOURCE LINE # 32
                                           ; SOURCE LINE # 34
0002 850000  R     MOV     MaxValue+03H,Max+03H
0005 850000  R     MOV     MaxValue+02H,Max+02H
0008 850000  R     MOV     MaxValue+01H,Max+01H
000B 850000  R     MOV     MaxValue,Max
                                           ; SOURCE LINE # 35
000E 7500FF  R     MOV     Percents,#0FFH
                                           ; SOURCE LINE # 36
0011 7F42          MOV     R7,#042H
0013 EB            MOV     A,R3
0014 C4            SWAP    A
0015 54F0          ANL     A,#0F0H
0017 FD            MOV     R5,A
0018 7B25          MOV     R3,#025H
001A 120000  E     LCALL   _DisplayChar
                                           ; SOURCE LINE # 37
001D 22            RET     
             ; FUNCTION _PercentsInit (END)

             ; FUNCTION _PercentsExecute (BEGIN)
0000 8F00    R     MOV     Index,R7
                                           ; SOURCE LINE # 43
                                           ; SOURCE LINE # 48
0002 7F64          MOV     R7,#064H
0004 7E00          MOV     R6,#00H
0006 7D00          MOV     R5,#00H
0008 7C00          MOV     R4,#00H
000A AB00    R     MOV     R3,Value+03H
000C AA00    R     MOV     R2,Value+02H
000E A900    R     MOV     R1,Value+01H
0010 A800    R     MOV     R0,Value
0012 120000  E     LCALL   ?C?LMUL
0015 AB00    R     MOV     R3,MaxValue+03H
0017 AA00    R     MOV     R2,MaxValue+02H
0019 A900    R     MOV     R1,MaxValue+01H
001B A800    R     MOV     R0,MaxValue
001D 120000  E     LCALL   ?C?ULDIV
;---- Variable 'NewPercents' assigned to Register 'R7' ----
                                           ; SOURCE LINE # 49
0020 EF            MOV     A,R7
0021 D3            SETB    C
0022 9463          SUBB    A,#063H
0024 4002          JC      ?C0002
                                           ; SOURCE LINE # 50
0026 7F63          MOV     R7,#063H
                                           ; SOURCE LINE # 51
0028         ?C0002:
                                           ; SOURCE LINE # 54
0028 E500    R     MOV     A,Percents
002A 6F            XRL     A,R7
002B 6035          JZ      ?C0004
                                           ; SOURCE LINE # 56
002D 8F00    R     MOV     Percents,R7
                                           ; SOURCE LINE # 57
002F 7F31          MOV     R7,#031H
0031 E500    R     MOV     A,Index
0033 C4            SWAP    A
0034 54F0          ANL     A,#0F0H
0036 FE            MOV     R6,A
C51 COMPILER V5.50,  PERCENTS                                                              15/08/07  08:08:50  PAGE 4   

0037 13            RRC     A
0038 13            RRC     A
0039 13            RRC     A
003A 541F          ANL     A,#01FH
003C FD            MOV     R5,A
003D 7B3F          MOV     R3,#03FH
003F 2402          ADD     A,#02H
0041 F500    E     MOV     ?_DisplaySetAreaFast?BYTE+03H,A
0043 E4            CLR     A
0044 F500    E     MOV     ?_DisplaySetAreaFast?BYTE+04H,A
0046 120000  E     LCALL   _DisplaySetAreaFast
                                           ; SOURCE LINE # 58
0049 E4            CLR     A
004A 850000  E     MOV     UN+03H,Percents
004D F500    E     MOV     UN+02H,A
004F F500    E     MOV     UN+01H,A
0051 F500    E     MOV     UN,A
                                           ; SOURCE LINE # 59
0053 7F3F          MOV     R7,#03FH
0055 E500    R     MOV     A,Index
0057 C4            SWAP    A
0058 54F0          ANL     A,#0F0H
005A FD            MOV     R5,A
005B E4            CLR     A
005C FB            MOV     R3,A
005D F500    E     MOV     ?_DisplayNumber?BYTE+03H,A
005F 120000  E     LCALL   _DisplayNumber
                                           ; SOURCE LINE # 60
                                           ; SOURCE LINE # 61
0062         ?C0004:
0062 22            RET     
             ; FUNCTION _PercentsExecute (END)

             ; FUNCTION _PercentsClear (BEGIN)
;---- Variable 'Index' assigned to Register 'R6' ----
0000 AE07          MOV     R6,AR7
                                           ; SOURCE LINE # 67
                                           ; SOURCE LINE # 69
0002 7F31          MOV     R7,#031H
0004 EE            MOV     A,R6
0005 C4            SWAP    A
0006 54F0          ANL     A,#0F0H
0008 FD            MOV     R5,A
0009 13            RRC     A
000A 13            RRC     A
000B 13            RRC     A
000C 541F          ANL     A,#01FH
000E FD            MOV     R5,A
000F 7B4B          MOV     R3,#04BH
0011 2402          ADD     A,#02H
0013 F500    E     MOV     ?_DisplaySetAreaFast?BYTE+03H,A
0015 E4            CLR     A
0016 F500    E     MOV     ?_DisplaySetAreaFast?BYTE+04H,A
0018 120000  E     LCALL   _DisplaySetAreaFast
                                           ; SOURCE LINE # 70
001B 22            RET     
             ; FUNCTION _PercentsClear (END)



MODULE INFORMATION:   STATIC OVERLAYABLE
   CODE SIZE        =    157    ----
   CONSTANT SIZE    =   ----    ----
   XDATA SIZE       =   ----    ----
   PDATA SIZE       =   ----    ----
   DATA SIZE        =      5      10
C51 COMPILER V5.50,  PERCENTS                                                              15/08/07  08:08:50  PAGE 5   

   IDATA SIZE       =   ----    ----
   BIT SIZE         =   ----    ----
END OF MODULE INFORMATION.


C51 COMPILATION COMPLETE.  0 WARNING(S),  0 ERROR(S)
