C51 COMPILER V5.50,  ACCU                                                                  20/07/12  15:15:12  PAGE 1   


DOS C51 COMPILER V5.50, COMPILATION OF MODULE ACCU
OBJECT MODULE PLACED IN ACCU.OBJ
COMPILER INVOKED BY: E:\C51_V5.5\BIN\C51.EXE ACCU.C51 CD DB

stmt level    source

   1          //*****************************************************************************
   2          //
   3          //    Accu.c - Kontrola napajeciho napeti
   4          //    Version 1.0
   5          //
   6          //*****************************************************************************
   7          
   8          #include "Accu.h"
   9          #include "..\inc\System.h"     // "operacni system" - kvuli SysDelay()
  10          
  11          
  12          #define DELAY_LOWBAT          2000         // Cekani po obnove napajeni v milisekundach
  13          
  14          void AccuWaitForVoltage(void) {
  15   1        // Pokud zjistim lowbat, zavolanim teto fce se vycka na jeho obnoveni, po obnoveni napajeni jeste nejako
             -u dobu cekam
  16   1        while (1) {
  17   2          if (BatAccuOk()) {
  18   3            SysDelay(DELAY_LOWBAT);
  19   3            if (BatAccuOk()) {
  20   4              return;                            // Po dobu DELAY_LOWBAT je napajeni v poradku
  21   4            }
  22   3          }
  23   2          WatchDog();
  24   2        }
  25   1      }
  26          
C51 COMPILER V5.50,  ACCU                                                                  20/07/12  15:15:12  PAGE 2   

ASSEMBLY LISTING OF GENERATED OBJECT CODE


             ; FUNCTION AccuWaitForVoltage (BEGIN)
                                           ; SOURCE LINE # 14
0000         ?C0001:
                                           ; SOURCE LINE # 16
                                           ; SOURCE LINE # 17
0000 30920A        JNB     BatLOWBAT,?C0003
                                           ; SOURCE LINE # 18
0003 7FD0          MOV     R7,#0D0H
0005 7E07          MOV     R6,#07H
0007 120000  E     LCALL   _SysDelay
                                           ; SOURCE LINE # 19
000A 209208        JB      BatLOWBAT,?C0005
                                           ; SOURCE LINE # 21
                                           ; SOURCE LINE # 22
000D         ?C0003:
                                           ; SOURCE LINE # 23
000D 75A61E        MOV     WDTRST,#01EH
0010 75A6E1        MOV     WDTRST,#0E1H
                                           ; SOURCE LINE # 24
0013 80EB          SJMP    ?C0001
                                           ; SOURCE LINE # 25
0015         ?C0005:
0015 22            RET     
             ; FUNCTION AccuWaitForVoltage (END)



MODULE INFORMATION:   STATIC OVERLAYABLE
   CODE SIZE        =     22    ----
   CONSTANT SIZE    =   ----    ----
   XDATA SIZE       =   ----    ----
   PDATA SIZE       =   ----    ----
   DATA SIZE        =   ----    ----
   IDATA SIZE       =   ----    ----
   BIT SIZE         =   ----    ----
END OF MODULE INFORMATION.


C51 COMPILATION COMPLETE.  0 WARNING(S),  0 ERROR(S)
