C51 COMPILER V5.50,  LANGTR                                                                20/07/12  15:15:10  PAGE 1   


DOS C51 COMPILER V5.50, COMPILATION OF MODULE LANGTR
OBJECT MODULE PLACED IN LANGTR.OBJ
COMPILER INVOKED BY: E:\C51_V5.5\BIN\C51.EXE LANGTR.C51 CD DB

stmt level    source

   1          //*****************************************************************************
   2          //
   3          // Definice stringu:
   4          //   - En
   5          //   - Tr
   6          //
   7          //*****************************************************************************
   8          
   9          #include "Lang.h"                   // Stringy
  10          
  11          #ifdef LANG_VERSION_TR  // Prekladam, jen pokud je tato jazykova verze aktivni
              
              // ---------------------------------------------------------------------------------------------
              // Definice jazyka
              // ---------------------------------------------------------------------------------------------
              
              byte code STR_LANGUAGE[] = "Language";   // Toto menu se nepreklada
              byte code STR_MENU_LANGUAGE[] =
                "English\x0"
                "Turkce";
              
              // ---------------------------------------------------------------------------------------------
              // HW verze
              // ---------------------------------------------------------------------------------------------
              
              byte code STR_HW_VERSION[] =
                "GSM\x0"
                "LW1\x0"
                "MODBUS\x0"
                "ACS6";
              
              // ---------------------------------------------------------------------------------------------
              // Menu
              // ---------------------------------------------------------------------------------------------
              
              byte code STR_DAY[] =
                "Day\x0"
                "Gun";
              byte code STR_WEIGHT[] =
                "Weight\x0"
                "Agirlik";
              byte code STR_START[] =
                "Start\x0"
                "Baslama";
              byte code STR_FLOCK[] =
                "Flock\x0"
                "Suru";
              byte code STR_TARGET_WEIGHT[] =
                "Target\x0"
                "Hedef";
              byte code STR_LAST_SAVED_WEIGHT[] =
                "Last\x0"
                "Son";
              byte code STR_COUNT[] =
                "Count\x0"
                "Adet";
              byte code STR_OK[] =
                "OK\x0"
                "Tamam";
C51 COMPILER V5.50,  LANGTR                                                                20/07/12  15:15:10  PAGE 2   

              byte code STR_CANCEL[] =
                "Cancel\x0"
                "Iptal";
              byte code STR_RETRY[] =
                "Retry\x0"
                "Tekrar";
              byte code STR_YES[] =
                "Yes\x0"
                "Evet";
              byte code STR_NO[] =
                "No\x0"
                "Hayir";
              byte code STR_ERROR[] =
                "Error\x0"
                "Hata";
              byte code STR_WAIT[] =
                "Wait\x0"
                "Bekle";
              byte code STR_HEADS[] =
                "hds\x0"
                "Adt";
              /*byte code STR_VERZE[] =
                "version\x0"
                "versiyon";*/
              
              // Jednotky mam zvlast pro vyber v menu a pro zobrazeni (kvuli jednoduchosti)
              byte code STR_UNITS_MENU[]=    // Pro menu
                 "kg\x0" "lb\x0"
                 "kg\x0" "lb";
              byte code STR_UNITS[_UNITS_COUNT][_LANG_COUNT][3]= {   // Pro zobrazeni
                {
                  "kg",
                  "kg"
                },
                {
                  "lb",
                  "lb"
                }
              };
              
              // Dilek v menu
              byte code STR_DIVISION_MENU[] =
                "1\x0"
                "2\x0"
                "5\x0"
                "10";
              
              byte code STR_INVALID_VALUE[] =
                "The value\x0FFis not valid\x0"
                "Deger gecersiz";
              byte code STR_SAVE_CHANGES[] =
                "Save changes?\x0"
                "Degisiklikler\x0FFkaydedilsinmi?";
              byte code STR_STOP_WEIGHING_FIRST[] =
                "Weighing is started.\x0FFStop the weighing\x0FFfirst.\x0"
                "Tartim baslatildi.\x0FFOncelikle tartimi\x0FFdurdur.";
              
              // Typy zobrazeni behem vazeni
              byte code STR_WEIGHING_IDLE[] =
                "STOPPED\x0"
                "DURDU";
              byte code STR_WEIGHING_WAITING[] =
                "WAITING\x0"
                "BEKLIYOR";
              byte code STR_WEIGHING_WEIGHING[] =
                "WEIGHING\x0"
C51 COMPILER V5.50,  LANGTR                                                                20/07/12  15:15:10  PAGE 3   

                "TARTIYOR";
              byte code STR_WEIGHING_PAUSE[] =
                "PAUSED\x0"
                "BEKLEMEDE";
              byte code STR_WEIGHING_ONLINE[] =
                "ONLINE\x0"
                "ONLINE";
              
              // Historie
              byte code STR_ARCHIVE[] =
                "ARCHIVE\x0"
                "ARSIV";
              
              // Statistika
              byte code STR_CV[] =
                "Cv\x0"
                "Cv";
              byte code STR_UNI[] =
                "UNI\x0"
                "UNI";
              
              // Logger
              byte code STR_PAGE[] =
                "Page\x0"
                "Sayfa";
              byte code STR_NO_DATA[] =
                "No data\x0"
                "Kayit yok";
              
              // Editace hejna
              byte code STR_STOP_WEIGHING[] =
                "Really stop\x0FFweighing of the flock?\x0"
                "Surunun tartimi\x0FFdurdurulsunmu?";
              byte code STR_SELECT_ANOTHER_FLOCK[] =
                "The selected flock is\x0FFnow weighed.\x0FFSelect another flock.\x0"
                "Secilen surunun tartimi\x0FFtamamlandi.\x0FFBaska suru seciniz.";
              byte code STR_USE_FLOCK[] =
                "Use a predefined flock?\x0"
                "Tanimlanmis suru\x0FFkullanilsinmi?";
              byte code STR_STARTING_DAY[] =
                "Starting day:\x0FF\x0FF\x0FF\x0"
                "Baslama gunu:\x0FF\x0FF\x0FF";
              byte code STR_FLOCK_NUMBER[] =
                "Flock number:\x0FF\x0FF\x0FF\x0"
                "Suru numarasi:\x0FF\x0FF\x0FF";
              byte code STR_REALLY_DELETE_ALL_FLOCKS[] =
                "Really delete\x0FFall the flocks?\x0"
                "Tum suruler silinsinmi?";
              byte code STR_ALL_FLOCKS_DELETED[] =
                "All the flocks\x0FFwere deleted.\x0"
                "Tum suruler silindi.";
              byte code STR_START_WEIGHING_NOW[] =
                "Start weighing now?\x0"
                "Tartim simdi baslasinmi?";
              byte code STR_COMPARE_RESULTS[] =
                "Compare with\x0FFanother flock?\x0"
                "Diger suruyle\x0FFkarsilastiracakmisiniz?";
              byte code STR_FLOCK_NOT_VALID[] =
                "The selected flock is\x0FFnot valid.\x0FFSelect another flock.\x0"
                "Sectiginiz suru yok,\x0FFbaska suru secin.";
              
              // Editace datumu a casu
              byte code STR_DATE[] =
                "Date:\x0FF\x0FF\x0FF\x0"
                "Tarih:\x0FF\x0FF\x0FF";
              byte code STR_TIME[] =
C51 COMPILER V5.50,  LANGTR                                                                20/07/12  15:15:10  PAGE 4   

                "Time:\x0FF\x0FF\x0FF\x0"
                "Saat:\x0FF\x0FF\x0FF";
              
              // Editace identifikacniho cisla
              byte code STR_IDENTIFICATION_NUMBER[] =
                "Identification number:\x0FF\x0FF\x0FF\x0"
                "ID numarasi:\x0FF\x0FF\x0FF";
              
              // Editace parametru statistiky
              byte code STR_HISTOGRAM_RANGE[] =
                "Histogram range:\x0FF\x0FF\x0FF\x0"
                "Histogram skalasi:\x0FF\x0FF\x0FF";
              byte code STR_UNIFORMITY_RANGE[] =
                "Uniformity range:\x0FF\x0FF\x0FF\x0"
                "Uniformite skalasi:\x0FF\x0FF\x0FF";
              
              // Parametry naslapne vahy
              byte code STR_SCALE_MARGIN_ABOVE_FEMALES[] =
                "Margin above target\x0FFfor females:\x0FF\x0FF\x0"
                "Disi icin hedef\x0FFsinirin uzerinde:\x0FF\x0FF";
              byte code STR_SCALE_MARGIN_BELOW_FEMALES[] =
                "Margin under target\x0FFfor females:\x0FF\x0FF\x0"
                "Disi icin hedef\x0FFsinirin altinda:\x0FF\x0FF";
              byte code STR_SCALE_MARGIN_ABOVE_MALES[] =
                "Margin above target\x0FFfor males:\x0FF\x0FF\x0"
                "Erkek icin hedef\x0FFsinirin uzerinde:\x0FF\x0FF";
              byte code STR_SCALE_MARGIN_BELOW_MALES[] =
                "Margin under target\x0FFfor males:\x0FF\x0FF\x0"
                "Erkek icin hedef\x0FFsinirin altinda:\x0FF\x0FF";
              byte code STR_SCALE_FILTER[] =
                "Filter:\x0FF\x0FF\x0FF\x0"
                "Filtre:\x0FF\x0FF\x0FF";
              byte code STR_SCALE_STABILIZATION_RANGE[] =
                "Stabilization:\x0FF\x0FF\x0FF\x0"
                "Stabilizasyon:\x0FF\x0FF\x0FF";
              byte code STR_SCALE_STABILIZATION_TIME[] =
                "Stabilization\x0FFtime:\x0FF\x0FF\x0"
                "Stabilizasyon zamani:\x0FF\x0FF";
              byte code STR_SCALE_AUTO_MODE_TYPE[] =
                "Use gain in\x0FFautomatic mode?\x0"
                "Otomatik kazanc\x0FFmodu kullanilsinmi?";
              byte code STR_JUMP_MODE[] =
                 "Save sample upon:\x0FF\x0FF\x0FF\x0"
                 "Kaydetme metodu:\x0FF\x0FF\x0FF";
              byte code STR_ENTER_LEAVE_BOTH[] =
                 "Entering the scale\x0" "Leaving the scale\x0" "Both\x0"
                 "Teraziye giris\x0" "Teraziden \x013ikis\x0" "Her ikiside";
              
              // Kalibrace
              byte code STR_CALIBRATION_UNITS[] =
                "Units:\x0FF\x0FF\x0FF\x0"
                "Birim:\x0FF\x0FF\x0FF";
              byte code STR_CALIBRATION_DIVISION[] =
                "Division:\x0FF\x0FF\x0FF\x0"
                "Cozunurluk:\x0FF\x0FF\x0FF";
              byte code STR_CALIBRATION_ZERO[] =
                "Empty the scale\x0"
                "Terazi bos";
              byte code STR_CALIBRATION_RANGE[] =
                "Put on the scale:\x0FF\x0FF\x0FF\x0"
                "Terazideki agirlik:\x0FF\x0FF\x0FF";
              
              // Podsvit
              byte code STR_BACKLIGHT[]=
                "Backlight:\x0FF\x0FF\x0FF\x0"
                "Aydinlatma:\x0FF\x0FF\x0FF";
C51 COMPILER V5.50,  LANGTR                                                                20/07/12  15:15:10  PAGE 5   

              
              byte code STR_ON_OFF_AUTO[]=
                "Off\x0" "On\x0" "Automatic\x0"
                "Kapali\x0" "Acik\x0" "Otomatik";
              
              // Kopie do a z pametoveho modulu
              byte code STR_INSERT_MODULE[] =
                "Insert a memory\x0FFmodule\x0"
                "Hafiza modulu takin";
              byte code STR_NO_MODULE[] =
                "Memory module\x0FFis not present\x0"
                "Hafiza modulu\x0FFhazir degil";
              byte code STR_COPY_OK[] =
                "Copy successful\x0"
                "Kopyalama basarili";
              byte code STR_COPY_PROGRESS[] =
                "Progress:\x0FF\x0FF\x0FF\x0"
                "Kopyalaniyor:\x0FF\x0FF\x0FF";
              byte code STR_CANT_COPY_CONFIG[] =
                "Cannot read\x0FFconfiguration\x0"
                "Konfigurasyon\x0FFokunamiyor";
              
              // Gsm
              
              #ifdef VERSION_GSM          // Pouze pokud pouziva GSM
              
              byte code STR_GSM_USE[] =
                "Use GSM\x0FFcommunication?\x0"
                "GSM kullanacakmisiniz?";
              byte code STR_GSM_MIDNIGHT[] =
                "Send statistics\x0FFat midnight?\x0"
                "Istatikler hergece\x0FFgonderilsinmi?";
              byte code STR_GSM_PERIOD[] =
                "Period:\x0FF\x0FF\x0FF\x0"
                "Periyot:\x0FF\x0FF\x0FF";
              byte code STR_GSM_PERIOD_DAYS[] =
                "days\x0"
                "Gunler";
              byte code STR_GSM_REQUEST[] =
                "Send data\x0FFupon request?\x0"
                "SMS icerigi?";
              byte code STR_GSM_CHECK_NUMBERS[] =
                "Check numbers?\x0"
                "Numarayi kontrol et?";
              byte code STR_GSM_NUMBER[] =
                "Phone number:\x0FF\x0FF\x0FF\x0"
                "Telefon numarasi:\x0FF\x0FF\x0FF";
              byte code STR_GSM_ACTIVE_NUMBERS[] =
                "Active numbers:\x0FF\x0FF\x0FF\x0"
                "Aktif numaralar:\x0FF\x0FF\x0FF";
              
              #endif // VERSION_GSM
              
              // RS-485
              
              #if defined(VERSION_DACS_LW1) || defined(VERSION_DACS_ACS6) || defined(VERSION_MODBUS)
              
              byte code STR_RS485_ADDRESS[] =
                "Address:\x0FF\x0FF\x0FF\x0"
                "Adres:\x0FF\x0FF\x0FF";
              byte code STR_RS485_SPEED[] =
                "Speed:\x0FF\x0FF\x0FF\x0"
                "Hiz:\x0FF\x0FF\x0FF";
              byte code STR_RS485_SPEED_ITEMS[] =
                 "1200 Bd\x0" "2400 Bd\x0" "4800 Bd\x0" "9600 Bd\x0" "19200 Bd\x0" "38400 Bd\x0" "57600 Bd\x0" "115200 B
             -d";
C51 COMPILER V5.50,  LANGTR                                                                20/07/12  15:15:10  PAGE 6   

              byte code STR_RS485_PARITY[] =
                "Parity:\x0FF\x0FF\x0FF\x0"
                "Parity:\x0FF\x0FF\x0FF";
              byte code STR_RS485_PARITY_ITEMS[] =
                 "8-n-1\x0" "8-e-1\x0" "8-o-1\x0" "8-n-2";
              byte code STR_RS485_REPLY_DELAY[] =
                "Reply delay:\x0FF\x0FF\x0FF\x0"
                "Tekrar gecikmesi:\x0FF\x0FF\x0FF";
              byte code STR_RS485_MS[] =
                "ms\x0"
                "ms";
              
              #ifdef VERSION_MODBUS
              byte code STR_RS485_SILENT_INTERVAL[] =
                "Silent interval:\x0FF\x0FF\x0FF\x0"
                "Bekleme araligi:\x0FF\x0FF\x0FF";
              byte code STR_RS485_PROTOCOL[] =
                "Protocol:\x0FF\x0FF\x0FF\x0"
                "Protokol:\x0FF\x0FF\x0FF";
              byte code STR_RS485_PROTOCOL_ITEMS[] =
                 "MODBUS RTU\x0" "MODBUS ASCII";
              #endif // VERSION_MODBUS
              
              #endif // VERSION_DACS_LW1, VERSION_MODBUS
              
              //-----------------------------------------------------------------------------
              // Hlavni Menu
              //-----------------------------------------------------------------------------
              
              byte code STR_MAIN_MENU_IDLE[] =
                // Eng
                "Start weighing\x0"
                "Archive\x0"
                "Compare\x0"
                "Copy data\x0"
                "Setup\x0"
                // Tr
                "Tartim baslatma\x0"
                "Arsiv\x0"
                "Karsilastir\x0"
                "Kayit kopyala\x0"
                "Ayar";
              
              byte code STR_MAIN_MENU_WAITING[] =
                // Eng
                "Stop weighing\x0"
                "Archive\x0"
                "Compare\x0"
                "Copy data\x0"
                "Setup\x0"
                // Tr
                "Tartim durduruldu\x0"
                "Arsiv\x0"
                "Karsilastir\x0"
                "Kayit kopyala\x0"
                "Ayar";
              
              byte code STR_MAIN_MENU_WEIGHING[] =
                // Eng
                "Pause weighing\x0"
                "Stop weighing\x0"
                "Archive\x0"
                "Compare\x0"
                "Copy data\x0"
                "Setup\x0"
                // Tr
C51 COMPILER V5.50,  LANGTR                                                                20/07/12  15:15:10  PAGE 7   

                "Tartim bekletiliyor\x0"
                "Tartim durduruldu\x0"
                "Arsiv\x0"
                "Karsilastir\x0"
                "Kayit kopyala\x0"
                "Ayar";
              
              byte code STR_MAIN_MENU_PAUSE[] =
                // Eng
                "Continue weighing\x0"
                "Stop weighing\x0"
                "Archive\x0"
                "Compare\x0"
                "Copy data\x0"
                "Setup\x0"
                // Tr
                "Tartim devam ediyor\x0"
                "Tartim durduruldu\x0"
                "Arsiv\x0"
                "Karsilastir\x0"
                "Kayit kopyala\x0"
                "Ayar";
              
              //-----------------------------------------------------------------------------
              // Menu nastaveni
              //-----------------------------------------------------------------------------
              
              byte code STR_MENU_SETUP_TITLE[] =
                "Setup\x0"
                "Ayar";
              
              byte code STR_MENU_SETUP[] =
                // Eng
                "Date and time\x0"
                "Identification number\x0"
                "Flocks\x0"
                "Statistics\x0"
              #ifdef VERSION_GSM
                "GSM\x0"
              #else
                "RS-485\x0"
              #endif // VERSION_GSM
                "Scale\x0"
                "Backlight\x0"
                "Read from module\x0"
                "Start online\x0"
                // Tr
                "Tarih ve saat\x0"
                "ID numarasi\x0"
                "Suruler\x0"
                "Istatikler\x0"
              #ifdef VERSION_GSM
                "GSM\x0"
              #else
                "RS-485\x0"
              #endif // VERSION_GSM
                "Teraziler\x0"
                "Aydinlatma\x0"
                "Modulden oku\x0"
                "Online start";
              
              //-----------------------------------------------------------------------------
              // Menu hejna
              //-----------------------------------------------------------------------------
              
              byte code STR_MENU_SETUP_FLOCKS_TITLE[] =
C51 COMPILER V5.50,  LANGTR                                                                20/07/12  15:15:10  PAGE 8   

                "Flocks\x0"
                "Suruler";
              
              byte code STR_MENU_SETUP_FLOCKS[] =
                // Eng
                "New flock\x0"
                "Edit flock\x0"
                "Delete flock\x0"
                "Delete all flocks\x0"
                // Tr
                "Yeni suru\x0"
                "Edit suru\x0"
                "Suru sil\x0"
                "Tum suruleri sil";
              
              //-----------------------------------------------------------------------------
              // Menu vahy
              //-----------------------------------------------------------------------------
              
              byte code STR_MENU_SETUP_SCALE_TITLE[] =
                "Scale\x0"
                "Teraziler";
              
              byte code STR_MENU_SETUP_SCALE[] =
                // Eng
                "Saving parameters\x0"
                "Correction curve\x0"
                "Units\x0"
                "Calibration\x0"
                // Tr
                "Parametreleri kaydet\x0"
                "Egri duzeltme\x0"
                "Birim\x0"
                "Kalibrasyon";
              
              //-----------------------------------------------------------------------------
              // Menu GSM
              //-----------------------------------------------------------------------------
              
              #ifdef VERSION_GSM          // Pouze pokud pouziva GSM
              
              byte code STR_MENU_SETUP_GSM_TITLE[] =
                "GSM\x0"
                "GSM";
              
              byte code STR_MENU_SETUP_GSM[] =
                // Eng
                "Settings\x0"
                "Numbers\x0"
                // Tr
                "Ayarlamalar\x0"
                "Numaralar";
              
              #endif // VERSION_GSM
              
              //-----------------------------------------------------------------------------
              // Menu RS-485
              //-----------------------------------------------------------------------------
              
              #if defined(VERSION_DACS_LW1) || defined(VERSION_DACS_ACS6) || defined(VERSION_MODBUS)
              
              byte code STR_MENU_SETUP_RS485_TITLE[] =
                "RS-485\x0"
                "RS-485";
              
              byte code STR_MENU_SETUP_RS485[] =
C51 COMPILER V5.50,  LANGTR                                                                20/07/12  15:15:10  PAGE 9   

                // Eng
                "Address\x0"
                "Speed\x0"
                "Parity\x0"
              #ifdef VERSION_MODBUS
                "Protocol\x0"
              #endif // VERSION_MODBUS
                "Delays\x0"
                // Fra
                "Adres\x0"
                "Hiz\x0"
                "Parity\x0"
              #ifdef VERSION_MODBUS
                "Protokol\x0"
              #endif // VERSION_MODBUS
                "Gecikmeler";
              
              #endif // VERSION_DACS_LW1, VERSION_MODBUS
              
              //-----------------------------------------------------------------------------
              // Editace hejn
              //-----------------------------------------------------------------------------
              
              byte code STR_FLOCK_EXISTS[] =
                "The flock already exists.\x0FFEnter different number.\x0"
                "Suru numarasi var,\x0FFbaska numara giriniz.";
              byte code STR_FLOCK_DOESNT_EXIST[] =
                "The selected flock\x0FFdoesn't exist.\x0FFSelect another number.\x0"
                "Secilen suru numarasi\x0FFyok, baska numara\x0FFseciniz.";
              byte code STR_ENTER_FLOCK_NAME[] =
                "Flock name:\x0FF\x0FF\x0FF\x0"
                "Suru ismi:\x0FF\x0FF\x0FF";
              byte code STR_USE_BOTH_GENDERS[] =   // Vyuziva i Menu.c
                "Use both genders?\x0"
                "Disi / Erkek\x0FFayristiracakmisiniz?";
              byte code STR_USE_CURVES[] =
                "Use growth curves?\x0"
                "Buyume egrisi\x0FFkullanilacakmi?";
              byte code STR_PREFACE_CURVE_FEMALES[] =
                "Now you can enter\x0FFa growth curve\x0FFfor females.\x0"
                "Disi icin buyume\x0FFegrisi giriniz";
              byte code STR_PREFACE_CURVE_MALES[] =
                "Now you can enter\x0FFa growth curve\x0FFfor males.\x0"
                "Erkek icin buyume\x0FFegrisi giriniz";
              byte code STR_PREFACE_CURVE[] =
                "Now you can enter\x0FFa growth curve.\x0"
                "Buyume egrisi giriniz";
              byte code STR_USE_TIME_LIMIT[] =
                "Limit the weighing\x0FFby time?\x0"
                "Tartim zamani\x0FFayarlanacakmi?";
              byte code STR_LIMIT_FROM[] =
                "Weigh from:\x0FF\x0FF\x0FF\x0"
                "Tartim baslangici:\x0FF\x0FF\x0FF";
              byte code STR_LIMIT_TILL[] =
                "Weigh till:\x0FF\x0FF\x0FF\x0"
                "Tartim sonu:\x0FF\x0FF\x0FF";
              byte code STR_LIMIT_TIME[] =
                "Hours\x0"
                "Zaman";
              
              byte code STR_INITIAL_WEIGHT[] =
                "Initial weight:\x0FF\x0FF\x0FF\x0"
                "Belirlenen agirlik:\x0FF\x0FF\x0FF";
              byte code STR_INITIAL_WEIGHT_FEMALES[] =
                "Initial weight\x0FFfor females:\x0FF\x0FF\x0"
                "Disi icin\x0FFbelirlenen agirlik:\x0FF\x0FF";
C51 COMPILER V5.50,  LANGTR                                                                20/07/12  15:15:10  PAGE 10  

              byte code STR_INITIAL_WEIGHT_MALES[] =
                "Initial weight\x0FFfor males:\x0FF\x0FF\x0"
                "Erkek icin\x0FFbelirlenen agirlik:\x0FF\x0FF";
              
              byte code STR_NO_FLOCK_FOUND[] =
                "No flock found\x0"
                "Suru bulunamadi";
              byte code STR_CHOOSE_FLOCK[] =
                "Choose a flock:\x0FF\x0FF\x0FF\x0"
                "Suru sec:\x0FF\x0FF\x0FF";
              byte code STR_NONAME[] =
                "no name\x0"
                "isimsiz";
              
              // ---------------------------------------------------------------------------------------------
              // Editace rustove krivky
              // ---------------------------------------------------------------------------------------------
              
              byte code STR_SAVE[] =
                "Save\x0"
                "Kaydet";
              byte code STR_DELETE[] =
                "Delete\x0"
                "Sil";
              byte code STR_QUIT[] =
                "Quit\x0"
                "Cikis";
              byte code STR_NEXT[] =
                "Next\x0"
                "Ileri";
              byte code STR_ADD[] =
                "Add\x0"
                "Ekle";
              byte code STR_CHANGE[] =
                "Change\x0"
                "Degistir";
              byte code STR_MOVE[] =
                "Move\x0"
                "Tasi";
              byte code STR_DAY_COLON[] =
                "Day:\x0"
                "Gun:";
              byte code STR_WEIGHT_COLON[] =
                "Weight:\x0"
                "Agirlik:";
              byte code STR_CURVE_FULL[] =
                "The curve is full\x0"
                "Egri dolu";
              
              byte code STR_CURVE_DAY_EXISTS[] =
                "The day already exists.\x0FFOverwrite?\x0"
                "Gun degeri var,\x0FFuzerine yazilsinmi?";
              byte code STR_CURVE_DELETE[] =
                "Delete the selected\x0FFday from the table?\x0"
                "Secilen gun degerlerini\x0FFtablodan sil?";
              
              //-----------------------------------------------------------------------------
              // SMS - Pozor, nevyuzivat zadne diakriticke znaky
              //-----------------------------------------------------------------------------
              
              byte code STR_SMS_SCALES[] =
                "SCALE \x0"
                "TERAZILER ";
              byte code STR_SMS_DAY[] =
                "DAY \x0"
                "GUN ";
C51 COMPILER V5.50,  LANGTR                                                                20/07/12  15:15:10  PAGE 11  

              byte code STR_SMS_FEMALE[] =
                "FEMALES: \x0"
                "DISI: ";
              byte code STR_SMS_MALE[] =
                "MALES: \x0"
                "ERKEK: ";
              byte code STR_SMS_CNT[] =
                "Cnt \x0"
                "Adt ";
              byte code STR_SMS_AVG[] =
                "Avg \x0"
                "Ort ";
              byte code STR_SMS_GAIN[] =
                "Gain \x0"
                "Kznc ";
              byte code STR_SMS_SIG[] =
                "Sig \x0"
                "Sig ";
              byte code STR_SMS_CV[] =
                "Cv \x0"
                "Cv ";
              byte code STR_SMS_UNI[] =
                "Uni \x0"
                "Uni ";
              
              byte code STR_SMS_STOPPED[] =
                "STOPPED\x0"
                "DURDU";
              byte code STR_SMS_WAITING[] =
                "WAITING\x0"
                "BEKLIYOR";
              byte code STR_SMS_NODATA[] =
                "NO DATA\x0"
                "KAYIT YOK";
              
              // ---------------------------------------------------------------------------------------------
              // Editace korekcni krivky
              // ---------------------------------------------------------------------------------------------
              
              byte code STR_CORRECTION_USE[] =
                "Use correction curve?\x0"
                "Egri duzeltme kullan?";
              
              byte code STR_CORRECTION_DAY1[] =
                "Day 1:\x0FF\x0FF\x0FF\x0"
                "Gun 1:\x0FF\x0FF\x0FF";
              
              byte code STR_CORRECTION_DAY2[] =
                "Day 2:\x0FF\x0FF\x0FF\x0"
                "Gun 2:\x0FF\x0FF\x0FF";
              
              byte code STR_CORRECTION_CORRECTION[] =
                "Correction:\x0FF\x0FF\x0FF\x0"
                "Duzeltme:\x0FF\x0FF\x0FF";
              
              
              #endif
C51 COMPILER V5.50,  LANGTR                                                                20/07/12  15:15:10  PAGE 12  

ASSEMBLY LISTING OF GENERATED OBJECT CODE




MODULE INFORMATION:   STATIC OVERLAYABLE
   CODE SIZE        =   ----    ----
   CONSTANT SIZE    =   ----    ----
   XDATA SIZE       =   ----    ----
   PDATA SIZE       =   ----    ----
   DATA SIZE        =   ----    ----
   IDATA SIZE       =   ----    ----
   BIT SIZE         =   ----    ----
END OF MODULE INFORMATION.


C51 COMPILATION COMPLETE.  0 WARNING(S),  0 ERROR(S)
