C51 COMPILER V5.50,  LANGSP                                                                20/07/12  15:15:10  PAGE 1   


DOS C51 COMPILER V5.50, COMPILATION OF MODULE LANGSP
OBJECT MODULE PLACED IN LANGSP.OBJ
COMPILER INVOKED BY: E:\C51_V5.5\BIN\C51.EXE LANGSP.C51 CD DB

stmt level    source

   1          //*****************************************************************************
   2          //
   3          // Definice stringu:
   4          //   - En
   5          //   - Sp
   6          //
   7          //*****************************************************************************
   8          
   9          #include "Lang.h"                   // Stringy
  10          
  11          #ifdef LANG_VERSION_SP  // Prekladam, jen pokud je tato jazykova verze aktivni
              
              // ---------------------------------------------------------------------------------------------
              // Definice jazyka
              // ---------------------------------------------------------------------------------------------
              
              byte code STR_LANGUAGE[] = "Language";   // Toto menu se nepreklada
              byte code STR_MENU_LANGUAGE[] =
                "English\x0"
                "Espa\x01Aol";
              
              // ---------------------------------------------------------------------------------------------
              // HW verze
              // ---------------------------------------------------------------------------------------------
              
              byte code STR_HW_VERSION[] =
                "GSM\x0"
                "LW1\x0"
                "MODBUS\x0"
                "ACS6";
              
              // ---------------------------------------------------------------------------------------------
              // Menu
              // ---------------------------------------------------------------------------------------------
              
              byte code STR_DAY[] =
                "Day\x0"
                "D\x084a";
              byte code STR_WEIGHT[] =
                "Weight\x0"
                "Peso";
              byte code STR_START[] =
                "Start\x0"
                "Inicio";
              byte code STR_FLOCK[] =
                "Flock\x0"
                "Lote";
              byte code STR_TARGET_WEIGHT[] =
                "Target\x0"
                "Objetivo";
              byte code STR_LAST_SAVED_WEIGHT[] =
                "Last\x0"
                "Ultimo";
              byte code STR_COUNT[] =
                "Count\x0"
                "N\x08Amero";
              byte code STR_OK[] =
                "OK\x0"
                "OK";
C51 COMPILER V5.50,  LANGSP                                                                20/07/12  15:15:10  PAGE 2   

              byte code STR_CANCEL[] =
                "Cancel\x0"
                "Anular";
              byte code STR_RETRY[] =
                "Retry\x0"
                "Reintentar";
              byte code STR_YES[] =
                "Yes\x0"
                "Si";
              byte code STR_NO[] =
                "No\x0"
                "No";
              byte code STR_ERROR[] =
                "Error\x0"
                "Error";
              byte code STR_WAIT[] =
                "Wait\x0"
                "Esperar";
              byte code STR_HEADS[] =
                "hds\x0"
                "dis";
              /*byte code STR_VERZE[] =
                "version\x0"
                "version";*/
              
              // Jednotky mam zvlast pro vyber v menu a pro zobrazeni (kvuli jednoduchosti)
              byte code STR_UNITS_MENU[]=    // Pro menu
                 "kg\x0" "lb\x0"
                 "kg\x0" "lb";
              byte code STR_UNITS[_UNITS_COUNT][_LANG_COUNT][3]= {   // Pro zobrazeni
                {
                  "kg",
                  "kg"
                },
                {
                  "lb",
                  "lb"
                }
              };
              
              // Dilek v menu
              byte code STR_DIVISION_MENU[] =
                "1\x0"
                "2\x0"
                "5\x0"
                "10";
              
              byte code STR_INVALID_VALUE[] =
                "The value\x0FFis not valid\x0"
                "Valor errado";
              byte code STR_SAVE_CHANGES[] =
                "Save changes?\x0"
                "\x0EFGrabar?";
              byte code STR_STOP_WEIGHING_FIRST[] =
                "Weighing is started.\x0FFStop the weighing\x0FFfirst.\x0"
                "Pesaje ha comenzado.\x0FFDetener la pesa primero.";
              
              // Typy zobrazeni behem vazeni
              byte code STR_WEIGHING_IDLE[] =
                "STOPPED\x0"
                "DETENIDO";
              byte code STR_WEIGHING_WAITING[] =
                "WAITING\x0"
                "EN ESPERA";
              byte code STR_WEIGHING_WEIGHING[] =
                "WEIGHING\x0"
C51 COMPILER V5.50,  LANGSP                                                                20/07/12  15:15:10  PAGE 3   

                "PESANDO";
              byte code STR_WEIGHING_PAUSE[] =
                "PAUSED\x0"
                "PAUSA";
              byte code STR_WEIGHING_ONLINE[] =
                "ONLINE\x0"
                "EN L\x093NEA";
              
              // Historie
              byte code STR_ARCHIVE[] =
                "ARCHIVE\x0"
                "ARCHIVO";
              
              // Statistika
              byte code STR_CV[] =
                "Cv\x0"
                "Cv";
              byte code STR_UNI[] =
                "UNI\x0"
                "UNI";
              
              // Logger
              byte code STR_PAGE[] =
                "Page\x0"
                "P\x07Fgina";
              byte code STR_NO_DATA[] =
                "No data\x0"
                "Sin datos";
              
              // Editace hejna
              byte code STR_STOP_WEIGHING[] =
                "Really stop\x0FFweighing of the flock?\x0"
                "\x0EFDetener el pesaje\x0FFde este lote?";
              byte code STR_SELECT_ANOTHER_FLOCK[] =
                "The selected flock is\x0FFnow weighed.\x0FFSelect another flock.\x0"
                "El lote seleccionado\x0FFse ha pesado.\x0FFSeleccione otro lote.";
              byte code STR_USE_FLOCK[] =
                "Use a predefined flock?\x0"
                "\x0EFUsar lote predefinido?";
              byte code STR_STARTING_DAY[] =
                "Starting day:\x0FF\x0FF\x0FF\x0"
                "D\x084a de inicio:\x0FF\x0FF\x0FF";
              byte code STR_FLOCK_NUMBER[] =
                "Flock number:\x0FF\x0FF\x0FF\x0"
                "N\x08Amero de lote:\x0FF\x0FF\x0FF";
              byte code STR_REALLY_DELETE_ALL_FLOCKS[] =
                "Really delete\x0FFall the flocks?\x0"
                "\x0EFBorrar todos los lotes?";
              byte code STR_ALL_FLOCKS_DELETED[] =
                "All the flocks\x0FFwere deleted.\x0"
                "Todos los lotes\x0FFborrados.";
              byte code STR_START_WEIGHING_NOW[] =
                "Start weighing now?\x0"
                "\x0EFComenzar a pesar?";
              byte code STR_COMPARE_RESULTS[] =
                "Compare with\x0FFanother flock?\x0"
                "\x0EFComparar con otro lote?";
              byte code STR_FLOCK_NOT_VALID[] =
                "The selected flock is\x0FFnot valid.\x0FFSelect another flock.\x0"
                "Lote seleccionado\x0FFno valido.\x0FF\x0EFSelecionar otro lote?";
              
              // Editace datumu a casu
              byte code STR_DATE[] =
                "Date:\x0FF\x0FF\x0FF\x0"
                "Fecha:\x0FF\x0FF\x0FF";
              byte code STR_TIME[] =
C51 COMPILER V5.50,  LANGSP                                                                20/07/12  15:15:10  PAGE 4   

                "Time:\x0FF\x0FF\x0FF\x0"
                "Hora:\x0FF\x0FF\x0FF";
              
              // Editace identifikacniho cisla
              byte code STR_IDENTIFICATION_NUMBER[] =
                "Identification number:\x0FF\x0FF\x0FF\x0"
                "N\x08Amero de identificaci\x086n:\x0FF\x0FF\x0FF";
              
              // Editace parametru statistiky
              byte code STR_HISTOGRAM_RANGE[] =
                "Histogram range:\x0FF\x0FF\x0FF\x0"
                "Rango del histogr\x07Fma:\x0FF\x0FF\x0FF";
              byte code STR_UNIFORMITY_RANGE[] =
                "Uniformity range:\x0FF\x0FF\x0FF\x0"
                "Rango de uniformidad:\x0FF\x0FF\x0FF";
              
              // Parametry naslapne vahy
              byte code STR_SCALE_MARGIN_ABOVE_FEMALES[] =
                "Margin above target\x0FFfor females:\x0FF\x0FF\x0"
                "Valor sobre el objetivo\x0FFpara hembras:\x0FF\x0FF";
              byte code STR_SCALE_MARGIN_BELOW_FEMALES[] =
                "Margin under target\x0FFfor females:\x0FF\x0FF\x0"
                "Valor debajo del objetivo\x0FFpara hembras:\x0FF\x0FF";
              byte code STR_SCALE_MARGIN_ABOVE_MALES[] =
                "Margin above target\x0FFfor males:\x0FF\x0FF\x0"
                "Valor sobre el objetivo\x0FFpara machos:\x0FF\x0FF";
              byte code STR_SCALE_MARGIN_BELOW_MALES[] =
                "Margin under target\x0FFfor males:\x0FF\x0FF\x0"
                "Valor debajo del objetivo\x0FFpara machos:\x0FF\x0FF";
              byte code STR_SCALE_FILTER[] =
                "Filter:\x0FF\x0FF\x0FF\x0"
                "Filtro:\x0FF\x0FF\x0FF";
              byte code STR_SCALE_STABILIZATION_RANGE[] =
                "Stabilization:\x0FF\x0FF\x0FF\x0"
                "Estabilizaci\x086n:\x0FF\x0FF\x0FF";
              byte code STR_SCALE_STABILIZATION_TIME[] =
                "Stabilization\x0FFtime:\x0FF\x0FF\x0"
                "Tiempo\x0FFde estabilizaci\x086n:\x0FF\x0FF";
              byte code STR_SCALE_AUTO_MODE_TYPE[] =
                "Use gain in\x0FFautomatic mode?\x0"
                "\x0EFUsar el modo\x0FFde ganancia autom\x07Ftica?";
              byte code STR_JUMP_MODE[] =
                 "Save sample upon:\x0FF\x0FF\x0FF\x0"
                 "Grabar muestra:\x0FF\x0FF\x0FF";
              byte code STR_ENTER_LEAVE_BOTH[] =
                 "Entering the scale\x0" "Leaving the scale\x0" "Both\x0"
                 "Almacenar al entrar\x0" "Almacenar al salir\x0" "Grabar al entrar y salir";
              
              // Kalibrace
              byte code STR_CALIBRATION_UNITS[] =
                "Units:\x0FF\x0FF\x0FF\x0"
                "Unidades:\x0FF\x0FF\x0FF";
              byte code STR_CALIBRATION_DIVISION[] =
                "Division:\x0FF\x0FF\x0FF\x0"
                "Divisi\x086n:\x0FF\x0FF\x0FF";
              byte code STR_CALIBRATION_ZERO[] =
                "Empty the scale\x0"
                "Descargar la balanza";
              byte code STR_CALIBRATION_RANGE[] =
                "Put on the scale:\x0FF\x0FF\x0FF\x0"
                "Colocar en la balanza:\x0FF\x0FF\x0FF";
              
              // Podsvit
              byte code STR_BACKLIGHT[]=
                 "Backlight:\x0FF\x0FF\x0FF\x0"
                 "Retroiluminaci\x01Bn:\x0FF\x0FF\x0FF";
C51 COMPILER V5.50,  LANGSP                                                                20/07/12  15:15:10  PAGE 5   

              
              byte code STR_ON_OFF_AUTO[]=
                 "Off\x0" "On\x0" "Automatic\x0"
                 "Apagado\x0" "Encendido\x0" "Autom\x07Ftico";
              
              // Kopie do a z pametoveho modulu
              byte code STR_INSERT_MODULE[] =
                "Insert a memory\x0FFmodule\x0"
                "Insertar el modulo\x0FFde memoria";
              byte code STR_NO_MODULE[] =
                "Memory module\x0FFis not present\x0"
                "El modulo de memoria\x0FFno esta presente";
              byte code STR_COPY_OK[] =
                "Copy successful\x0"
                "Copia exitosa";
              byte code STR_COPY_PROGRESS[] =
                "Progress:\x0FF\x0FF\x0FF\x0"
                "Progreso:\x0FF\x0FF\x0FF";
              byte code STR_CANT_COPY_CONFIG[] =
                "Cannot read\x0FFconfiguration\x0"
                "No se puede leer\x0FFla configuraci\x086n";
              
              // Gsm
              
              #ifdef VERSION_GSM          // Pouze pokud pouziva GSM
              
              byte code STR_GSM_USE[] =
                "Use GSM\x0FFcommunication?\x0"
                "\x0EFUsar comunicaci\x086n GSM?";
              byte code STR_GSM_MIDNIGHT[] =
                "Send statistics\x0FFat midnight?\x0"
                "\x0EFEnviar estad\x084sticas\x0FFa medianoche?";
              byte code STR_GSM_PERIOD[] =
                "Period:\x0FF\x0FF\x0FF\x0"
                "Per\x084odo:\x0FF\x0FF\x0FF";
              byte code STR_GSM_PERIOD_DAYS[] =
                "days\x0"
                "Dias";
              byte code STR_GSM_REQUEST[] =
                "Send data\x0FFupon request?\x0"
                "\x0EFEnviar datos\x0FFpor solicitud?";
              byte code STR_GSM_CHECK_NUMBERS[] =
                "Check numbers?\x0"
                "\x0EFVerificar n\x08Ameros?";
              byte code STR_GSM_NUMBER[] =
                "Phone number:\x0FF\x0FF\x0FF\x0"
                "N\x08Amero de Tel\x082fono:\x0FF\x0FF\x0FF";
              byte code STR_GSM_ACTIVE_NUMBERS[] =
                "Active numbers:\x0FF\x0FF\x0FF\x0"
                "Tel\x082fonos activos:\x0FF\x0FF\x0FF";
              
              #endif // VERSION_GSM
              
              // RS-485
              
              #if defined(VERSION_DACS_LW1) || defined(VERSION_DACS_ACS6) || defined(VERSION_MODBUS)
              
              byte code STR_RS485_ADDRESS[] =
                "Address:\x0FF\x0FF\x0FF\x0"
                "Direcci\x086n:\x0FF\x0FF\x0FF";
              byte code STR_RS485_SPEED[] =
                "Speed:\x0FF\x0FF\x0FF\x0"
                "Velocidad:\x0FF\x0FF\x0FF";
              byte code STR_RS485_SPEED_ITEMS[] =
                 "1200 Bd\x0" "2400 Bd\x0" "4800 Bd\x0" "9600 Bd\x0" "19200 Bd\x0" "38400 Bd\x0" "57600 Bd\x0" "115200 B
             -d";
C51 COMPILER V5.50,  LANGSP                                                                20/07/12  15:15:10  PAGE 6   

              byte code STR_RS485_PARITY[] =
                "Parity:\x0FF\x0FF\x0FF\x0"
                "Paridad:\x0FF\x0FF\x0FF";
              byte code STR_RS485_PARITY_ITEMS[] =
                 "8-n-1\x0" "8-e-1\x0" "8-o-1\x0" "8-n-2";
              byte code STR_RS485_REPLY_DELAY[] =
                "Reply delay:\x0FF\x0FF\x0FF\x0"
                "Respuesta:\x0FF\x0FF\x0FF";
              byte code STR_RS485_MS[] =
                "ms\x0"
                "ms";
              
              #ifdef VERSION_MODBUS
              byte code STR_RS485_SILENT_INTERVAL[] =
                "Silent interval:\x0FF\x0FF\x0FF\x0"
                "Intervalo:\x0FF\x0FF\x0FF";
              byte code STR_RS485_PROTOCOL[] =
                "Protocol:\x0FF\x0FF\x0FF\x0"
                "Protocolo:\x0FF\x0FF\x0FF";
              byte code STR_RS485_PROTOCOL_ITEMS[] =
                 "MODBUS RTU\x0" "MODBUS ASCII";
              #endif // VERSION_MODBUS
              
              #endif // VERSION_DACS_LW1, VERSION_MODBUS
              
              //-----------------------------------------------------------------------------
              // Hlavni Menu
              //-----------------------------------------------------------------------------
              
              byte code STR_MAIN_MENU_IDLE[] =
                // Eng
                "Start weighing\x0"
                "Archive\x0"
                "Compare\x0"
                "Copy data\x0"
                "Setup\x0"
                // Sp
                "Iniciar peso\x0"
                "Archivo\x0"
                "Comparar\x0"
                "Copiar datos\x0"
                "Programar";
              
              byte code STR_MAIN_MENU_WAITING[] =
                // Eng
                "Stop weighing\x0"
                "Archive\x0"
                "Compare\x0"
                "Copy data\x0"
                "Setup\x0"
                // Sp
                "Detener peso\x0"
                "Archivo\x0"
                "Comparar\x0"
                "Copiar datos\x0"
                "Programar";
              
              byte code STR_MAIN_MENU_WEIGHING[] =
                // Eng
                "Pause weighing\x0"
                "Stop weighing\x0"
                "Archive\x0"
                "Compare\x0"
                "Copy data\x0"
                "Setup\x0"
                // Sp
C51 COMPILER V5.50,  LANGSP                                                                20/07/12  15:15:10  PAGE 7   

                "Pausar peso\x0"
                "Detener peso\x0"
                "Archivo\x0"
                "Comparar\x0"
                "Copiar datos\x0"
                "Programar";
              
              byte code STR_MAIN_MENU_PAUSE[] =
                // Eng
                "Continue weighing\x0"
                "Stop weighing\x0"
                "Archive\x0"
                "Compare\x0"
                "Copy data\x0"
                "Setup\x0"
                // Sp
                "Continuar pesando\x0"
                "Detener peso\x0"
                "Archivo\x0"
                "Comparar\x0"
                "Copiar datos\x0"
                "Programar";
              
              //-----------------------------------------------------------------------------
              // Menu nastaveni
              //-----------------------------------------------------------------------------
              
              byte code STR_MENU_SETUP_TITLE[] =
                "Setup\x0"
                "Programar";
              
              byte code STR_MENU_SETUP[] =
                // Eng
                "Date and time\x0"
                "Identification number\x0"
                "Flocks\x0"
                "Statistics\x0"
              #ifdef VERSION_GSM
                "GSM\x0"
              #else
                "RS-485\x0"
              #endif // VERSION_GSM
                "Scale\x0"
                "Backlight\x0"
                "Read from module\x0"
                "Start online\x0"
                // Sp
                "Fecha y hora\x0"
                "N\x08Amero de identificaci\x086n\x0"
                "Lotes\x0"
                "Estad\x084sticas\x0"
              #ifdef VERSION_GSM
                "GSM\x0"
              #else
                "RS-485\x0"
              #endif // VERSION_GSM
                "Balanzas\x0"
                "Retroiluminaci\x01Bn\x0"
                "Leer desde el modulo\x0"
                "Iniciar peso en l\x084nea";
              
              //-----------------------------------------------------------------------------
              // Menu hejna
              //-----------------------------------------------------------------------------
              
              byte code STR_MENU_SETUP_FLOCKS_TITLE[] =
C51 COMPILER V5.50,  LANGSP                                                                20/07/12  15:15:10  PAGE 8   

                "Flocks\x0"
                "Lotes";
              
              byte code STR_MENU_SETUP_FLOCKS[] =
                // Eng
                "New flock\x0"
                "Edit flock\x0"
                "Delete flock\x0"
                "Delete all flocks\x0"
                // Sp
                "Nuevo lote\x0"
                "Editar lote\x0"
                "Borrar lote actual\x0"
                "Borrar todos los lotes";
              
              //-----------------------------------------------------------------------------
              // Menu vahy
              //-----------------------------------------------------------------------------
              
              byte code STR_MENU_SETUP_SCALE_TITLE[] =
                "Scale\x0"
                "Balanzas";
              
              byte code STR_MENU_SETUP_SCALE[] =
                // Eng
                "Saving parameters\x0"
                "Correction curve\x0"
                "Units\x0"
                "Calibration\x0"
                // Sp
                "Salvar par\x07Fmetros\x0"
                "Curva de correcci\x086n\x0"
                "Unidades\x0"
                "Calibraci\x086n";
              
              //-----------------------------------------------------------------------------
              // Menu GSM
              //-----------------------------------------------------------------------------
              
              #ifdef VERSION_GSM          // Pouze pokud pouziva GSM
              
              byte code STR_MENU_SETUP_GSM_TITLE[] =
                "GSM\x0"
                "GSM";
              
              byte code STR_MENU_SETUP_GSM[] =
                // Eng
                "Settings\x0"
                "Numbers\x0"
                // Sp
                "Ajustes\x0"
                "N\x08Ameros";
              
              #endif // VERSION_GSM
              
              //-----------------------------------------------------------------------------
              // Menu RS-485
              //-----------------------------------------------------------------------------
              
              #if defined(VERSION_DACS_LW1) || defined(VERSION_DACS_ACS6) || defined(VERSION_MODBUS)
              
              byte code STR_MENU_SETUP_RS485_TITLE[] =
                "RS-485\x0"
                "RS-485";
              
              byte code STR_MENU_SETUP_RS485[] =
C51 COMPILER V5.50,  LANGSP                                                                20/07/12  15:15:10  PAGE 9   

                // Eng
                "Address\x0"
                "Speed\x0"
                "Parity\x0"
              #ifdef VERSION_MODBUS
                "Protocol\x0"
              #endif // VERSION_MODBUS
                "Delays\x0"
                // Fra
                "Direcci\x086n\x0"
                "Velocidad\x0"
                "Paridad\x0"
              #ifdef VERSION_MODBUS
                "Protocolo\x0"
              #endif // VERSION_MODBUS
                "Demora";
              
              #endif // VERSION_DACS_LW1, VERSION_MODBUS
              
              //-----------------------------------------------------------------------------
              // Editace hejn
              //-----------------------------------------------------------------------------
              
              byte code STR_FLOCK_EXISTS[] =
                "The flock already exists.\x0FFEnter different number.\x0"
                "Este lote ya existe.\x0FFIngrese otro diferente.";
              byte code STR_FLOCK_DOESNT_EXIST[] =
                "The selected flock\x0FFdoesn't exist.\x0FFSelect another number.\x0"
                "El lote seleccionado\x0FFno existe.\x0FFSeleccione otro.";
              byte code STR_ENTER_FLOCK_NAME[] =
                "Flock name:\x0FF\x0FF\x0FF\x0"
                "Nombre del lote:\x0FF\x0FF\x0FF";
              byte code STR_USE_BOTH_GENDERS[] =   // Vyuziva i Menu.c
                "Use both genders?\x0"
                "\x0EFPesar machos\x0FFy hembras juntos?";
              byte code STR_USE_CURVES[] =
                "Use growth curves?\x0"
                "\x0EFUsar curvas\x0FFde crecimiento?";
              byte code STR_PREFACE_CURVE_FEMALES[] =
                "Now you can enter\x0FFa growth curve\x0FFfor females.\x0"
                "Ingrese la curva\x0FFde crecimiento para\x0FFhembras.";
              byte code STR_PREFACE_CURVE_MALES[] =
                "Now you can enter\x0FFa growth curve\x0FFfor males.\x0"
                "Ingrese la curva\x0FFde crecimiento para\x0FFmachos.";
              byte code STR_PREFACE_CURVE[] =
                "Now you can enter\x0FFa growth curve.\x0"
                "Ingrese una curva\x0FFde crecimiento.";
              byte code STR_USE_TIME_LIMIT[] =
                "Limit the weighing\x0FFby time?\x0"
                "\x0EFLimitar el peso\x0FFa un horario?";
              byte code STR_LIMIT_FROM[] =
                "Weigh from:\x0FF\x0FF\x0FF\x0"
                "Pesar desde:\x0FF\x0FF\x0FF";
              byte code STR_LIMIT_TILL[] =
                "Weigh till:\x0FF\x0FF\x0FF\x0"
                "Pesar hasta:\x0FF\x0FF\x0FF";
              byte code STR_LIMIT_TIME[] =
                "Hours\x0"
                "Horas";
              
              byte code STR_INITIAL_WEIGHT[] =
                "Initial weight:\x0FF\x0FF\x0FF\x0"
                "Peso inicial:\x0FF\x0FF\x0FF";
              byte code STR_INITIAL_WEIGHT_FEMALES[] =
                "Initial weight\x0FFfor females:\x0FF\x0FF\x0"
                "Peso inicial\x0FFhembras:\x0FF\x0FF";
C51 COMPILER V5.50,  LANGSP                                                                20/07/12  15:15:10  PAGE 10  

              byte code STR_INITIAL_WEIGHT_MALES[] =
                "Initial weight\x0FFfor males:\x0FF\x0FF\x0"
                "Peso inicial\x0FFmachos:\x0FF\x0FF";
              
              byte code STR_NO_FLOCK_FOUND[] =
                "No flock found\x0"
                "Lote no existe";
              byte code STR_CHOOSE_FLOCK[] =
                "Choose a flock:\x0FF\x0FF\x0FF\x0"
                "Seleccione un lote:\x0FF\x0FF\x0FF";
              byte code STR_NONAME[] =
                "no name\x0"
                "sin nombre";
              
              // ---------------------------------------------------------------------------------------------
              // Editace rustove krivky
              // ---------------------------------------------------------------------------------------------
              
              byte code STR_SAVE[] =
                "Save\x0"
                "Salvar";
              byte code STR_DELETE[] =
                "Delete\x0"
                "Borrar";
              byte code STR_QUIT[] =
                "Quit\x0"
                "Salir";
              byte code STR_NEXT[] =
                "Next\x0"
                "Pr\x086ximo";
              byte code STR_ADD[] =
                "Add\x0"
                "A\x01Aadir";
              byte code STR_CHANGE[] =
                "Change\x0"
                "Cambiar";
              byte code STR_MOVE[] =
                "Move\x0"
                "Mover";
              byte code STR_DAY_COLON[] =
                "Day:\x0"
                "D\x084a:";
              byte code STR_WEIGHT_COLON[] =
                "Weight:\x0"
                "Peso:";
              byte code STR_CURVE_FULL[] =
                "The curve is full\x0"
                "Curva completa";
              
              byte code STR_CURVE_DAY_EXISTS[] =
                "The day already exists.\x0FFOverwrite?\x0"
                "Ese d\x084a existe.\x0FF\x0EFSobrescribir?";
              byte code STR_CURVE_DELETE[] =
                "Delete the selected\x0FFday from the table?\x0"
                "\x0EFBorrar de la tabla\x0FFel d\x084a elegido?";
              
              //-----------------------------------------------------------------------------
              // SMS - Pozor, nevyuzivat zadne diakriticke znaky
              //-----------------------------------------------------------------------------
              
              byte code STR_SMS_SCALES[] =
                "SCALE \x0"
                "BALANZAS ";
              byte code STR_SMS_DAY[] =
                "DAY \x0"
                "DIA ";
C51 COMPILER V5.50,  LANGSP                                                                20/07/12  15:15:10  PAGE 11  

              byte code STR_SMS_FEMALE[] =
                "FEMALES: \x0"
                "HEMBRA: ";
              byte code STR_SMS_MALE[] =
                "MALES: \x0"
                "MACHO: ";
              byte code STR_SMS_CNT[] =
                "Cnt \x0"
                "Num ";
              byte code STR_SMS_AVG[] =
                "Avg \x0"
                "Pro ";
              byte code STR_SMS_GAIN[] =
                "Gain \x0"
                "Gan ";
              byte code STR_SMS_SIG[] =
                "Sig \x0"
                "Sum ";
              byte code STR_SMS_CV[] =
                "Cv \x0"
                "Cv ";
              byte code STR_SMS_UNI[] =
                "Uni \x0"
                "Uni ";
              
              byte code STR_SMS_STOPPED[] =
                "STOPPED\x0"
                "DETENIDO";
              byte code STR_SMS_WAITING[] =
                "WAITING\x0"
                "ESPERANDO";
              byte code STR_SMS_NODATA[] =
                "NO DATA\x0"
                "SIN DATOS";
              
              // ---------------------------------------------------------------------------------------------
              // Editace korekcni krivky
              // ---------------------------------------------------------------------------------------------
              
              byte code STR_CORRECTION_USE[] =
                "Use correction curve?\x0"
                "Usar la curva\x0FFde correcci\x086n?";
              
              byte code STR_CORRECTION_DAY1[] =
                "Day 1:\x0FF\x0FF\x0FF\x0"
                "D\x084a 1:\x0FF\x0FF\x0FF";
              
              byte code STR_CORRECTION_DAY2[] =
                "Day 2:\x0FF\x0FF\x0FF\x0"
                "D\x084a 2:\x0FF\x0FF\x0FF";
              
              byte code STR_CORRECTION_CORRECTION[] =
                "Correction:\x0FF\x0FF\x0FF\x0"
                "Correcci\x086n:\x0FF\x0FF\x0FF";
              
              
              #endif
C51 COMPILER V5.50,  LANGSP                                                                20/07/12  15:15:10  PAGE 12  

ASSEMBLY LISTING OF GENERATED OBJECT CODE




MODULE INFORMATION:   STATIC OVERLAYABLE
   CODE SIZE        =   ----    ----
   CONSTANT SIZE    =   ----    ----
   XDATA SIZE       =   ----    ----
   PDATA SIZE       =   ----    ----
   DATA SIZE        =   ----    ----
   IDATA SIZE       =   ----    ----
   BIT SIZE         =   ----    ----
END OF MODULE INFORMATION.


C51 COMPILATION COMPLETE.  0 WARNING(S),  0 ERROR(S)
