------
Â
Ã
Ç
È
Ê
Ë
Ì
Î
Ï
Ñ
Ò
Ô
Õ
Ù
Û
à
â
ã
ç
è
ê
ë
ì
î
ï
ñ
ò
ô
õ
ù
û

!
”
#
$
%
&
’
(
)
*
+
,
-
.
/
0
1
2
3
4
5
6
7
8
9
:
";"
<
=
>
?
@
A
B
C
D
E
F
G
H
I
J
K
L
M
N
O
P
Q
R
S
T
U
V
W
X
Y
Z
[
\
]
^
_
`
a
b
c
d
e
f
g
h
i
j
k
l
m
n
o
p
q
r
s
t
u
v
w
x
y
z
{
|
}
~
á
č
ď
é
ě
í
ň
ó
ř
š
ť
ú
ů
ý
ž
Á
Č
Ď
É
Ě
Í
Ň
Ó
Ř
Š
Ť
Ú
Ů
Ý
Ž
ą
ć
ę
ł
ń
ś
ź
ż
Ą
Ć
Ę
Ł
Ń
Ś
Ź
Ż
б
в
г
д
ж
з
и
й
к
л
м
н
п
т
у
ф
ц
ч
ш
щ
ъ
ы
ь
э
ю
я
Б
Г
Д
Ж
З
И
Й
К
Л
П
У
Ф
Ц
Ч
Ш
Щ
Ъ
Ы
Ь
Э
Ю
Я
ä
ö
ü
ß
Ä
Ö
Ü
°
©
±
ÿ
À
å
æ
ø
Å
Æ
Ø
¿
