C51 COMPILER V5.50,  COM_UTIL                                                              13/09/12  16:09:44  PAGE 1   


DOS C51 COMPILER V5.50, COMPILATION OF MODULE COM_UTIL
OBJECT MODULE PLACED IN ..\MODULY\GSM\COM_UTIL.OBJ
COMPILER INVOKED BY: E:\C51_V5.5\BIN\C51.EXE ..\MODULY\GSM\COM_UTIL.C51 CD DB

stmt level    source

   1          //******************************************************************************
   2          //
   3          //   COM_util.c   Serial communication utility
   4          //   Version 1.0  (c) VymOs
   5          //
   6          //******************************************************************************
   7          
   8          #include "..\inc\com_util.h"
   9          #include <string.h>
  10          #include "..\inc\bcd.h"
  11          #ifndef __Com_H__              // pokud neni soucasti sablony, pouzij implicitni com.h
  12             #include "..\inc\com.h"
  13          #endif
  14          
  15          //-----------------------------------------------------------------------------
  16          // Tx Digit
  17          //-----------------------------------------------------------------------------
  18          
  19          #ifdef COM_TX_DIGIT
  20          
  21          void ComTxDigit( byte n)
  22          // vyslani cislice 0..9
  23          {
  24   1         ComTxChar( n + '0');
  25   1      } // ComTxDigit
  26          
  27          #endif //COM_TX_DIGIT
  28          
  29          //-----------------------------------------------------------------------------
  30          // Tx string
  31          //-----------------------------------------------------------------------------
  32          
  33          void ComTxString( char code *Text)
  34          // Vysle retezec
  35          {
  36   1      byte Length;
  37   1      byte i;
  38   1      
  39   1         Length = strlen( Text);
  40   1         for( i = 0; i < Length; i++){
  41   2            WatchDog();
  42   2            ComTxChar( *Text);
  43   2            Text++;
  44   2         }
  45   1      } // ComTxString
  46          
  47          #ifdef COM_TX_X_STRING
  48          //-----------------------------------------------------------------------------
  49          // Tx string
  50          //-----------------------------------------------------------------------------
  51          
  52          void ComTxXString( char xdata *Text)
  53          // Vysle retezec
  54          {
  55   1      byte Length;
  56   1      byte i;
  57   1      
  58   1         Length = strlen( Text);
  59   1         for( i = 0; i < Length; i++){
C51 COMPILER V5.50,  COM_UTIL                                                              13/09/12  16:09:44  PAGE 2   

  60   2            WatchDog();
  61   2            ComTxChar( *Text);
  62   2            Text++;
  63   2         }
  64   1      } // ComTxXString
  65          #endif // COM_TX_X_STRING
  66          
  67          //-----------------------------------------------------------------------------
  68          // Tx hexa
  69          //-----------------------------------------------------------------------------
  70          
  71          #ifdef COM_TX_HEX
              
              void ComTxHex( byte Number)
              // Vysle hexadecimalni reprezentaci bytu
              {
                 ComTxChar( nibble2hex( hnibble( Number)));
                 ComTxChar( nibble2hex( lnibble( Number)));
              } // ComTxHex
              
              #endif //COM_TX_HEX
  81          
  82          //-----------------------------------------------------------------------------
  83          // Tx dekadicky
  84          //-----------------------------------------------------------------------------
  85          
  86          #ifdef COM_TX_DEC
  87          
  88          void ComTxDec( byte Number)
  89          // Vysle dekadickou reprezentaci bytu
  90          {
  91   1      word w;
  92   1      
  93   1         w = bbin2bcd( Number);
  94   1         ComTxDigit( w >> 8);                // stovky
  95   1         ComTxDigit( hnibble( w));           // desitky
  96   1         ComTxDigit( lnibble( w));           // jednotky
  97   1      } // ComTxDec
  98          
  99          #endif //COM_TX_DEC
 100          
 101          //-----------------------------------------------------------------------------
 102          // Tx dekadicky
 103          //-----------------------------------------------------------------------------
 104          
 105          #ifdef COM_TX_WORD
              
              void ComTxWord( word Number)
              // Vysle dekadickou reprezentaci word 0..9999
              {
              word  w;
              
                 w = (word)wbin2bcd( Number);
                 ComTxDigit( (w >> 12) & 0x0F);      // tisice
                 ComTxDigit( (w >> 8)  & 0x0F);      // stovky
                 ComTxDigit( hnibble( w));           // desitky
                 ComTxDigit( lnibble( w));           // jednotky
              } // ComTxWord
              
              #endif //COM_TX_WORD
 120          
 121          //-----------------------------------------------------------------------------
 122          // Rx dekadicky
 123          //-----------------------------------------------------------------------------
 124          
 125          byte ComRxDec( void)
C51 COMPILER V5.50,  COM_UTIL                                                              13/09/12  16:09:44  PAGE 3   

 126          // Cte cislo po prvni nenumericky znak
 127          {
 128   1      byte Value;
 129   1      char ch;
 130   1      
 131   1         Value = 0;
 132   1         while(1){
 133   2            if( !ComRxChar( &ch)){
 134   3               return( 0);    // timeout
 135   3            }
 136   2            if( ch < '0' || ch > '9'){
 137   3               return( Value);
 138   3            }
 139   2            Value *= 10;
 140   2            Value += char2dec( ch);
 141   2         }
 142   1      } // ComRxDec
 143          
 144          //-----------------------------------------------------------------------------
 145          // Rx hexadecimalne
 146          //-----------------------------------------------------------------------------
 147          
 148          #ifdef COM_RX_HEX
              
              byte ComRxHex( void)
              // Cte dva znaky, jako hexa reprezentaci
              {
              byte Value;
              char ch;
              
                 if( !ComRxChar( &ch)){
                    return( 0);                      // timeout
                 }
                 Value  = char2hex( ch) << 4;        // MSB
                 if( !ComRxChar( &ch)){
                    return( 0);                      // timeout
                 }
                 Value |= char2hex( ch);             // LSB
                 return( Value);
              } // ComRxHex
              
              #endif //COM_RX_HEX
 168          
 169          //-----------------------------------------------------------------------------
 170          // Rx wait char
 171          //-----------------------------------------------------------------------------
 172          
 173          TYesNo ComWaitChar( char ch)
 174          // Ceka na znak <ch>
 175          {
 176   1      char x;
 177   1      
 178   1         while(1){
 179   2            WatchDog();
 180   2            if( !ComRxChar( &x)){
 181   3               return( NO);              // timeout
 182   3            }
 183   2            if( ch == x){
 184   3               return( YES);             // prijat
 185   3            }
 186   2         }
 187   1      } // ComWaitChar
 188          
 189          //-----------------------------------------------------------------------------
 190          // Rx skip chars
 191          //-----------------------------------------------------------------------------
C51 COMPILER V5.50,  COM_UTIL                                                              13/09/12  16:09:44  PAGE 4   

 192          
 193          #ifdef COM_SKIP_CHARS
              
              void ComSkipChars( byte Count)
              // Preskoci pocet znaku <Count>
              {
              char x;
              
                 do {
                    WatchDog();
                    if( !ComRxChar( &x)){
                       return;                       // timeout
                    }
                 } while( --Count);
              } // ComSkipChars
              
              #endif //COM_SKIP_CHARS
 209          
 210          //-----------------------------------------------------------------------------
 211          // Rx match
 212          //-----------------------------------------------------------------------------
 213          
 214          TYesNo ComRxMatch( char code *Text, byte Timeout)
 215          // Cte ocekavany retezec, vraci YES souhlasi-li
 216          {
 217   1      byte Length;
 218   1      byte i;
 219   1      char code *p;
 220   1      char ch;
 221   1      
 222   1         Length = strlen( Text);
 223   1         p      = Text;
 224   1         // cekani na prvni znak :
 225   1         if( Timeout){
 226   2            if( !ComRxWait( Timeout)){
 227   3               return( NO);
 228   3            }
 229   2         } // else bez cekani na prvni znak
 230   1         // cteni zpravy :
 231   1         for( i = 0; i < Length; i++){
 232   2            WatchDog();
 233   2            if( !ComRxChar( &ch)){
 234   3               return( NO);    // timeout
 235   3            }
 236   2            if( ch != *p){
 237   3               return( NO);
 238   3            }
 239   2            p++;
 240   2         }
 241   1         return( YES);
 242   1      } // ComRxMatch
 243          
 244          #ifdef COM_RX_STRING
 245          
 246          //******************************************************************************
 247          // Rx string
 248          //******************************************************************************
 249          
 250          TYesNo ComRxString( char xdata *Text, byte Length)
 251          // Cte retezec v uvozovkach
 252          {
 253   1      byte i;
 254   1      char ch;
 255   1      
 256   1         // uvodni uvozovka :
 257   1         if( !ComWaitChar( '"')){
C51 COMPILER V5.50,  COM_UTIL                                                              13/09/12  16:09:44  PAGE 5   

 258   2            return( NO);
 259   2         }
 260   1         for( i = 0; i < Length; i++){
 261   2            if( !ComRxChar( &ch)){
 262   3               return( NO);    // timeout
 263   3            }
 264   2            if( ch == '"'){
 265   3               Text[ i] = '\0';
 266   3               return( YES);
 267   3            }
 268   2            Text[ i] = ch;
 269   2         }
 270   1         Text[ Length] = '\0';
 271   1         return( YES);
 272   1      } // ComRxString
 273          
 274          #endif
 275          
 276          
 277          #ifdef COM_RX_DELIMITER
 278          //******************************************************************************
 279          // Rx delimiter
 280          //******************************************************************************
 281          
 282          byte ComRxDelimiter( char xdata *Text, byte Length, char Delimiter)
 283          // Cte retezec az po znak <Delimiter>
 284          {
 285   1      byte i;
 286   1      char ch;
 287   1      
 288   1         for( i = 0; i < Length; i++){
 289   2            if( !ComRxChar( &ch)){
 290   3               return( 0);    // timeout
 291   3            }
 292   2            if( ch == Delimiter){
 293   3               Text[ i] = '\0';
 294   3               return( i);
 295   3            }
 296   2            Text[ i] = ch;
 297   2         }
 298   1         Text[ Length] = '\0';
 299   1         return( Length);
 300   1      } // ComRxDelimiter
 301          
 302          #endif // COM_RX_DELIMITER
C51 COMPILER V5.50,  COM_UTIL                                                              13/09/12  16:09:44  PAGE 6   

ASSEMBLY LISTING OF GENERATED OBJECT CODE


             ; FUNCTION _ComTxDigit (BEGIN)
;---- Variable 'n' assigned to Register 'R7' ----
                                           ; SOURCE LINE # 21
                                           ; SOURCE LINE # 23
                                           ; SOURCE LINE # 24
0000 EF            MOV     A,R7
0001 2430          ADD     A,#030H
0003 FF            MOV     R7,A
0004 120000  E     LCALL   _ComTxChar
                                           ; SOURCE LINE # 25
0007 22            RET     
             ; FUNCTION _ComTxDigit (END)

             ; FUNCTION _ComTxString (BEGIN)
0000 8E00    R     MOV     Text,R6
0002 8F00    R     MOV     Text+01H,R7
                                           ; SOURCE LINE # 33
                                           ; SOURCE LINE # 35
                                           ; SOURCE LINE # 39
0004 AA06          MOV     R2,AR6
0006 A907          MOV     R1,AR7
0008 7BFF          MOV     R3,#0FFH
000A 120000  E     LCALL   _strlen
000D 8F00    R     MOV     Length,R7
                                           ; SOURCE LINE # 40
000F E4            CLR     A
0010 F500    R     MOV     i,A
0012         ?C0002:
0012 E500    R     MOV     A,i
0014 C3            CLR     C
0015 9500    R     SUBB    A,Length
0017 501E          JNC     ?C0005
                                           ; SOURCE LINE # 41
0019 75A61E        MOV     WDTRST,#01EH
001C 75A6E1        MOV     WDTRST,#0E1H
                                           ; SOURCE LINE # 42
001F 850082  R     MOV     DPL,Text+01H
0022 850083  R     MOV     DPH,Text
0025 E4            CLR     A
0026 93            MOVC    A,@A+DPTR
0027 FF            MOV     R7,A
0028 120000  E     LCALL   _ComTxChar
                                           ; SOURCE LINE # 43
002B 0500    R     INC     Text+01H
002D E500    R     MOV     A,Text+01H
002F 7002          JNZ     ?C0043
0031 0500    R     INC     Text
0033         ?C0043:
                                           ; SOURCE LINE # 44
0033 0500    R     INC     i
0035 80DB          SJMP    ?C0002
                                           ; SOURCE LINE # 45
0037         ?C0005:
0037 22            RET     
             ; FUNCTION _ComTxString (END)

             ; FUNCTION _ComTxXString (BEGIN)
0000 8E00    R     MOV     Text,R6
0002 8F00    R     MOV     Text+01H,R7
                                           ; SOURCE LINE # 52
                                           ; SOURCE LINE # 54
                                           ; SOURCE LINE # 58
0004 AA06          MOV     R2,AR6
C51 COMPILER V5.50,  COM_UTIL                                                              13/09/12  16:09:44  PAGE 7   

0006 A907          MOV     R1,AR7
0008 7B01          MOV     R3,#01H
000A 120000  E     LCALL   _strlen
000D 8F00    R     MOV     Length,R7
                                           ; SOURCE LINE # 59
000F E4            CLR     A
0010 F500    R     MOV     i,A
0012         ?C0006:
0012 E500    R     MOV     A,i
0014 C3            CLR     C
0015 9500    R     SUBB    A,Length
0017 501D          JNC     ?C0009
                                           ; SOURCE LINE # 60
0019 75A61E        MOV     WDTRST,#01EH
001C 75A6E1        MOV     WDTRST,#0E1H
                                           ; SOURCE LINE # 61
001F 850082  R     MOV     DPL,Text+01H
0022 850083  R     MOV     DPH,Text
0025 E0            MOVX    A,@DPTR
0026 FF            MOV     R7,A
0027 120000  E     LCALL   _ComTxChar
                                           ; SOURCE LINE # 62
002A 0500    R     INC     Text+01H
002C E500    R     MOV     A,Text+01H
002E 7002          JNZ     ?C0044
0030 0500    R     INC     Text
0032         ?C0044:
                                           ; SOURCE LINE # 63
0032 0500    R     INC     i
0034 80DC          SJMP    ?C0006
                                           ; SOURCE LINE # 64
0036         ?C0009:
0036 22            RET     
             ; FUNCTION _ComTxXString (END)

             ; FUNCTION _ComTxDec (BEGIN)
;---- Variable 'Number' assigned to Register 'R7' ----
                                           ; SOURCE LINE # 88
                                           ; SOURCE LINE # 90
                                           ; SOURCE LINE # 93
0000 120000  E     LCALL   _bbin2bcd
0003 8E00    R     MOV     w,R6
0005 8F00    R     MOV     w+01H,R7
                                           ; SOURCE LINE # 94
0007 E500    R     MOV     A,w
0009 FF            MOV     R7,A
000A 120000  R     LCALL   _ComTxDigit
                                           ; SOURCE LINE # 95
000D AF00    R     MOV     R7,w+01H
000F EF            MOV     A,R7
0010 C4            SWAP    A
0011 540F          ANL     A,#0FH
0013 FF            MOV     R7,A
0014 120000  R     LCALL   _ComTxDigit
                                           ; SOURCE LINE # 96
0017 E500    R     MOV     A,w+01H
0019 540F          ANL     A,#0FH
001B FF            MOV     R7,A
001C 120000  R     LCALL   _ComTxDigit
                                           ; SOURCE LINE # 97
001F 22            RET     
             ; FUNCTION _ComTxDec (END)

             ; FUNCTION ComRxDec (BEGIN)
                                           ; SOURCE LINE # 125
                                           ; SOURCE LINE # 127
C51 COMPILER V5.50,  COM_UTIL                                                              13/09/12  16:09:44  PAGE 8   

                                           ; SOURCE LINE # 131
0000 E4            CLR     A
0001 F500    R     MOV     Value,A
0003         ?C0011:
                                           ; SOURCE LINE # 132
                                           ; SOURCE LINE # 133
0003 7F00    R     MOV     R7,#LOW ch
0005 120000  E     LCALL   _ComRxChar
0008 4003          JC      ?C0013
                                           ; SOURCE LINE # 134
000A 7F00          MOV     R7,#00H
000C 22            RET     
                                           ; SOURCE LINE # 135
000D         ?C0013:
                                           ; SOURCE LINE # 136
000D C3            CLR     C
000E E500    R     MOV     A,ch
0010 6480          XRL     A,#080H
0012 94B0          SUBB    A,#0B0H
0014 4009          JC      ?C0016
0016 D3            SETB    C
0017 E500    R     MOV     A,ch
0019 6480          XRL     A,#080H
001B 94B9          SUBB    A,#0B9H
001D 4003          JC      ?C0015
001F         ?C0016:
                                           ; SOURCE LINE # 137
001F AF00    R     MOV     R7,Value
0021 22            RET     
                                           ; SOURCE LINE # 138
0022         ?C0015:
                                           ; SOURCE LINE # 139
0022 E500    R     MOV     A,Value
0024 75F00A        MOV     B,#0AH
0027 A4            MUL     AB
0028 F500    R     MOV     Value,A
                                           ; SOURCE LINE # 140
002A E500    R     MOV     A,ch
002C 24D0          ADD     A,#0D0H
002E 2500    R     ADD     A,Value
0030 F500    R     MOV     Value,A
                                           ; SOURCE LINE # 141
0032 80CF          SJMP    ?C0011
                                           ; SOURCE LINE # 142
0034         ?C0014:
0034 22            RET     
             ; FUNCTION ComRxDec (END)

             ; FUNCTION _ComWaitChar (BEGIN)
0000 8F00    R     MOV     ch,R7
                                           ; SOURCE LINE # 173
                                           ; SOURCE LINE # 175
0002         ?C0017:
                                           ; SOURCE LINE # 178
                                           ; SOURCE LINE # 179
0002 75A61E        MOV     WDTRST,#01EH
0005 75A6E1        MOV     WDTRST,#0E1H
                                           ; SOURCE LINE # 180
0008 7F00    R     MOV     R7,#LOW x
000A 120000  E     LCALL   _ComRxChar
000D 4002          JC      ?C0019
                                           ; SOURCE LINE # 181
000F C3            CLR     C
0010 22            RET     
                                           ; SOURCE LINE # 182
0011         ?C0019:
C51 COMPILER V5.50,  COM_UTIL                                                              13/09/12  16:09:44  PAGE 9   

                                           ; SOURCE LINE # 183
0011 E500    R     MOV     A,ch
0013 B500EC  R     CJNE    A,x,?C0017
                                           ; SOURCE LINE # 184
0016 D3            SETB    C
                                           ; SOURCE LINE # 185
                                           ; SOURCE LINE # 186
                                           ; SOURCE LINE # 187
0017         ?C0020:
0017 22            RET     
             ; FUNCTION _ComWaitChar (END)

             ; FUNCTION _ComRxMatch (BEGIN)
0000 8E00    R     MOV     Text,R6
0002 8F00    R     MOV     Text+01H,R7
0004 8D00    R     MOV     Timeout,R5
                                           ; SOURCE LINE # 214
                                           ; SOURCE LINE # 216
                                           ; SOURCE LINE # 222
0006 AA06          MOV     R2,AR6
0008 A907          MOV     R1,AR7
000A 7BFF          MOV     R3,#0FFH
000C 120000  E     LCALL   _strlen
000F 8F00    R     MOV     Length,R7
                                           ; SOURCE LINE # 223
0011 850000  R     MOV     p,Text
0014 850000  R     MOV     p+01H,Text+01H
                                           ; SOURCE LINE # 225
0017 E500    R     MOV     A,Timeout
0019 6008          JZ      ?C0022
                                           ; SOURCE LINE # 226
001B FF            MOV     R7,A
001C 120000  E     LCALL   _ComRxWait
001F 4002          JC      ?C0022
                                           ; SOURCE LINE # 227
0021 C3            CLR     C
0022 22            RET     
                                           ; SOURCE LINE # 228
                                           ; SOURCE LINE # 229
0023         ?C0022:
                                           ; SOURCE LINE # 231
0023 E4            CLR     A
0024 F500    R     MOV     i,A
0026         ?C0025:
0026 E500    R     MOV     A,i
0028 C3            CLR     C
0029 9500    R     SUBB    A,Length
002B 5029          JNC     ?C0026
                                           ; SOURCE LINE # 232
002D 75A61E        MOV     WDTRST,#01EH
0030 75A6E1        MOV     WDTRST,#0E1H
                                           ; SOURCE LINE # 233
0033 7F00    R     MOV     R7,#LOW ch
0035 120000  E     LCALL   _ComRxChar
0038 4002          JC      ?C0028
                                           ; SOURCE LINE # 234
003A C3            CLR     C
003B 22            RET     
                                           ; SOURCE LINE # 235
003C         ?C0028:
                                           ; SOURCE LINE # 236
003C 850082  R     MOV     DPL,p+01H
003F 850083  R     MOV     DPH,p
0042 E4            CLR     A
0043 93            MOVC    A,@A+DPTR
0044 6500    R     XRL     A,ch
C51 COMPILER V5.50,  COM_UTIL                                                              13/09/12  16:09:44  PAGE 10  

0046 6002          JZ      ?C0029
                                           ; SOURCE LINE # 237
0048 C3            CLR     C
0049 22            RET     
                                           ; SOURCE LINE # 238
004A         ?C0029:
                                           ; SOURCE LINE # 239
004A 0500    R     INC     p+01H
004C E500    R     MOV     A,p+01H
004E 7002          JNZ     ?C0045
0050 0500    R     INC     p
0052         ?C0045:
                                           ; SOURCE LINE # 240
0052 0500    R     INC     i
0054 80D0          SJMP    ?C0025
0056         ?C0026:
                                           ; SOURCE LINE # 241
0056 D3            SETB    C
                                           ; SOURCE LINE # 242
0057         ?C0024:
0057 22            RET     
             ; FUNCTION _ComRxMatch (END)

             ; FUNCTION _ComRxString (BEGIN)
0000 8E00    R     MOV     Text,R6
0002 8F00    R     MOV     Text+01H,R7
0004 8D00    R     MOV     Length,R5
                                           ; SOURCE LINE # 250
                                           ; SOURCE LINE # 252
                                           ; SOURCE LINE # 257
0006 7F22          MOV     R7,#022H
0008 120000  R     LCALL   _ComWaitChar
000B 4002          JC      ?C0030
                                           ; SOURCE LINE # 258
000D C3            CLR     C
000E 22            RET     
                                           ; SOURCE LINE # 259
000F         ?C0030:
                                           ; SOURCE LINE # 260
000F E4            CLR     A
0010 F500    R     MOV     i,A
0012         ?C0032:
0012 E500    R     MOV     A,i
0014 C3            CLR     C
0015 9500    R     SUBB    A,Length
0017 502F          JNC     ?C0033
                                           ; SOURCE LINE # 261
0019 7F00    R     MOV     R7,#LOW ch
001B 120000  E     LCALL   _ComRxChar
001E 4002          JC      ?C0035
                                           ; SOURCE LINE # 262
0020 C3            CLR     C
0021 22            RET     
                                           ; SOURCE LINE # 263
0022         ?C0035:
                                           ; SOURCE LINE # 264
0022 E500    R     MOV     A,ch
0024 B4220F        CJNE    A,#022H,?C0036
                                           ; SOURCE LINE # 265
0027 E500    R     MOV     A,Text+01H
0029 2500    R     ADD     A,i
002B F582          MOV     DPL,A
002D E4            CLR     A
002E 3500    R     ADDC    A,Text
0030 F583          MOV     DPH,A
0032 E4            CLR     A
C51 COMPILER V5.50,  COM_UTIL                                                              13/09/12  16:09:44  PAGE 11  

0033 F0            MOVX    @DPTR,A
                                           ; SOURCE LINE # 266
0034 D3            SETB    C
0035 22            RET     
                                           ; SOURCE LINE # 267
0036         ?C0036:
                                           ; SOURCE LINE # 268
0036 E500    R     MOV     A,Text+01H
0038 2500    R     ADD     A,i
003A F582          MOV     DPL,A
003C E4            CLR     A
003D 3500    R     ADDC    A,Text
003F F583          MOV     DPH,A
0041 E500    R     MOV     A,ch
0043 F0            MOVX    @DPTR,A
                                           ; SOURCE LINE # 269
0044 0500    R     INC     i
0046 80CA          SJMP    ?C0032
0048         ?C0033:
                                           ; SOURCE LINE # 270
0048 E500    R     MOV     A,Text+01H
004A 2500    R     ADD     A,Length
004C F582          MOV     DPL,A
004E E4            CLR     A
004F 3500    R     ADDC    A,Text
0051 F583          MOV     DPH,A
0053 E4            CLR     A
0054 F0            MOVX    @DPTR,A
                                           ; SOURCE LINE # 271
0055 D3            SETB    C
                                           ; SOURCE LINE # 272
0056         ?C0031:
0056 22            RET     
             ; FUNCTION _ComRxString (END)

             ; FUNCTION _ComRxDelimiter (BEGIN)
0000 8E00    R     MOV     Text,R6
0002 8F00    R     MOV     Text+01H,R7
0004 8D00    R     MOV     Length,R5
0006 8B00    R     MOV     Delimiter,R3
                                           ; SOURCE LINE # 282
                                           ; SOURCE LINE # 284
                                           ; SOURCE LINE # 288
0008 E4            CLR     A
0009 F500    R     MOV     i,A
000B         ?C0037:
000B E500    R     MOV     A,i
000D C3            CLR     C
000E 9500    R     SUBB    A,Length
0010 5031          JNC     ?C0038
                                           ; SOURCE LINE # 289
0012 7F00    R     MOV     R7,#LOW ch
0014 120000  E     LCALL   _ComRxChar
0017 4003          JC      ?C0040
                                           ; SOURCE LINE # 290
0019 7F00          MOV     R7,#00H
001B 22            RET     
                                           ; SOURCE LINE # 291
001C         ?C0040:
                                           ; SOURCE LINE # 292
001C E500    R     MOV     A,ch
001E B50010  R     CJNE    A,Delimiter,?C0042
                                           ; SOURCE LINE # 293
0021 E500    R     MOV     A,Text+01H
0023 2500    R     ADD     A,i
0025 F582          MOV     DPL,A
C51 COMPILER V5.50,  COM_UTIL                                                              13/09/12  16:09:44  PAGE 12  

0027 E4            CLR     A
0028 3500    R     ADDC    A,Text
002A F583          MOV     DPH,A
002C E4            CLR     A
002D F0            MOVX    @DPTR,A
                                           ; SOURCE LINE # 294
002E AF00    R     MOV     R7,i
0030 22            RET     
                                           ; SOURCE LINE # 295
0031         ?C0042:
                                           ; SOURCE LINE # 296
0031 E500    R     MOV     A,Text+01H
0033 2500    R     ADD     A,i
0035 F582          MOV     DPL,A
0037 E4            CLR     A
0038 3500    R     ADDC    A,Text
003A F583          MOV     DPH,A
003C E500    R     MOV     A,ch
003E F0            MOVX    @DPTR,A
                                           ; SOURCE LINE # 297
003F 0500    R     INC     i
0041 80C8          SJMP    ?C0037
0043         ?C0038:
                                           ; SOURCE LINE # 298
0043 E500    R     MOV     A,Text+01H
0045 2500    R     ADD     A,Length
0047 F582          MOV     DPL,A
0049 E4            CLR     A
004A 3500    R     ADDC    A,Text
004C F583          MOV     DPH,A
004E E4            CLR     A
004F F0            MOVX    @DPTR,A
                                           ; SOURCE LINE # 299
0050 AF00    R     MOV     R7,Length
                                           ; SOURCE LINE # 300
0052         ?C0041:
0052 22            RET     
             ; FUNCTION _ComRxDelimiter (END)



MODULE INFORMATION:   STATIC OVERLAYABLE
   CODE SIZE        =    486    ----
   CONSTANT SIZE    =   ----    ----
   XDATA SIZE       =   ----    ----
   PDATA SIZE       =   ----    ----
   DATA SIZE        =   ----      33
   IDATA SIZE       =   ----    ----
   BIT SIZE         =   ----    ----
END OF MODULE INFORMATION.


C51 COMPILATION COMPLETE.  0 WARNING(S),  0 ERROR(S)
