C51 COMPILER V5.50,  GSMCTL                                                                24/07/12  10:33:54  PAGE 1   


DOS C51 COMPILER V5.50, COMPILATION OF MODULE GSMCTL
OBJECT MODULE PLACED IN ..\MODULY\GSM\GSMCTL.OBJ
COMPILER INVOKED BY: E:\C51_V5.5\BIN\C51.EXE ..\MODULY\GSM\GSMCTL.C51 CD DB

stmt level    source

   1          //*****************************************************************************
   2          //
   3          //    GsmCtl.c     - Demo of GSM control
   4          //    Version 1.0, (c) VymOs
   5          //
   6          //*****************************************************************************
   7          
   8          #include "..\inc\GsmCtl.h"
   9          #include "..\inc\Gsm.h"                // GSM
  10          
  11          //#define __DEBUG__
  12          
  13          #ifdef __DEBUG__
                 #include "..\inc\conio.h"      // jednoduchy display
              
                 #define TRACE( s)          cputs( s);putchar('\n');
                 #define TRACEI( s, i)      cputs( s);cint8( i);putchar('\n');
              #else
  19             #define TRACE( s)
  20             #define TRACEI( s, i)
  21          #endif
  22          
  23          
  24          #ifdef GSM_COM2
  25             #include "..\inc\Com2Pkt.h"            // packet interface
  26          
  27             #define ComRxPacket Com2RxPacket
  28          #else  // GSM_COM1
                 #include "..\inc\ComPkt.h"             // packet interface
              #endif
  31          
  32          TGsmCtl __xdata__ GsmCtl;
  33          
  34          //-----------------------------------------------------------------------------
  35          // Radic
  36          //-----------------------------------------------------------------------------
  37          
  38          void GsmExecute( void)
  39          // Zpracovava udalosti GSM (volat 1x za sekundu)
  40          {
  41   1      #ifdef GSM_DATA
  42   1        byte  Cmd;
  43   1        dword Data;
  44   1      #endif // GSM_DATA
  45   1      
  46   1         switch( GsmCtl.Status){
  47   2            case GSM_POWERED :
  48   2               TRACE( "GSM Powered");
  49   2               GsmCtl.Registered = NO;                 // Neni prihlasen
  50   2               if( !GsmReset()){
  51   3                  // nereaguje, odloz dalsi reset
  52   3                  GsmCtl.Status  = GSM_WAIT_POWERED;
  53   3                  GsmCtl.Counter = GSM_POWERED_PERIOD;
  54   3                  return;
  55   3               }
  56   2               GsmCtl.Status = GSM_CHECK;
  57   2               break;
  58   2      
  59   2            case GSM_WAIT_POWERED :
C51 COMPILER V5.50,  GSMCTL                                                                24/07/12  10:33:54  PAGE 2   

  60   2               TRACE( "GSM Wait Powered");
  61   2               if( --GsmCtl.Counter == 0){
  62   3                  GsmCtl.Status = GSM_POWERED;         // znovu kontrola nabehu
  63   3                  return;
  64   3               }
  65   2               break;
  66   2      
  67   2            case GSM_CHECK :
  68   2               TRACE( "GSM Check");
  69   2               if( !GsmRegistered()){
  70   3                  GsmCtl.Status = GSM_POWERED;
  71   3                  return;
  72   3               }
  73   2               GsmCtl.Registered = YES;                // Je prihlasen
  74   2               GsmCtl.Status  = GSM_WAIT_FOR_CALL;
  75   2               GsmCtl.Counter = GSM_CHECK_PERIOD;
  76   2               break;
  77   2      
  78   2            case GSM_WAIT_FOR_CALL :
  79   2               TRACEI( "GSM Ring ? ", GsmCtl.Counter);
  80   2               if( --GsmCtl.Counter == 0){
  81   3                  GsmCtl.Status = GSM_CHECK;           // kontrola spojeni
  82   3                  return;
  83   3               }
  84   2      #ifdef GSM_DATA
  85   2               if( !GsmIsRinging()){
  86   3                  return;
  87   3               }
  88   2               // prichozi volani
  89   2               TRACE( "RING, Off Hook");
  90   2               GsmOffHook();
  91   2               GsmCtl.Status  = GSM_WAIT_FOR_CONNECT;
  92   2               GsmCtl.Counter = GSM_CONNECT_TIMEOUT;
  93   2      #endif // GSM_DATA
  94   2               break;
  95   2      
  96   2      #ifdef GSM_DATA
  97   2            case GSM_WAIT_FOR_CONNECT :
  98   2               TRACEI( "GSM Connect ? ", GsmCtl.Counter);
  99   2               if( --GsmCtl.Counter == 0){
 100   3                  TRACE( "HangUp");
 101   3                  GsmDisconnect();                     // timeout cekani na spojeni : zaves
 102   3                  GsmCtl.Status = GSM_CHECK;           // zpatky na kontrolu spojeni
 103   3                  return;
 104   3               }
 105   2               if( !GsmConnect()){
 106   3                  return;
 107   3               }
 108   2               TRACE( "Connected...");
 109   2               GsmCtl.Status  = GSM_DATA_MODE;
 110   2               GsmCtl.Counter = GSM_HANGUP_TIMEOUT;
 111   2               GsmConnected();                         // Provede potrebne kroky po pripojeni
 112   2               break;
 113   2      
 114   2            case GSM_DATA_MODE :
 115   2               TRACEI( "GSM data ? ", GsmCtl.Counter);
 116   2               if( --GsmCtl.Counter == 0){
 117   3                  TRACE( "HangUp");
 118   3                  GsmDisconnect();                     // neaktivita spojeni, zaves
 119   3                  GsmCtl.Status = GSM_CHECK;           // zpatky na kontrolu spojeni
 120   3                  GsmDisconnected();                   // Provede potrebne kroky po odpojeni
 121   3                  return;
 122   3               }
 123   2               if( !ComRxPacket( &Cmd, &Data)){
 124   3                  return;
 125   3               }
C51 COMPILER V5.50,  GSMCTL                                                                24/07/12  10:33:54  PAGE 3   

 126   2               TRACEI( "GSM Rx Cmd : ", Cmd);
 127   2               GsmCtl.Counter = GSM_HANGUP_TIMEOUT;        // znovu timeout
 128   2               GsmExecuteCommand( Cmd, Data);
 129   2               break;
 130   2      
 131   2      #endif // GSM_DATA
 132   2      
 133   2            case GSM_USER_MODE :
 134   2               TRACE( "GSM User mode");
 135   2               break;
 136   2      
 137   2      #ifdef GSM_SMS
                    case GSM_SMS_SENDING :
                       TRACEI( "GSM send ? ", GsmCtl.Counter);
                       if( --GsmCtl.Counter == 0){
                          TRACE( "Send ERR");
                          GsmSmsSendTimeout();
                          GsmCtl.Status = GSM_CHECK;               // zpatky na kontrolu spojeni
                          return;
                       }
                       if( !SmsSendOk()){
                          return;
                       }
                       TRACE( "Send OK");
                       GsmSmsSendOk();
                       GsmCtl.Status = GSM_CHECK;                  // zpatky na kontrolu spojeni
                       break;
              #endif // GSM_SMS
 154   2      
 155   2            case GSM_IDLE :
 156   2            default :
 157   2               GsmCtl.Registered = NO;    // Neni prihlasen
 158   2               TRACE( "GSM Idle");
 159   2               return;
 160   2         }
 161   1      } // GsmExecute
 162          
 163          
C51 COMPILER V5.50,  GSMCTL                                                                24/07/12  10:33:54  PAGE 4   

ASSEMBLY LISTING OF GENERATED OBJECT CODE


             ; FUNCTION GsmExecute (BEGIN)
                                           ; SOURCE LINE # 38
                                           ; SOURCE LINE # 40
                                           ; SOURCE LINE # 46
0000 900000  R     MOV     DPTR,#GsmCtl
0003 E0            MOVX    A,@DPTR
0004 14            DEC     A
0005 B40700        CJNE    A,#07H,?C0021
0008         ?C0021:
0008 4003          JC      $ + 5H
000A 020000  R     LJMP    ?C0020
000D 900000  R     MOV     DPTR,#?C0022
0010 F8            MOV     R0,A
0011 28            ADD     A,R0
0012 28            ADD     A,R0
0013 73            JMP     @A+DPTR
0014         ?C0022:
0014 020000  R     LJMP    ?C0002
0017 020000  R     LJMP    ?C0005
001A 020000  R     LJMP    ?C0007
001D 020000  R     LJMP    ?C0009
0020 020000  R     LJMP    ?C0012
0023 020000  R     LJMP    ?C0015
0026 020000  R     LJMP    ?C0004
                                           ; SOURCE LINE # 47
0029         ?C0002:
                                           ; SOURCE LINE # 49
0029 E4            CLR     A
002A 900000  R     MOV     DPTR,#GsmCtl+02H
002D F0            MOVX    @DPTR,A
                                           ; SOURCE LINE # 50
002E 120000  E     LCALL   GsmReset
0031 400B          JC      ?C0003
                                           ; SOURCE LINE # 52
0033 900000  R     MOV     DPTR,#GsmCtl
0036 7402          MOV     A,#02H
0038 F0            MOVX    @DPTR,A
                                           ; SOURCE LINE # 53
0039 A3            INC     DPTR
003A 7414          MOV     A,#014H
003C F0            MOVX    @DPTR,A
003D 22            RET     
                                           ; SOURCE LINE # 55
003E         ?C0003:
                                           ; SOURCE LINE # 56
003E 900000  R     MOV     DPTR,#GsmCtl
0041 7403          MOV     A,#03H
0043 F0            MOVX    @DPTR,A
                                           ; SOURCE LINE # 57
0044 22            RET     
                                           ; SOURCE LINE # 59
0045         ?C0005:
                                           ; SOURCE LINE # 61
0045 900000  R     MOV     DPTR,#GsmCtl+01H
0048 E0            MOVX    A,@DPTR
0049 14            DEC     A
004A F0            MOVX    @DPTR,A
004B 6003          JZ      $ + 5H
004D 020000  R     LJMP    ?C0004
                                           ; SOURCE LINE # 62
0050 900000  R     MOV     DPTR,#GsmCtl
0053 04            INC     A
0054 F0            MOVX    @DPTR,A
C51 COMPILER V5.50,  GSMCTL                                                                24/07/12  10:33:54  PAGE 5   

0055 22            RET     
                                           ; SOURCE LINE # 64
                                           ; SOURCE LINE # 65
                                           ; SOURCE LINE # 67
0056         ?C0007:
                                           ; SOURCE LINE # 69
0056 120000  E     LCALL   GsmRegistered
0059 4007          JC      ?C0008
                                           ; SOURCE LINE # 70
005B 900000  R     MOV     DPTR,#GsmCtl
005E 7401          MOV     A,#01H
0060 F0            MOVX    @DPTR,A
0061 22            RET     
                                           ; SOURCE LINE # 72
0062         ?C0008:
                                           ; SOURCE LINE # 73
0062 900000  R     MOV     DPTR,#GsmCtl+02H
0065 7401          MOV     A,#01H
0067 F0            MOVX    @DPTR,A
                                           ; SOURCE LINE # 74
0068 900000  R     MOV     DPTR,#GsmCtl
006B 7404          MOV     A,#04H
006D F0            MOVX    @DPTR,A
                                           ; SOURCE LINE # 75
006E A3            INC     DPTR
006F 741E          MOV     A,#01EH
0071 F0            MOVX    @DPTR,A
                                           ; SOURCE LINE # 76
0072 22            RET     
                                           ; SOURCE LINE # 78
0073         ?C0009:
                                           ; SOURCE LINE # 80
0073 900000  R     MOV     DPTR,#GsmCtl+01H
0076 E0            MOVX    A,@DPTR
0077 14            DEC     A
0078 F0            MOVX    @DPTR,A
0079 7007          JNZ     ?C0010
                                           ; SOURCE LINE # 81
007B 900000  R     MOV     DPTR,#GsmCtl
007E 7403          MOV     A,#03H
0080 F0            MOVX    @DPTR,A
0081 22            RET     
                                           ; SOURCE LINE # 83
0082         ?C0010:
                                           ; SOURCE LINE # 85
0082 120000  E     LCALL   GsmIsRinging
0085 506E          JNC     ?C0004
                                           ; SOURCE LINE # 87
0087         ?C0011:
                                           ; SOURCE LINE # 90
0087 120000  E     LCALL   GsmOffHook
                                           ; SOURCE LINE # 91
008A 900000  R     MOV     DPTR,#GsmCtl
008D 7405          MOV     A,#05H
008F F0            MOVX    @DPTR,A
                                           ; SOURCE LINE # 92
0090 A3            INC     DPTR
0091 741E          MOV     A,#01EH
0093 F0            MOVX    @DPTR,A
                                           ; SOURCE LINE # 94
0094 22            RET     
                                           ; SOURCE LINE # 97
0095         ?C0012:
                                           ; SOURCE LINE # 99
0095 900000  R     MOV     DPTR,#GsmCtl+01H
0098 E0            MOVX    A,@DPTR
C51 COMPILER V5.50,  GSMCTL                                                                24/07/12  10:33:54  PAGE 6   

0099 14            DEC     A
009A F0            MOVX    @DPTR,A
009B 700A          JNZ     ?C0013
                                           ; SOURCE LINE # 101
009D 120000  E     LCALL   GsmDisconnect
                                           ; SOURCE LINE # 102
00A0 900000  R     MOV     DPTR,#GsmCtl
00A3 7403          MOV     A,#03H
00A5 F0            MOVX    @DPTR,A
00A6 22            RET     
                                           ; SOURCE LINE # 104
00A7         ?C0013:
                                           ; SOURCE LINE # 105
00A7 120000  E     LCALL   GsmConnect
00AA 5049          JNC     ?C0004
                                           ; SOURCE LINE # 107
00AC         ?C0014:
                                           ; SOURCE LINE # 109
00AC 900000  R     MOV     DPTR,#GsmCtl
00AF 7406          MOV     A,#06H
00B1 F0            MOVX    @DPTR,A
                                           ; SOURCE LINE # 110
00B2 A3            INC     DPTR
00B3 741E          MOV     A,#01EH
00B5 F0            MOVX    @DPTR,A
                                           ; SOURCE LINE # 111
00B6 120000  E     LCALL   GsmConnected
                                           ; SOURCE LINE # 112
00B9 22            RET     
                                           ; SOURCE LINE # 114
00BA         ?C0015:
                                           ; SOURCE LINE # 116
00BA 900000  R     MOV     DPTR,#GsmCtl+01H
00BD E0            MOVX    A,@DPTR
00BE 14            DEC     A
00BF F0            MOVX    @DPTR,A
00C0 700D          JNZ     ?C0016
                                           ; SOURCE LINE # 118
00C2 120000  E     LCALL   GsmDisconnect
                                           ; SOURCE LINE # 119
00C5 900000  R     MOV     DPTR,#GsmCtl
00C8 7403          MOV     A,#03H
00CA F0            MOVX    @DPTR,A
                                           ; SOURCE LINE # 120
00CB 120000  E     LCALL   GsmDisconnected
00CE 22            RET     
                                           ; SOURCE LINE # 122
00CF         ?C0016:
                                           ; SOURCE LINE # 123
00CF 7F00    R     MOV     R7,#LOW Cmd
00D1 7D00    R     MOV     R5,#LOW Data
00D3 120000  E     LCALL   _Com2RxPacket
00D6 501D          JNC     ?C0004
                                           ; SOURCE LINE # 125
00D8         ?C0017:
                                           ; SOURCE LINE # 127
00D8 900000  R     MOV     DPTR,#GsmCtl+01H
00DB 741E          MOV     A,#01EH
00DD F0            MOVX    @DPTR,A
                                           ; SOURCE LINE # 128
00DE 850000  E     MOV     ?_GsmExecuteCommand?BYTE+04H,Data+03H
00E1 850000  E     MOV     ?_GsmExecuteCommand?BYTE+03H,Data+02H
00E4 850000  E     MOV     ?_GsmExecuteCommand?BYTE+02H,Data+01H
00E7 850000  E     MOV     ?_GsmExecuteCommand?BYTE+01H,Data
00EA AF00    R     MOV     R7,Cmd
00EC 120000  E     LCALL   _GsmExecuteCommand
C51 COMPILER V5.50,  GSMCTL                                                                24/07/12  10:33:54  PAGE 7   

                                           ; SOURCE LINE # 129
00EF 22            RET     
                                           ; SOURCE LINE # 133
                                           ; SOURCE LINE # 135
                                           ; SOURCE LINE # 155
                                           ; SOURCE LINE # 156
00F0         ?C0020:
                                           ; SOURCE LINE # 157
00F0 E4            CLR     A
00F1 900000  R     MOV     DPTR,#GsmCtl+02H
00F4 F0            MOVX    @DPTR,A
                                           ; SOURCE LINE # 160
                                           ; SOURCE LINE # 161
00F5         ?C0004:
00F5 22            RET     
             ; FUNCTION GsmExecute (END)



MODULE INFORMATION:   STATIC OVERLAYABLE
   CODE SIZE        =    246    ----
   CONSTANT SIZE    =   ----    ----
   XDATA SIZE       =      3    ----
   PDATA SIZE       =   ----    ----
   DATA SIZE        =   ----       5
   IDATA SIZE       =   ----    ----
   BIT SIZE         =   ----    ----
END OF MODULE INFORMATION.


C51 COMPILATION COMPLETE.  0 WARNING(S),  0 ERROR(S)
