:1000000018F09FE518F09FE518F09FE518F09FE5C0
:1000100018F09FE5606FA0B814F09FE514F09FE51D
:1000200010020000380200003C0200004002000004
:0C00300044020000D0070000480200005D
:10003C000000000000000FE11F00C0E31B1080E374
:10004C0001F02FE138D19FE5171080E301F02FE18B
:10005C0030D19FE5121080E301F02FE128D19FE50C
:10006C00111080E301F02FE120D19FE5131080E304
:10007C0001F02FE118D19FE51F1080E301F02FE173
:10008C0010D19FE510019FE510119FE510219FE510
:10009C002E0000EB0C019FE50C119FE50C219FE558
:1000AC002A0000EB08019FE508119FE508219FE558
:1000BC00260000EB04019FE504119FE504219FE558
:1000CC00220000EB00019FE500119FE500219FE558
:1000DC001E0000EBFC009FE5FC109FE5FC209FE55B
:1000EC001A0000EBF8009FE5F8109FE50020A0E354
:1000FC001F0000EBF0009FE5F0109FE5001041E0C1
:10010C00080051E30020A0A3042080A4001080A5C7
:10011C00AC009FE5AC109FE5010050E10500000A22
:10012C00042090E403002DE90FE0A0E112FF2FE181
:10013C000300BDE8F7FFFFEA0000A0E30010A0E316
:10014C00AC209FE50FE0A0E112FF2FE1FEFFFFEADC
:10015C00010050E10EF0A001012052E00EF0A001D0
:10016C000130D0E40130C1E4012052E2FBFFFF1A60
:10017C000EF0A0E1010050E10EF0A0010120C0E45E
:10018C00FBFFFFEA440A0040440A004044090040D7
:10019C00440A0040440A004044080040F4070000B0
:1001AC003C0000403C00004054020000540200009F
:1001BC00F4070000F40700003C0000403C00004045
:1001CC00F4070000F4070000F4070000F407000037
:1001DC00F4070000F4070000F4070000F407000027
:1001EC00F40700003C000040440000404400004084
:1001FC0044040040A40200000000A0E10000A0E1C3
:10020C000000A0E138009FE50010A0E3001080E59D
:10021C000110A0E3041080E50010A0E3001080E5BD
:10022C000010A0E3001180E581FFFFEAFEFFFFEA6A
:10023C00FEFFFFEAFEFFFFEAFEFFFFEAFEFFFFEA1A
:08024C005F0100EA00C01FE0A1
:100254000DC0A0E100D82DE904B04CE20E22A0E3C9
:100264000A2982E2182082E20E32A0E30A3983E2EC
:10027400183083E2003093E5023383E3003082E5F3
:100284000E32A0E30A3983E2143083E20223A0E3AE
:10029400002083E50CD04BE200689DE81EFF2FE1AF
:1002A4000DC0A0E100D82DE904B04CE24E32A0E329
:1002B4000A3983E2012BA0E3002083E51D0000EB53
:1002C400E2FFFFEB0E32A0E30A3983E21C3083E243
:1002D4000223A0E3002083E57D0EA0E3FC0000EBF5
:1002E4000E32A0E30A3983E2143083E20223A0E34E
:1002F400002083E57D0FA0E3F50000EB0E32A0E3C0
:100304000A3983E21C3083E20223A0E3002083E560
:100314007D0FA0E3EE0000EB0E32A0E30A3983E286
:10032400143083E20223A0E3002083E57D0FA0E3E1
:10033400E70000EBF0FFFFEA0DC0A0E100D82DE9D3
:1003440004B04CE20E32A0E37F3983E20020A0E344
:10035400002083E54E32A0E37F3983E20120A0E34D
:10036400002083E50E32A0E37F3983E20020A0E37E
:10037400002083E50E32A0E37F3983E2013C83E26F
:100384000120A0E3002083E53F3DE0E30B3043E29E
:100394000C209FE5002083E50CD04BE200689DE82B
:1003A4001EFF2FE1A80700000DC0A0E100D82DE931
:1003B40004B04CE20E32A0E37F3983E2403083E2A2
:1003C4000120A0E3002083E50E32A0E37F3983E21D
:1003D4000020A0E3002083E50E32A0E37F3983E20E
:1003E400803083E20020A0E3002083E50E32A0E306
:1003F4007F3983E28C3083E2AA20A0E3002083E5E6
:100404000E32A0E37F3983E28C3083E25520A0E3EF
:10041400002083E50E32A0E37F3983E2013C83E2CE
:100424000020A0E3002083E50CD04BE200689DE8A7
:100434001EFF2FE10DC0A0E100D82DE904B04CE26D
:1004440004D04DE210000BE5FF1EE0E3031041E28F
:10045400FF3EE0E3033043E2000093E50120A0E324
:1004640010301BE51233A0E1033080E1003081E558
:1004740010001BE5190000EB0CD04BE200689DE86E
:100484001EFF2FE10DC0A0E100D82DE904B04CE21D
:100494000CD04DE210000BE514100BE518200BE511
:1004A40010301BE50331A0E10F2C43E218301BE5AB
:1004B400003082E510301BE50331A0E10E2C43E24D
:1004C40014301BE5203083E3003082E514001BE583
:1004D400020000EB0CD04BE200689DE81EFF2FE108
:1004E4000DC0A0E100D82DE904B04CE208D04DE2E3
:1004F40014000BE50030A0E3FF3E43E2003093E537
:1005040010300BE50120A0E314301BE51233A0E109
:100514000320A0E110301BE5023083E110300BE52D
:100524000030A0E3FF3E43E210201BE5002083E5FA
:100534000CD04BE200689DE81EFF2FE10DC0A0E146
:1005440000D82DE904B04CE204D04DE210000BE5D4
:10055400FE2EE0E30B2042E20110A0E310301BE585
:100564001133A0E1003082E50CD04BE200689DE835
:100574001EFF2FE10DC0A0E100D82DE904B04CE22C
:100584000030A0E3FD3E43E20020A0E3002083E529
:100594000CD04BE200689DE81EFF2FE10DC0A0E1E6
:1005A40000D82DE904B04CE200300FE1C030C3E3C1
:1005B40003F029E10CD04BE200689DE81EFF2FE117
:1005C4000DC0A0E100D82DE904B04CE200300FE1E9
:1005D400C03083E303F029E10CD04BE200689DE8CE
:1005E4001EFF2FE10DC0A0E100D82DE904B04CE2BC
:1005F4004E22A0E32337A0E30A3A83E2003082E5E7
:100604000E22A0E30E32A0E3003093E5033083E32F
:10061400003082E5020000EB0CD04BE200689DE85C
:100624001EFF2FE10DC0A0E100D82DE904B04CE27B
:10063400E2FFFFEB8E22A0E3AA30A0E3003082E5C4
:100644008E22A0E35530A0E3003082E5D2FFFFEB19
:100654000CD04BE200689DE81EFF2FE10DC0A0E125
:1006640000D82DE904B04CE28E22A0E3AA30A0E326
:10067400003082E58E22A0E35530A0E3003082E50D
:100684000CD04BE200689DE81EFF2FE10DC0A0E1F5
:1006940000D82DE904B04CE204D04DE20E32A0E3C0
:1006A400003093E5043003E210300BE50E22A0E3A2
:1006B4000E32A0E3003093E50430C3E3003082E55A
:1006C40010301BE50300A0E10CD04BE200689DE86C
:1006D4001EFF2FE10DC0A0E100D82DE904B04CE2CB
:1006E40008D04DE214000BE5473DA0E3263083E239
:1006F40010300BE510301BE5013053E2FDFFFF1A0B
:10070400AEFFFFEB8E22A0E3AA30A0E3003082E527
:100714008E22A0E35530A0E3003082E59EFFFFEB7C
:1007240014301BE5013043E214300BE514301BE5B3
:10073400000053E3EBFFFF1A0CD04BE200689DE886
:100744001EFF2FE10DC0A0E100D82DE904B04CE25A
:1007540008D04DE214000BE52D3AA0E310300BE570
:1007640014301BE5012083E210301BE5920303E003
:1007740010300BE510201BE520309FE5921383E039
:10078400A337A0E110300BE510301BE5013053E234
:10079400FDFFFF1A0CD04BE200689DE81EFF2FE11D
:1007A4005917B7D10DC0A0E100D82DE904B04CE22F
:1007B4000030A0E3FD3E43E20020A0E3002083E5F7
:1007C4000CD04BE200689DE81EFF2FE11F502DE97D
:1007D40014009FE5301090E5000090E50FE0A0E1E3
:1007E40011FF2FE11F50BDE804F05EE200F0FFFFAF
:0400000300000210E7
:00000001FF
