//*****************************************************************************
//
//   Flash.c     Flash Memory Driver
//   Version 1.0 (c) Veit Electronics
//
//*****************************************************************************

Flash pamet je po zapnuti napajeni chranena proti zapisu - odblokovani
provedeme zapisem 0x00 do bytu cislo 1 status registru