^C:\USERS\IVO\DOCUMENTS\VISUAL STUDIO 2010\PROJECTS\BAT1DLL\BAT1DUMMY\DEBUG\BAT1.OBJ|C:\USERS\IVO\DOCUMENTS\VISUAL STUDIO 2010\PROJECTS\BAT1DLL\BAT1DUMMY\DEBUG\BAT1DUMMY.DLL.EMBED.MANIFEST.RES|C:\USERS\IVO\DOCUMENTS\VISUAL STUDIO 2010\PROJECTS\BAT1DLL\BAT1DUMMY\DEBUG\BATDEVICE.OBJ|C:\USERS\IVO\DOCUMENTS\VISUAL STUDIO 2010\PROJECTS\BAT1DLL\BAT1DUMMY\DEBUG\CONSOLELOGGER.OBJ|C:\USERS\IVO\DOCUMENTS\VISUAL STUDIO 2010\PROJECTS\BAT1DLL\BAT1DUMMY\DEBUG\DLLMAIN.OBJ|C:\USERS\IVO\DOCUMENTS\VISUAL STUDIO 2010\PROJECTS\BAT1DLL\BAT1DUMMY\DEBUG\DT.OBJ|C:\USERS\IVO\DOCUMENTS\VISUAL STUDIO 2010\PROJECTS\BAT1DLL\BAT1DUMMY\DEBUG\EEP.OBJ|C:\USERS\IVO\DOCUMENTS\VISUAL STUDIO 2010\PROJECTS\BAT1DLL\BAT1DUMMY\DEBUG\FAT.OBJ|C:\USERS\IVO\DOCUMENTS\VISUAL STUDIO 2010\PROJECTS\BAT1DLL\BAT1DUMMY\DEBUG\FD.OBJ|C:\USERS\IVO\DOCUMENTS\VISUAL STUDIO 2010\PROJECTS\BAT1DLL\BAT1DUMMY\DEBUG\FDIR.OBJ|C:\USERS\IVO\DOCUMENTS\VISUAL STUDIO 2010\PROJECTS\BAT1DLL\BAT1DUMMY\DEBUG\FS.OBJ|C:\USERS\IVO\DOCUMENTS\VISUAL STUDIO 2010\PROJECTS\BAT1DLL\BAT1DUMMY\DEBUG\PKTADAPTER.OBJ|C:\USERS\IVO\DOCUMENTS\VISUAL STUDIO 2010\PROJECTS\BAT1DLL\BAT1DUMMY\DEBUG\SYSTEM.OBJ
C:\PROGRAM FILES\MICROSOFT SDKS\WINDOWS\V7.0A\LIB\KERNEL32.LIB
C:\PROGRAM FILES\MICROSOFT SDKS\WINDOWS\V7.0A\LIB\USER32.LIB
C:\PROGRAM FILES\MICROSOFT SDKS\WINDOWS\V7.0A\LIB\GDI32.LIB
C:\PROGRAM FILES\MICROSOFT SDKS\WINDOWS\V7.0A\LIB\WINSPOOL.LIB
C:\PROGRAM FILES\MICROSOFT SDKS\WINDOWS\V7.0A\LIB\COMDLG32.LIB
C:\PROGRAM FILES\MICROSOFT SDKS\WINDOWS\V7.0A\LIB\ADVAPI32.LIB
C:\PROGRAM FILES\MICROSOFT SDKS\WINDOWS\V7.0A\LIB\SHELL32.LIB
C:\PROGRAM FILES\MICROSOFT SDKS\WINDOWS\V7.0A\LIB\OLE32.LIB
C:\PROGRAM FILES\MICROSOFT SDKS\WINDOWS\V7.0A\LIB\OLEAUT32.LIB
C:\PROGRAM FILES\MICROSOFT SDKS\WINDOWS\V7.0A\LIB\UUID.LIB
C:\PROGRAM FILES\MICROSOFT SDKS\WINDOWS\V7.0A\LIB\ODBC32.LIB
C:\PROGRAM FILES\MICROSOFT SDKS\WINDOWS\V7.0A\LIB\ODBCCP32.LIB
C:\USERS\IVO\DOCUMENTS\VISUAL STUDIO 2010\PROJECTS\BAT1DLL\BAT1DUMMY\DEBUG\BAT1DUMMY.DLL.EMBED.MANIFEST.RES
C:\USERS\IVO\DOCUMENTS\VISUAL STUDIO 2010\PROJECTS\BAT1DLL\BAT1DUMMY\DEBUG\BAT1.OBJ
C:\USERS\IVO\DOCUMENTS\VISUAL STUDIO 2010\PROJECTS\BAT1DLL\BAT1DUMMY\DEBUG\BATDEVICE.OBJ
C:\USERS\IVO\DOCUMENTS\VISUAL STUDIO 2010\PROJECTS\BAT1DLL\BAT1DUMMY\DEBUG\CONSOLELOGGER.OBJ
C:\USERS\IVO\DOCUMENTS\VISUAL STUDIO 2010\PROJECTS\BAT1DLL\BAT1DUMMY\DEBUG\DLLMAIN.OBJ
C:\USERS\IVO\DOCUMENTS\VISUAL STUDIO 2010\PROJECTS\BAT1DLL\BAT1DUMMY\DEBUG\DT.OBJ
C:\USERS\IVO\DOCUMENTS\VISUAL STUDIO 2010\PROJECTS\BAT1DLL\BAT1DUMMY\DEBUG\EEP.OBJ
C:\USERS\IVO\DOCUMENTS\VISUAL STUDIO 2010\PROJECTS\BAT1DLL\BAT1DUMMY\DEBUG\FAT.OBJ
C:\USERS\IVO\DOCUMENTS\VISUAL STUDIO 2010\PROJECTS\BAT1DLL\BAT1DUMMY\DEBUG\FD.OBJ
C:\USERS\IVO\DOCUMENTS\VISUAL STUDIO 2010\PROJECTS\BAT1DLL\BAT1DUMMY\DEBUG\FDIR.OBJ
C:\USERS\IVO\DOCUMENTS\VISUAL STUDIO 2010\PROJECTS\BAT1DLL\BAT1DUMMY\DEBUG\FS.OBJ
C:\USERS\IVO\DOCUMENTS\VISUAL STUDIO 2010\PROJECTS\BAT1DLL\BAT1DUMMY\DEBUG\PKTADAPTER.OBJ
C:\USERS\IVO\DOCUMENTS\VISUAL STUDIO 2010\PROJECTS\BAT1DLL\BAT1DUMMY\DEBUG\SYSTEM.OBJ
C:\WINDOWS\GLOBALIZATION\SORTING\SORTDEFAULT.NLS
C:\PROGRAM FILES\MICROSOFT VISUAL STUDIO 10.0\VC\LIB\MSVCRTD.LIB
C:\PROGRAM FILES\MICROSOFT VISUAL STUDIO 10.0\VC\LIB\OLDNAMES.LIB
C:\PROGRAM FILES\MICROSOFT VISUAL STUDIO 10.0\VC\LIB\MSVCPRTD.LIB
C:\WINDOWS\SYSTEM32\TZRES.DLL
C:\PROGRAM FILES\MICROSOFT VISUAL STUDIO 10.0\VC\BIN\1033\LINKUI.DLL
C:\USERS\IVO\DOCUMENTS\VISUAL STUDIO 2010\PROJECTS\BAT1DLL\DEBUG\BAT1DUMMY.EXP
C:\USERS\IVO\DOCUMENTS\VISUAL STUDIO 2010\PROJECTS\BAT1DLL\DEBUG\BAT1DUMMY.LIB
C:\PROGRAM FILES\MICROSOFT VISUAL STUDIO 10.0\VC\BIN\CVTRES.EXE
C:\USERS\IVO\DOCUMENTS\VISUAL STUDIO 2010\PROJECTS\BAT1DLL\DEBUG\BAT1DUMMY.DLL
C:\WINDOWS\SYSTEM32\RSAENH.DLL
C:\USERS\IVO\DOCUMENTS\VISUAL STUDIO 2010\PROJECTS\BAT1DLL\DEBUG\BAT1DUMMY.PDB
C:\PROGRAM FILES\MICROSOFT VISUAL STUDIO 10.0\VC\BIN\LINK.EXE
