C51 COMPILER V5.50,  LANGRU                                                                28/06/12  15:55:48  PAGE 1   


DOS C51 COMPILER V5.50, COMPILATION OF MODULE LANGRU
OBJECT MODULE PLACED IN LANGRU.OBJ
COMPILER INVOKED BY: E:\C51_V5.5\BIN\C51.EXE LANGRU.C51 CD DB

stmt level    source

   1          //*****************************************************************************
   2          //
   3          // Definice stringu:
   4          //   - En
   5          //   - Ru
   6          //
   7          //*****************************************************************************
   8          
   9          #include "Lang.h"                   // Stringy
  10          
  11          #ifdef LANG_VERSION_RU  // Prekladam, jen pokud je tato jazykova verze aktivni
              
              // ---------------------------------------------------------------------------------------------
              // Definice jazyka
              // ---------------------------------------------------------------------------------------------
              
              byte code STR_LANGUAGE[] = "Language";   // Toto menu se nepreklada
              byte code STR_MENU_LANGUAGE[] =
                "English\x0"
                "\x0D0o-p\x0BBcc\x0B5\x0B3";
              
              // ---------------------------------------------------------------------------------------------
              // HW verze
              // ---------------------------------------------------------------------------------------------
              
              byte code STR_HW_VERSION[] =
                "GSM\x0"
                "LW1\x0"
                "MODBUS";
              
              // ---------------------------------------------------------------------------------------------
              // Menu
              // ---------------------------------------------------------------------------------------------
              
              byte code STR_DAY[] =
                "Day\x0"
                "\x0C9e\x0B8\x0C3";
              byte code STR_WEIGHT[] =
                "Weight\x0"
                "Bec";
              byte code STR_START[] =
                "Start\x0"
                "Ha\x0BEa\x0B6o";
              byte code STR_FLOCK[] =
                "Flock\x0"
                "C\x0BAa\x0C6";
              byte code STR_TARGET_WEIGHT[] =
                "Target\x0"
                "\x0D3e\x0B6\x0C3";
              byte code STR_LAST_SAVED_WEIGHT[] =
                "Last\x0"
                "\x0D0oc\x0B6e\x0B0\x0B8.";
              byte code STR_COUNT[] =
                "Count\x0"
                "C\x0BEe\x0BA";
              byte code STR_OK[] =
                "OK\x0"
                "O\x0B5";
              byte code STR_CANCEL[] =
C51 COMPILER V5.50,  LANGRU                                                                28/06/12  15:55:48  PAGE 2   

                "Cancel\x0"
                "O\x0BA\x0B7e\x0B8a";
              byte code STR_RETRY[] =
                "Retry\x0"
                "\x0D0o\x0AE\x0BAop";
              byte code STR_YES[] =
                "Yes\x0"
                "\x0C9a";
              byte code STR_NO[] =
                "No\x0"
                "He\x0BA";
              byte code STR_ERROR[] =
                "Error\x0"
                "O\x0BF\x0B3\x0AD\x0B5a";
              byte code STR_WAIT[] =
                "Wait\x0"
                "\x0CA\x0B0\x0B3\x0BAe";
              byte code STR_HEADS[] =
                "hds\x0"
                "\x0BF\x0BA.";
              /*byte code STR_VERZE[] =
                "version\x0"
                "version";*/
              
              // Jednotky mam zvlast pro vyber v menu a pro zobrazeni (kvuli jednoduchosti)
              byte code STR_UNITS_MENU[]=    // Pro menu
                 "kg\x0" "lb\x0"
                 "\x0B5\x0AF\x0" "\x0BC.";
              byte code STR_UNITS[_UNITS_COUNT][_LANG_COUNT][3]= {   // Pro zobrazeni
                {
                  "kg",
                  "\x0B5\x0AF"
                },
                {
                  "lb",
                  "\x0BC."
                }
              };
              
              // Dilek v menu
              byte code STR_DIVISION_MENU[] =
                "1\x0"
                "2\x0"
                "5\x0"
                "10";
              
              byte code STR_INVALID_VALUE[] =
                "The value\x0FFis not valid\x0"
                "\x0CB\x0B8a\x0BEe\x0B8\x0B3e\x0FF\x0B8e\x0B0e\x0B4c\x0BA\x0AE\x0B3\x0BAe\x0B6\x0C3\x0B8o";
              byte code STR_SAVE_CHANGES[] =
                "Save changes?\x0"
                "Coxpa\x0B8\x0B3\x0BA\x0C3\x0FF\x0B3\x0B2\x0B7e\x0B8e\x0B8\x0B3\x0C6?";
              byte code STR_STOP_WEIGHING_FIRST[] =
                "Weighing is started.\x0FFStop the weighing\x0FFfirst.\x0"
                "B\x0B2\x0AEe\x0BF\x0B3\x0AEa\x0B8\x0B3e \x0B8a\x0BEa\x0B6oc\x0C3.\x0FFC\x0B8a\x0BEa\x0B6a oc\x0BAa\x0B8
             -o\x0AE\x0B3\x0BAe\x0FF\x0AE\x0B2\x0AEe\x0BF\x0B3\x0AEa\x0B8\x0B3e.";
              
              // Typy zobrazeni behem vazeni
              byte code STR_WEIGHING_IDLE[] =
                "STOPPED\x0"
                "OCTAHOB\x0CFEHO";
              byte code STR_WEIGHING_WAITING[] =
                "WAITING\x0"
                "O\x0CA\x0CC\x0C9AH\x0CCE";
              byte code STR_WEIGHING_WEIGHING[] =
                "WEIGHING\x0"
C51 COMPILER V5.50,  LANGRU                                                                28/06/12  15:55:48  PAGE 3   

                "B\x0CBBE\x0D5\x0CCBAH\x0CCE";
              byte code STR_WEIGHING_PAUSE[] =
                "PAUSED\x0"
                "\x0D0A\x0D1\x0CBA";
              byte code STR_WEIGHING_ONLINE[] =
                "ONLINE\x0"
                "OH\x0CFA\x0CDH";
              
              // Historie
              byte code STR_ARCHIVE[] =
                "ARCHIVE\x0"
                "APX\x0CCB";
              
              // Statistika
              byte code STR_CV[] =
                "Cv\x0"
                "\x0CE\x0AE";
              byte code STR_UNI[] =
                "UNI\x0"
                "\x0D1\x0B8\x0B3";
              
              // Logger
              byte code STR_PAGE[] =
                "Page\x0"
                "C\x0BApa\x0B8\x0B3\x0BDa";
              byte code STR_NO_DATA[] =
                "No data\x0"
                "He\x0BA \x0B0a\x0B8\x0B8\x0C2x";
              
              // Editace hejna
              byte code STR_STOP_WEIGHING[] =
                "Really stop\x0FFweighing of the flock?\x0"
                "\x0D0pe\x0B5pa\x0BA\x0B3\x0BA\x0C3\x0FF\x0AE\x0B2\x0AEe\x0BF\x0B3\x0AEa\x0B8\x0B3e c\x0BAa\x0B3?";
              byte code STR_SELECT_ANOTHER_FLOCK[] =
                "The selected flock is\x0FFnow weighed.\x0FFSelect another flock.\x0"
                "B\x0C2\x0ADpa\x0B8\x0B8a\x0C6 c\x0BAa\x0C6\x0FF\x0AE\x0B2\x0AEe\x0BF\x0B3\x0AEae\x0BAc\x0C6.\x0FFB\x0C2
             -\x0ADep\x0B3\x0BAe \x0B0p\x0BB\x0AF\x0BB\x0C5.";
              byte code STR_USE_FLOCK[] =
                "Use a predefined flock?\x0"
                "\x0CCc\x0B9o\x0B6\x0C3\x0B2o\x0AEa\x0BA\x0C3\x0FF\x0B9pe\x0B0o\x0B9pe\x0B0e\x0B6e\x0B8\x0B8\x0BB\x0C5\x
             -0FFc\x0BAa\x0C5?";
              byte code STR_STARTING_DAY[] =
                "Starting day:\x0FF\x0FF\x0FF\x0"
                "\x0C9e\x0B8\x0C3 \x0B8a\x0BEa\x0B6a:\x0FF\x0FF\x0FF";
              byte code STR_FLOCK_NUMBER[] =
                "Flock number:\x0FF\x0FF\x0FF\x0"
                "Ho\x0B7ep c\x0BAa\x0B3:\x0FF\x0FF\x0FF";
              byte code STR_REALLY_DELETE_ALL_FLOCKS[] =
                "Really delete\x0FFall the flocks?\x0"
                "\x0C9e\x0B4c\x0BA\x0AE\x0B3\x0BAe\x0B6\x0C3\x0B8o\x0FF\x0BB\x0B0a\x0B6\x0B4\x0BA\x0C3 \x0AEce c\x0BAa\x
             -0B3?";
              byte code STR_ALL_FLOCKS_DELETED[] =
                "All the flocks\x0FFwere deleted.\x0"
                "Bce c\x0BAa\x0B3 \x0AD\x0C2\x0B6\x0B3\x0FF\x0BB\x0B0a\x0B6e\x0B8\x0C2.";
              byte code STR_START_WEIGHING_NOW[] =
                "Start weighing now?\x0"
                "Ha\x0BEa\x0BA\x0C3 \x0AE\x0B2\x0AEe\x0BF\x0B3\x0AEa\x0B8\x0B3e\x0FFce\x0B4\x0BEac?";
              byte code STR_COMPARE_RESULTS[] =
                "Compare with\x0FFanother flock?\x0"
                "Cpa\x0AE\x0B8\x0B3\x0BA\x0C3 c \x0B0p\x0BB\x0AFo\x0B4\x0FFc\x0BAae\x0B4?";
              byte code STR_FLOCK_NOT_VALID[] =
                "The selected flock is\x0FFnot valid.\x0FFSelect another flock.\x0"
                "B\x0C2\x0ADpa\x0B8\x0B8a\x0C6 c\x0BAa\x0C6\x0FF\x0B8e\x0B0e\x0B4c\x0BA\x0AE\x0B3\x0BAe\x0B6\x0C3\x0B8a.
             -\x0FFB\x0C2\x0ADep\x0B3\x0BAe \x0B0p\x0BB\x0AF\x0BB\x0C5.";
              
              // Editace datumu a casu
C51 COMPILER V5.50,  LANGRU                                                                28/06/12  15:55:48  PAGE 4   

              byte code STR_DATE[] =
                "Date:\x0FF\x0FF\x0FF\x0"
                "\x0C9a\x0BAa:\x0FF\x0FF\x0FF";
              byte code STR_TIME[] =
                "Time:\x0FF\x0FF\x0FF\x0"
                "Bpe\x0B7\x0C6:\x0FF\x0FF\x0FF";
              
              // Editace identifikacniho cisla
              byte code STR_IDENTIFICATION_NUMBER[] =
                "Identification number:\x0FF\x0FF\x0FF\x0"
                "\x0CC\x0B0e\x0B8\x0BA\x0B3\x0BC\x0B3\x0B5a\x0BD\x0B3o\x0B8\x0B8\x0C2\x0B4\x0FF\x0B8o\x0B7ep:\x0FF\x0FF"
             -;
              
              // Editace parametru statistiky
              byte code STR_HISTOGRAM_RANGE[] =
                "Histogram range:\x0FF\x0FF\x0FF\x0"
                "\x0C9\x0B3a\x0B9a\x0B2o\x0B8 \x0AF\x0B3c\x0BAo\x0AFpa\x0B7\x0B7\x0C2:\x0FF\x0FF\x0FF";
              byte code STR_UNIFORMITY_RANGE[] =
                "Uniformity range:\x0FF\x0FF\x0FF\x0"
                "\x0C9\x0B3a\x0B9a\x0B2o\x0B8 o\x0B0\x0B8opo\x0B0\x0B8oc\x0BA\x0B3:\x0FF\x0FF\x0FF";
              
              // Parametry naslapne vahy
              byte code STR_SCALE_MARGIN_ABOVE_FEMALES[] =
                "Margin above target\x0FFfor females:\x0FF\x0FF\x0"
                "O\x0BA\x0B5\x0B6o\x0B8e\x0B8\x0B3e c\x0AEepx\x0FF\x0B8op\x0B7\x0C2 \x0B0\x0B6\x0C6 ca\x0B7o\x0B5:\x0FF\
             -x0FF";
              byte code STR_SCALE_MARGIN_BELOW_FEMALES[] =
                "Margin under target\x0FFfor females:\x0FF\x0FF\x0"
                "O\x0BA\x0B5\x0B6o\x0B8e\x0B8\x0B3e \x0B8\x0B3\x0B1e\x0FF\x0B8op\x0B7\x0C2 \x0B0\x0B6\x0C6 ca\x0B7o\x0B5
             -:\x0FF\x0FF";
              byte code STR_SCALE_MARGIN_ABOVE_MALES[] =
                "Margin above target\x0FFfor males:\x0FF\x0FF\x0"
                "O\x0BA\x0B5\x0B6o\x0B8e\x0B8\x0B3e c\x0AEepx\x0FF\x0B8op\x0B7\x0C2 \x0B0\x0B6\x0C6 ca\x0B7\x0BDo\x0AE:\
             -x0FF\x0FF";
              byte code STR_SCALE_MARGIN_BELOW_MALES[] =
                "Margin under target\x0FFfor males:\x0FF\x0FF\x0"
                "O\x0BA\x0B5\x0B6o\x0B8e\x0B8\x0B3e \x0B8\x0B3\x0B1e\x0FF\x0B8op\x0B7\x0C2 \x0B0\x0B6\x0C6 ca\x0B7\x0BDo
             -\x0AE:\x0FF\x0FF";
              byte code STR_SCALE_FILTER[] =
                "Filter:\x0FF\x0FF\x0FF\x0"
                "\x0D2\x0B3\x0B6\x0C3\x0BAp:\x0FF\x0FF\x0FF";
              byte code STR_SCALE_STABILIZATION_RANGE[] =
                "Stabilization:\x0FF\x0FF\x0FF\x0"
                "C\x0BAa\x0AD\x0B3\x0B6\x0B3\x0B2a\x0BD\x0B3\x0C6:\x0FF\x0FF\x0FF";
              byte code STR_SCALE_STABILIZATION_TIME[] =
                "Stabilization\x0FFtime:\x0FF\x0FF\x0"
                "Bpe\x0B7\x0C6 c\x0BAa\x0AD\x0B3\x0B6\x0B3\x0B2a\x0BD\x0B3\x0B3:\x0FF\x0FF";
              byte code STR_SCALE_AUTO_MODE_TYPE[] =
                "Use gain in\x0FFautomatic mode?\x0"
                "\x0CCc\x0B9o\x0B6\x0C3\x0B2o\x0AEa\x0BA\x0C3 \x0B9p\x0B3\x0AEec\x0FF\x0AE a\x0AE\x0BAo\x0B7a\x0BA\x0B3\
             -x0BEec\x0B5o\x0B7\x0FFpe\x0B1\x0B3\x0B7e?";
              byte code STR_JUMP_MODE[] =
                 "Save sample upon:\x0FF\x0FF\x0FF\x0"
                 "Coxpa\x0B8\x0B3\x0BA\x0C3 o\x0ADpa\x0B2e\x0BD \x0B5a\x0B5:\x0FF\x0FF\x0FF";
              byte code STR_ENTER_LEAVE_BOTH[] =
                 "Entering the scale\x0" "Leaving the scale\x0" "Both\x0"
                 "B\x0AEo\x0B0 \x0AEeco\x0AE\x0" "B\x0C2xo\x0B0 \x0B3\x0B2 \x0AEeco\x0AE\x0" "O\x0ADa";
              
              // Kalibrace
              byte code STR_CALIBRATION_UNITS[] =
                "Units:\x0FF\x0FF\x0FF\x0"
                "E\x0B0\x0B3\x0B8\x0B3\x0BD\x0C2:\x0FF\x0FF\x0FF";
              byte code STR_CALIBRATION_DIVISION[] =
                "Division:\x0FF\x0FF\x0FF\x0"
                "\x0C9e\x0B6e\x0B8\x0B3e:\x0FF\x0FF\x0FF";
              byte code STR_CALIBRATION_ZERO[] =
C51 COMPILER V5.50,  LANGRU                                                                28/06/12  15:55:48  PAGE 5   

                "Empty the scale\x0"
                "O\x0BE\x0B3c\x0BA\x0B3\x0BA\x0C3 \x0AEec\x0C2";
              byte code STR_CALIBRATION_RANGE[] =
                "Put on the scale:\x0FF\x0FF\x0FF\x0"
                "\x0D0o\x0B6o\x0B1\x0B3\x0BAe \x0B8a \x0AEec\x0C2:\x0FF\x0FF\x0FF";
              
              // Podsvit
              byte code STR_BACKLIGHT[]=
                 "Backlight:\x0FF\x0FF\x0FF\x0"
                 "\x0D0o\x0B0c\x0AEe\x0BA\x0B5a:\x0FF\x0FF\x0FF";
              
              byte code STR_ON_OFF_AUTO[]=
                 "Off\x0" "On\x0" "Automatic\x0"
                 "B\x0C2\x0B5\x0B6.\x0" "B\x0B5\x0B6.\x0" "A\x0AE\x0BAo";
              
              // Kopie do a z pametoveho modulu
              byte code STR_INSERT_MODULE[] =
                "Insert a memory\x0FFmodule\x0"
                "Bc\x0BAa\x0AE\x0C3\x0BAe \x0B7o\x0B0\x0BB\x0B6\x0C3\x0FF\x0B9a\x0B7\x0C6\x0BA\x0B3";
              byte code STR_NO_MODULE[] =
                "Memory module\x0FFis not present\x0"
                "He\x0BA \x0B7o\x0B9\x0BB\x0B6\x0C6\x0FF\x0B9a\x0B7\x0C6\x0BA\x0B3";
              byte code STR_COPY_OK[] =
                "Copy successful\x0"
                "\x0CEo\x0B9\x0B3po\x0AEa\x0B8\x0B3e \x0BBc\x0B9e\x0BF\x0B8o";
              byte code STR_COPY_PROGRESS[] =
                "Progress:\x0FF\x0FF\x0FF\x0"
                "Xo\x0B0:\x0FF\x0FF\x0FF";
              byte code STR_CANT_COPY_CONFIG[] =
                "Cannot read\x0FFconfiguration\x0"
                "He \x0B7o\x0AF\x0BB \x0B9po\x0BEec\x0BA\x0C3\x0FF\x0B5o\x0B8\x0BC\x0B3\x0AF\x0BBpa\x0BD\x0B3\x0C5";
              
              // Gsm
              
              #ifdef VERSION_GSM          // Pouze pokud pouziva GSM
              
              byte code STR_GSM_USE[] =
                "Use GSM\x0FFcommunication?\x0"
                "\x0CCc\x0B9o\x0B6\x0C3\x0B2o\x0AEa\x0BA\x0C3\x0FFGSM c\x0AE\x0C6\x0B2\x0C3?";
              byte code STR_GSM_MIDNIGHT[] =
                "Send statistics\x0FFat midnight?\x0"
                "O\x0BA\x0B9pa\x0AE\x0B6\x0C6\x0BA\x0C3 c\x0BAa\x0BA\x0B3c\x0BA\x0B3\x0B5\x0BB\x0FF\x0AE \x0B9o\x0B6\x0B
             -8o\x0BE\x0C3?";
              byte code STR_GSM_PERIOD[] =
                "Period:\x0FF\x0FF\x0FF\x0"
                "\x0D0ep\x0B3o\x0B9:\x0FF\x0FF\x0FF";
              byte code STR_GSM_PERIOD_DAYS[] =
                "days\x0"
                "\x0B0\x0B8e\x0B4";
              byte code STR_GSM_REQUEST[] =
                "Send data\x0FFupon request?\x0"
                "O\x0BA\x0B9pa\x0AE\x0B6\x0C6\x0BA\x0C3 c\x0BAa\x0BA\x0B3c\x0BA\x0B3\x0B5\x0BB\x0FF\x0B9o \x0B2a\x0B9poc
             -\x0BB?";
              byte code STR_GSM_CHECK_NUMBERS[] =
                "Check numbers?\x0"
                "\x0D0po\x0AEep\x0B3\x0BA\x0C3 \x0B8o\x0B7epa?";
              byte code STR_GSM_NUMBER[] =
                "Phone number:\x0FF\x0FF\x0FF\x0"
                "Ho\x0B7ep \x0BAe\x0B6e\x0BCo\x0B8a:\x0FF\x0FF\x0FF";
              byte code STR_GSM_ACTIVE_NUMBERS[] =
                "Active numbers:\x0FF\x0FF\x0FF\x0"
                "A\x0B5\x0BA\x0B3\x0AE\x0B8\x0C2e \x0B8o\x0B7epa:\x0FF\x0FF\x0FF";
              
              #endif // VERSION_GSM
              
              // RS-485
C51 COMPILER V5.50,  LANGRU                                                                28/06/12  15:55:48  PAGE 6   

              
              #if defined(VERSION_DACS_LW1) || defined(VERSION_MODBUS)
              
              byte code STR_RS485_ADDRESS[] =
                "Address:\x0FF\x0FF\x0FF\x0"
                "A\x0B0pec:\x0FF\x0FF\x0FF";
              byte code STR_RS485_SPEED[] =
                "Speed:\x0FF\x0FF\x0FF\x0"
                "C\x0B5opoc\x0BA\x0C3:\x0FF\x0FF\x0FF";
              byte code STR_RS485_SPEED_ITEMS[] =
                 "1200 Bd\x0" "2400 Bd\x0" "4800 Bd\x0" "9600 Bd\x0" "19200 Bd\x0" "38400 Bd\x0" "57600 Bd\x0" "115200 B
             -d";
              byte code STR_RS485_PARITY[] =
                "Parity:\x0FF\x0FF\x0FF\x0"
                "\x0D0ap\x0B3\x0BAe\x0BA:\x0FF\x0FF\x0FF";
              byte code STR_RS485_PARITY_ITEMS[] =
                 "8-n-1\x0" "8-e-1\x0" "8-o-1\x0" "8-n-2";
              byte code STR_RS485_REPLY_DELAY[] =
                "Reply delay:\x0FF\x0FF\x0FF\x0"
                "\x0CBa\x0B0ep\x0B1\x0B5a o\x0BA\x0AEe\x0BAa:\x0FF\x0FF\x0FF";
              byte code STR_RS485_MS[] =
                "ms\x0"
                "\x0B7c";
              
              #ifdef VERSION_MODBUS
              byte code STR_RS485_SILENT_INTERVAL[] =
                "Silent interval:\x0FF\x0FF\x0FF\x0"
                "\x0CC\x0B8\x0BAep\x0AEa\x0B6 \x0B7o\x0B6\x0BEa\x0B8\x0B3\x0C6:\x0FF\x0FF\x0FF";
              byte code STR_RS485_PROTOCOL[] =
                "Protocol:\x0FF\x0FF\x0FF\x0"
                "\x0D0po\x0BAo\x0B5o\x0B6:\x0FF\x0FF\x0FF";
              byte code STR_RS485_PROTOCOL_ITEMS[] =
                 "MODBUS RTU\x0" "MODBUS ASCII";
              #endif // VERSION_MODBUS
              
              #endif // VERSION_DACS_LW1, VERSION_MODBUS
              
              
              
              //-----------------------------------------------------------------------------
              // Hlavni Menu
              //-----------------------------------------------------------------------------
              
              byte code STR_MAIN_MENU_IDLE[] =
                // Eng
                "Start weighing\x0"
                "Archive\x0"
                "Compare\x0"
                "Copy data\x0"
                "Setup\x0"
                // Sp
                "Ha\x0BEa\x0BA\x0C3 \x0AE\x0B2\x0AEe\x0BF\x0B3\x0AEa\x0B8\x0B3e\x0"
                "Apx\x0B3\x0AE\x0"
                "Cpa\x0AE\x0B8\x0B3\x0BA\x0C3\x0"
                "\x0CEo\x0B9\x0B3po\x0AEa\x0BA\x0C3 \x0B0a\x0B8\x0B8\x0C2e\x0"
                "Hac\x0BApo\x0B4\x0B5a";
              
              byte code STR_MAIN_MENU_WAITING[] =
                // Eng
                "Stop weighing\x0"
                "Archive\x0"
                "Compare\x0"
                "Copy data\x0"
                "Setup\x0"
                // Sp
                "C\x0BAo\x0B9 \x0AE\x0B2\x0AEe\x0BF\x0B3\x0AEa\x0B8\x0B3e\x0"
C51 COMPILER V5.50,  LANGRU                                                                28/06/12  15:55:48  PAGE 7   

                "Apx\x0B3\x0AE\x0"
                "Cpa\x0AE\x0B8\x0B3\x0BA\x0C3\x0"
                "\x0CEo\x0B9\x0B3po\x0AEa\x0BA\x0C3 \x0B0a\x0B8\x0B8\x0C2e\x0"
                "Hac\x0BApo\x0B4\x0B5a";
              
              byte code STR_MAIN_MENU_WEIGHING[] =
                // Eng
                "Pause weighing\x0"
                "Stop weighing\x0"
                "Archive\x0"
                "Compare\x0"
                "Copy data\x0"
                "Setup\x0"
                // Sp
                "\x0D0a\x0BB\x0B2a \x0AE\x0B2\x0AEe\x0BF\x0B3\x0AEa\x0B8\x0B3\x0C6\x0"
                "C\x0BAo\x0B9 \x0AE\x0B2\x0AEe\x0BF\x0B3\x0AEa\x0B8\x0B3e\x0"
                "Apx\x0B3\x0AE\x0"
                "Cpa\x0AE\x0B8\x0B3\x0BA\x0C3\x0"
                "\x0CEo\x0B9\x0B3po\x0AEa\x0BA\x0C3 \x0B0a\x0B8\x0B8\x0C2e\x0"
                "Hac\x0BApo\x0B4\x0B5a";
              
              byte code STR_MAIN_MENU_PAUSE[] =
                // Eng
                "Continue weighing\x0"
                "Stop weighing\x0"
                "Archive\x0"
                "Compare\x0"
                "Copy data\x0"
                "Setup\x0"
                // Sp
                "B\x0B2\x0AEe\x0BF\x0B3\x0AEa\x0BA\x0C3 \x0B0a\x0B6\x0C3\x0BFe\x0"
                "C\x0BAo\x0B9 \x0AE\x0B2\x0AEe\x0BF\x0B3\x0AEa\x0B8\x0B3e\x0"
                "Apx\x0B3\x0AE\x0"
                "Cpa\x0AE\x0B8\x0B3\x0BA\x0C3\x0"
                "\x0CEo\x0B9\x0B3po\x0AEa\x0BA\x0C3 \x0B0a\x0B8\x0B8\x0C2e\x0"
                "Hac\x0BApo\x0B4\x0B5a";
              
              //-----------------------------------------------------------------------------
              // Menu nastaveni
              //-----------------------------------------------------------------------------
              
              byte code STR_MENU_SETUP_TITLE[] =
                "Setup\x0"
                "Hac\x0BApo\x0B4\x0B5a";
              
              byte code STR_MENU_SETUP[] =
                // Eng
                "Date and time\x0"
                "Identification number\x0"
                "Flocks\x0"
                "Statistics\x0"
              #ifdef VERSION_GSM
                "GSM\x0"
              #else
                "RS-485\x0"
              #endif // VERSION_GSM
                "Scale\x0"
                "Backlight\x0"
                "Read from module\x0"
                "Start online\x0"
                // Sp
                "\x0C9a\x0BAa \x0B3 \x0AEpe\x0B7\x0C6\x0"
                "\x0CC\x0B0e\x0B8\x0BA. \x0B8o\x0B7ep\x0"
                "C\x0BAa\x0C6\x0"
                "C\x0BAa\x0BA\x0B3c\x0BA\x0B3\x0B5a\x0"
              #ifdef VERSION_GSM
C51 COMPILER V5.50,  LANGRU                                                                28/06/12  15:55:48  PAGE 8   

                "GSM\x0"
              #else
                "RS-485\x0"
              #endif // VERSION_GSM
                "Bec\x0C2\x0"
                "\x0D0o\x0B0c\x0AEe\x0BA\x0B5a\x0"
                "C\x0BE\x0B3\x0BAa\x0BA\x0C3 c \x0B7o\x0B0\x0BB\x0B6\x0C6\x0"
                "Ha\x0BEa\x0BA\x0C3 o\x0B8\x0B6a\x0B4\x0B8";
              
              //-----------------------------------------------------------------------------
              // Menu hejna
              //-----------------------------------------------------------------------------
              
              byte code STR_MENU_SETUP_FLOCKS_TITLE[] =
                "Flocks\x0"
                "C\x0BAa\x0C6";
              
              byte code STR_MENU_SETUP_FLOCKS[] =
                // Eng
                "New flock\x0"
                "Edit flock\x0"
                "Delete flock\x0"
                "Delete all flocks\x0"
                // Sp
                "Ho\x0AEa\x0C6 c\x0BAa\x0C6\x0"
                "Pe\x0B0a\x0B5\x0BA\x0B3po\x0AEa\x0BA\x0C3 c\x0BAa\x0C5\x0"
                "\x0D1\x0B0a\x0B6\x0B3\x0BA\x0C3 c\x0BAa\x0C5\x0"
                "\x0D1\x0B0a\x0B6\x0B3\x0BA\x0C3 \x0AEce c\x0BAa\x0B3";
              
              //-----------------------------------------------------------------------------
              // Menu vahy
              //-----------------------------------------------------------------------------
              
              byte code STR_MENU_SETUP_SCALE_TITLE[] =
                "Scale\x0"
                "Bec\x0C2";
              
              byte code STR_MENU_SETUP_SCALE[] =
                // Eng
                "Saving parameters\x0"
                "Correction curve\x0"
                "Units\x0"
                "Calibration\x0"
                // Sp
                "\x0D0apa\x0B7e\x0BAp\x0C2 coxpa\x0B8e\x0b8\x0B3\x0C6\x0"
                "\x0CEp\x0B3\x0AEa\x0C6 \x0B5oppe\x0B5\x0BD\x0B3\x0B3\x0"
                "E\x0B0\x0B3\x0B8\x0B3\x0BD\x0C2\x0"
                "\x0CEa\x0B6\x0B3\x0ADpo\x0AE\x0B5a";
              
              //-----------------------------------------------------------------------------
              // Menu GSM
              //-----------------------------------------------------------------------------
              
              #ifdef VERSION_GSM          // Pouze pokud pouziva GSM
              
              byte code STR_MENU_SETUP_GSM_TITLE[] =
                "GSM\x0"
                "GSM";
              
              byte code STR_MENU_SETUP_GSM[] =
                // Eng
                "Settings\x0"
                "Numbers\x0"
                // Sp
                "Hac\x0BApo\x0B4\x0B5\x0B3\x0"
                "Ho\x0B7epa";
C51 COMPILER V5.50,  LANGRU                                                                28/06/12  15:55:48  PAGE 9   

              
              #endif // VERSION_GSM
              
              //-----------------------------------------------------------------------------
              // Menu RS-485
              //-----------------------------------------------------------------------------
              
              #if defined(VERSION_DACS_LW1) || defined(VERSION_MODBUS)
              
              byte code STR_MENU_SETUP_RS485_TITLE[] =
                "RS-485\x0"
                "RS-485";
              
              byte code STR_MENU_SETUP_RS485[] =
                // Eng
                "Address\x0"
                "Speed\x0"
                "Parity\x0"
              #ifdef VERSION_MODBUS
                "Protocol\x0"
              #endif // VERSION_MODBUS
                "Delays\x0"
                // Sp
                "A\x0B0pec\x0"
                "C\x0B5opoc\x0BA\x0C3\x0"
                "\x0D0ap\x0B3\x0BAe\x0BA\x0"
              #ifdef VERSION_MODBUS
                "\x0D0po\x0BAo\x0B5o\x0B6\x0"
              #endif // VERSION_MODBUS
                "\x0CBa\x0B0ep\x0B1\x0B5\x0B3";
              
              #endif // VERSION_DACS_LW1, VERSION_MODBUS
              
              //-----------------------------------------------------------------------------
              // Editace hejn
              //-----------------------------------------------------------------------------
              
              byte code STR_FLOCK_EXISTS[] =
                "The flock already exists.\x0FFEnter different number.\x0"
                "C\x0BAa\x0C6 \x0BB\x0B1e c\x0BB\x0C0ec\x0BA\x0AE\x0BBe\x0BA.\x0FFBe\x0B0\x0B3\x0BAe \x0B0p\x0BB\x0AFo\x
             -0B4\x0FF\x0B8o\x0B7ep.";
              byte code STR_FLOCK_DOESNT_EXIST[] =
                "The selected flock\x0FFdoesn't exist.\x0FFSelect another number.\x0"
                "B\x0C2\x0ADpa\x0B8\x0B8a\x0C6 c\x0BAa\x0C6 \x0B8e\x0FFc\x0BB\x0C0ec\x0BA\x0AE\x0BBe\x0BA. B\x0C2\x0ADep
             -\x0B3\x0BAe\x0FF\x0B0p\x0BB\x0AFo\x0B4 \x0B8o\x0B7ep.";
              byte code STR_ENTER_FLOCK_NAME[] =
                "Flock name:\x0FF\x0FF\x0FF\x0"
                "\x0CC\x0B7\x0C6 c\x0BAa\x0B3:\x0FF\x0FF\x0FF";
              byte code STR_USE_BOTH_GENDERS[] =   // Vyuziva i Menu.c
                "Use both genders?\x0"
                "\x0CCc\x0B9o\x0B6\x0C3\x0B2o\x0AEa\x0BA\x0C3\x0FFo\x0ADa \x0B9o\x0B6a?";
              byte code STR_USE_CURVES[] =
                "Use growth curves?\x0"
                "\x0CCc\x0B9o\x0B6\x0C3\x0B2o\x0AEa\x0BA\x0C3\x0FF\x0B5p\x0B3\x0AE\x0C2e poc\x0BAa?";
              byte code STR_PREFACE_CURVE_FEMALES[] =
                "Now you can enter\x0FFa growth curve\x0FFfor females.\x0"
                "Te\x0B9ep\x0C3 \x0B7o\x0B1\x0B8o \x0AEec\x0BA\x0B3\x0FF\x0B5p\x0B3\x0AE\x0BB\x0C5 poc\x0BAa\x0FF\x0B0\x
             -0B6\x0C6 ca\x0B7o\x0B5.";
              byte code STR_PREFACE_CURVE_MALES[] =
                "Now you can enter\x0FFa growth curve\x0FFfor males.\x0"
                "Te\x0B9ep\x0C3 \x0B7o\x0B1\x0B8o \x0AEec\x0BA\x0B3\x0FF\x0B5p\x0B3\x0AE\x0BB\x0C5 poc\x0BAa\x0FF\x0B0\x
             -0B6\x0C6 ca\x0B7\x0BDo\x0AE.";
              byte code STR_PREFACE_CURVE[] =
                "Now you can enter\x0FFa growth curve.\x0"
                "Te\x0B9ep\x0C3 \x0B7o\x0B1\x0B8o \x0AEec\x0BA\x0B3\x0FF\x0B5p\x0B3\x0AE\x0BB\x0C5 poc\x0BAa.";
              byte code STR_USE_TIME_LIMIT[] =
C51 COMPILER V5.50,  LANGRU                                                                28/06/12  15:55:48  PAGE 10  

                "Limit the weighing\x0FFby time?\x0"
                "O\x0AFpa\x0B8\x0B3\x0BE\x0B3\x0BA\x0C3\x0FF\x0AE\x0B2\x0AEe\x0BF\x0B3\x0AEa\x0B8\x0B3e\x0FF\x0B9o \x0AE
             -pe\x0B7e\x0B8\x0B3?";
              byte code STR_LIMIT_FROM[] =
                "Weigh from:\x0FF\x0FF\x0FF\x0"
                "B\x0B2\x0AEe\x0BF\x0B3\x0AEa\x0BA\x0C3 c:\x0FF\x0FF\x0FF";
              byte code STR_LIMIT_TILL[] =
                "Weigh till:\x0FF\x0FF\x0FF\x0"
                "B\x0B2\x0AEe\x0BF\x0B3\x0AEa\x0BA\x0C3 \x0AEec:\x0FF\x0FF\x0FF";
              byte code STR_LIMIT_TIME[] =
                "Hours\x0"
                "\x0BEaco\x0AE";
              
              byte code STR_INITIAL_WEIGHT[] =
                "Initial weight:\x0FF\x0FF\x0FF\x0"
                "Ha\x0BEa\x0B6\x0C3\x0B8\x0C2\x0B4 \x0AEec:\x0FF\x0FF\x0FF";
              byte code STR_INITIAL_WEIGHT_FEMALES[] =
                "Initial weight\x0FFfor females:\x0FF\x0FF\x0"
                "Ha\x0BEa\x0B6\x0C3\x0B8\x0C2\x0B4 \x0AEec\x0FF\x0B0\x0B6\x0C6 ca\x0B7o\x0B5:\x0FF\x0FF";
              byte code STR_INITIAL_WEIGHT_MALES[] =
                "Initial weight\x0FFfor males:\x0FF\x0FF\x0"
                "Ha\x0BEa\x0B6\x0C3\x0B8\x0C2\x0B4 \x0AEec\x0FF\x0B0\x0B6\x0C6 ca\x0B7\x0BDo\x0AE:\x0FF\x0FF";
              
              byte code STR_NO_FLOCK_FOUND[] =
                "No flock found\x0"
                "C\x0BAa\x0C6 \x0B8e \x0B8a\x0B4\x0B0e\x0B8a";
              byte code STR_CHOOSE_FLOCK[] =
                "Choose a flock:\x0FF\x0FF\x0FF\x0"
                "B\x0C2\x0ADep\x0B3\x0BAe c\x0BAa\x0C5:\x0FF\x0FF\x0FF";
              byte code STR_NONAME[] =
                "no name\x0"
                "\x0B8e\x0BA \x0B3\x0B7e\x0B8\x0B3";
              
              // ---------------------------------------------------------------------------------------------
              // Editace rustove krivky
              // ---------------------------------------------------------------------------------------------
              
              byte code STR_SAVE[] =
                "Save\x0"
                "Coxpa\x0B8\x0B3\x0BA\x0C3";
              byte code STR_DELETE[] =
                "Delete\x0"
                "\x0D1\x0B0a\x0B6\x0B3\x0BA\x0C3";
              byte code STR_QUIT[] =
                "Quit\x0"
                "B\x0C2\x0B4\x0BA\x0B3";
              byte code STR_NEXT[] =
                "Next\x0"
                "C\x0B6e\x0B0.";
              byte code STR_ADD[] =
                "Add\x0"
                "\x0C9o\x0ADa\x0AE\x0B3\x0BA\x0C3";
              byte code STR_CHANGE[] =
                "Change\x0"
                "\x0CC\x0B2\x0B7e\x0B8\x0B3\x0BA\x0C3";
              byte code STR_MOVE[] =
                "Move\x0"
                "\x0C9\x0AE\x0B3\x0AFa\x0BA\x0C3";
              byte code STR_DAY_COLON[] =
                "Day:\x0"
                "\x0C9e\x0B8\x0C3:";
              byte code STR_WEIGHT_COLON[] =
                "Weight:\x0"
                "Bec:";
              byte code STR_CURVE_FULL[] =
                "The curve is full\x0"
C51 COMPILER V5.50,  LANGRU                                                                28/06/12  15:55:48  PAGE 11  

                "\x0CEp\x0B3\x0AEa\x0C6 poc\x0BAa\x0FF\x0B2a\x0B9o\x0B6\x0B8e\x0B8a";
              
              byte code STR_CURVE_DAY_EXISTS[] =
                "The day already exists.\x0FFOverwrite?\x0"
                "\x0C9e\x0B8 \x0BB\x0B1e c\x0BB\x0C0ec\x0BA\x0AE\x0BBe\x0BA.\x0FF\x0D0epe\x0B9\x0B3ca\x0BA\x0C3?";
              byte code STR_CURVE_DELETE[] =
                "Delete the selected\x0FFday from the table?\x0"
                "\x0D1\x0B0a\x0B6\x0B3\x0BA\x0C3 \x0AE\x0C2\x0ADpa\x0B8\x0B8\x0C2\x0B4\x0FF\x0B0e\x0B8\x0C3 \x0B3\x0B2 \
             -x0BAa\x0AD\x0B6\x0B3\x0BD\x0C2?";
              
              //-----------------------------------------------------------------------------
              // SMS - Pozor, nevyuzivat zadne diakriticke znaky
              //-----------------------------------------------------------------------------
              
              byte code STR_SMS_SCALES[] =
                "SCALE \x0"
                "VESY ";
              byte code STR_SMS_DAY[] =
                "DAY \x0"
                "DEN' ";
              byte code STR_SMS_FEMALE[] =
                "FEMALES: \x0"
                "SAMKY: ";
              byte code STR_SMS_MALE[] =
                "MALES: \x0"
                "SAMCY: ";
              byte code STR_SMS_CNT[] =
                "Cnt \x0"
                "SCHET ";
              byte code STR_SMS_AVG[] =
                "Avg \x0"
                "SR ";
              byte code STR_SMS_GAIN[] =
                "Gain \x0"
                "ROST ";
              byte code STR_SMS_SIG[] =
                "Sig \x0"
                "SIG ";
              byte code STR_SMS_CV[] =
                "Cv \x0"
                "KV ";
              byte code STR_SMS_UNI[] =
                "Uni \x0"
                "UNI ";
              
              byte code STR_SMS_STOPPED[] =
                "STOPPED\x0"
                "OSTANOVLENO";
              byte code STR_SMS_WAITING[] =
                "WAITING\x0"
                "OZHIDANIE";
              byte code STR_SMS_NODATA[] =
                "NO DATA\x0"
                "NET DANNYH";
              
              // ---------------------------------------------------------------------------------------------
              // Editace korekcni krivky
              // ---------------------------------------------------------------------------------------------
              
              byte code STR_CORRECTION_USE[] =
                "Use correction curve?\x0"
                "\x0CCc\x0B9o\x0B6\x0C3\x0B2y\x0B4\x0BAe\x0FF\x0B5p\x0B3\x0AEy\x0C5 \x0B5oppe\x0B5\x0BD\x0B3\x0B3?";
              
              byte code STR_CORRECTION_DAY1[] =
                "Day 1:\x0FF\x0FF\x0FF\x0"
                "\x0C9e\x0B8\x0C3 1:\x0FF\x0FF\x0FF";
C51 COMPILER V5.50,  LANGRU                                                                28/06/12  15:55:48  PAGE 12  

              
              byte code STR_CORRECTION_DAY2[] =
                "Day 2:\x0FF\x0FF\x0FF\x0"
                "\x0C9e\x0B8\x0C3 2:\x0FF\x0FF\x0FF";
              
              byte code STR_CORRECTION_CORRECTION[] =
                "Correction:\x0FF\x0FF\x0FF\x0"
                "\x0CEoppe\x0B5\x0BD\x0B3\x0C6:\x0FF\x0FF\x0FF";
              
              
              #endif
C51 COMPILER V5.50,  LANGRU                                                                28/06/12  15:55:48  PAGE 13  

ASSEMBLY LISTING OF GENERATED OBJECT CODE




MODULE INFORMATION:   STATIC OVERLAYABLE
   CODE SIZE        =   ----    ----
   CONSTANT SIZE    =   ----    ----
   XDATA SIZE       =   ----    ----
   PDATA SIZE       =   ----    ----
   DATA SIZE        =   ----    ----
   IDATA SIZE       =   ----    ----
   BIT SIZE         =   ----    ----
END OF MODULE INFORMATION.


C51 COMPILATION COMPLETE.  0 WARNING(S),  0 ERROR(S)
