^D:\SOURCE\VISUAL STUDIO\HIDUSBTEST\HIDFLASHTEST\DEBUG\HID.OBJ|D:\SOURCE\VISUAL STUDIO\HIDUSBTEST\HIDFLASHTEST\DEBUG\HIDFLASHTEST.EXE.EMBED.MANIFEST.RES|D:\SOURCE\VISUAL STUDIO\HIDUSBTEST\HIDFLASHTEST\DEBUG\MAIN.OBJ|D:\SOURCE\VISUAL STUDIO\HIDUSBTEST\HIDFLASHTEST\DEBUG\PERFORMANCE.OBJ|D:\SOURCE\VISUAL STUDIO\HIDUSBTEST\HIDFLASHTEST\DEBUG\USBBASE.OBJ
/ERRORREPORT:PROMPT /OUT:"D:\SOURCE\Visual Studio\HIDUsbTest\Debug\HIDFlashTest.exe" /INCREMENTAL /NOLOGO ..\Library\USB\HID\HID.lib ..\Library\USB\setupapi.lib kernel32.lib user32.lib gdi32.lib winspool.lib comdlg32.lib advapi32.lib shell32.lib ole32.lib oleaut32.lib uuid.lib odbc32.lib odbccp32.lib /MANIFEST /ManifestFile:"Debug\HIDFlashTest.exe.intermediate.manifest" /MANIFESTUAC:"level='asInvoker' uiAccess='false'" /DEBUG /PDB:"D:\SOURCE\Visual Studio\HIDUsbTest\Debug\HIDFlashTest.pdb" /SUBSYSTEM:CONSOLE /TLBID:1 /DYNAMICBASE /NXCOMPAT /IMPLIB:"D:\SOURCE\Visual Studio\HIDUsbTest\Debug\HIDFlashTest.lib" /MACHINE:X86 Debug\HIDFlashTest.exe.embed.manifest.res
Debug\Hid.obj
Debug\Main.obj
Debug\Performance.obj
Debug\UsbBase.obj
