C51 COMPILER V5.50,  MB                                                                    20/07/12  15:15:09  PAGE 1   


DOS C51 COMPILER V5.50, COMPILATION OF MODULE MB
OBJECT MODULE PLACED IN ..\MODULY\MODBUS\MB.OBJ
COMPILER INVOKED BY: E:\C51_V5.5\BIN\C51.EXE ..\MODULY\MODBUS\MB.C51 CD DB

stmt level    source

   1          //*****************************************************************************
   2          //
   3          //   MB.c        Modbus serial communication
   4          //   Version 1.0 (c) VymOs
   5          //
   6          //*****************************************************************************
   7          
   8          #include "..\inc\MB.h"
   9          #include "..\inc\MBPacket.h"      // packet level
  10          #include "..\inc\MBCb.h"          // user callbacks
  11          #include "..\inc\MBPdu.h"         // PDU protocol
  12          #include "..\inc\MBPkt.h"         // Packet structure
  13          #include "..\inc\MBCom.h"         // RS232
  14          #include <string.h>               // memset
  15          
  16          #ifdef MB_ENABLE_DISCRETE
                 #include "MBRDiscr.h"   // funkce pro skupinu DISCRETE
              #endif
  19          #ifdef MB_ENABLE_COILS
                 #include "MBRCoil.h"    // funkce pro skupinu COILS
              #endif
  22          #ifdef MB_ENABLE_INPUT_REGISTERS
                 #include "MBRInReg.h"   // funkce pro skupinu INPUT REGISTERS
              #endif
  25          #ifdef MB_ENABLE_REGISTERS
  26             #include "MBRRegs.h"    // funkce pro skupinu HOLDING REGISTERS
  27          #endif
  28          #ifdef MB_ENABLE_FIFO
                 #include "MBRFifo.h"    // funkce pro cteni FIFO registers
              #endif
  31          
  32          //#define __DEBUG__
  33          
  34          #ifdef __DEBUG__
                 #include "..\inc\conio.h"
                 #define Trace( ch)   DisplayGotoRC( 7, 15); putchar( ch);
              #else
  38             #define Trace( ch)
  39          #endif
  40          
  41          // citac chyb komunikace :
  42          TMBComStatus xdata Status;
  43          
  44          static byte xdata FunctionCode;        // kod provadene operace
  45          
  46          // Lokalni funkce :
  47          
  48          static void ClearStatus( void);
  49          // Resetuje citace paketu a kontext komunikace
  50          
  51          static TYesNo RxPacket( void);
  52          // Zpracuje prijaty paket, vraci YES je-li v poradku
  53          
  54          #ifdef MB_ENABLE_EXCEPTION_STATUS
                 static void ExceptionStatus( void);
                 // Vrati stav vyjimek
              #endif // MB_ENABLE_EXCEPTION_STATUS
  58          
  59          #ifdef MB_ENABLE_DIAGNOSTIC
C51 COMPILER V5.50,  MB                                                                    20/07/12  15:15:09  PAGE 2   

                 static void Diagnostic( word SubFunction, word Data);
                 // Diagnosticke funkce
              #endif // MB_ENABLE_DIAGNOSTIC
  63          
  64          #ifdef MB_ENABLE_COM_EVENT
                 static void ComEventCounter( void);
                 // Pocet zpracovanych zprav
              
                 static void ComEventLog( void);
                 // Vrati event log
              #endif // MB_ENABLE_COM_EVENT
  71          
  72          #ifdef MB_ENABLE_SLAVE_ID
                 static void SlaveId( void);
                 // Vrati identifikaci zarizeni
              #endif // MB_ENABLE_SLAVE_ID
  76          
  77          #ifdef MB_ENABLE_IDENTIFICATION
              static void Identification( void);
                 // Vrati identifikaci zarizeni
              #endif // MB_ENABLE_IDENTIFICATION
  81          
  82          
  83          //-----------------------------------------------------------------------------
  84          // Inicializace
  85          //-----------------------------------------------------------------------------
  86          
  87          void MBInitialize( void)
  88          // Inicializace
  89          {
  90   1      word Baud;
  91   1      byte Parity;
  92   1      word Timeout;
  93   1      byte Mode;
  94   1      
  95   1         Baud    = MBCGetBaud();
  96   1         Parity  = MBCGetParity();
  97   1         Timeout = MBCGetTimeout();
  98   1      #ifndef MB_FIXED_MODE
  99   1         Mode    = MBCGetMode();
 100   1      #else
                 Mode    = 0;        // don't care
              #endif
 103   1         MBSetMode( Baud, Parity, Timeout, Mode);
 104   1      #ifdef COM_TX_SPACE
 105   1         MBSetTxSpace( MBCGetTxSpace());
 106   1      #endif // COM_TX_SPACE
 107   1         ClearStatus();
 108   1      } // MBInitialize
 109          
 110          //-----------------------------------------------------------------------------
 111          // Exec
 112          //-----------------------------------------------------------------------------
 113          
 114          void MBExecute( void)
 115          // Automat protokolu, volat co nejcasteji
 116          {
 117   1         switch( ComStatus){
 118   2            case COM_STATUS_STOPPED :
 119   2               // zastaveno - stav po inicializaci
 120   2               Trace( '-');
 121   2               ComRxStart();                 // zahajit prijem
 122   2               break;
 123   2            case COM_STATUS_RX_RUNNING :
 124   2               // ceka se na data
 125   2               Trace( 'R');
C51 COMPILER V5.50,  MB                                                                    20/07/12  15:15:09  PAGE 3   

 126   2               break;                        // ceka na Rx data
 127   2            case COM_STATUS_RX_PARITY :
 128   2               // paket s chybou parity
 129   2               Trace( 'P');
 130   2               Status.ErrorCount++;          // vadny paket
 131   2               ComRxStart();                 // zahajit prijem
 132   2               break;
 133   2            case COM_STATUS_RX_OVERRUN :
 134   2               // paket s chybou prebehu
 135   2               Trace( 'O');
 136   2               Status.OverrunCount++;        // prebeh
 137   2               ComRxStart();                 // zahajit prijem
 138   2               break;
 139   2            case COM_STATUS_RX_DONE :
 140   2               // dokoncen ASCII paket
 141   2            case COM_STATUS_RX_TIMEOUT :
 142   2               // RTU dokoncen paket
 143   2               Trace( '+');
 144   2               if( !RxPacket()){             // zpracovani paketu
 145   3                  ComRxStart();              // vadny paket, nacti dalsi
 146   3               }
 147   2               break;
 148   2            case COM_STATUS_TX_RUNNING :
 149   2               Trace( 'T');
 150   2               break;                        // ceka na dokonceni Tx
 151   2            default :
 152   2               Trace( '?');
 153   2               break;
 154   2         }
 155   1      } // MBExecute
 156          
 157          //-----------------------------------------------------------------------------
 158          // Exception
 159          //-----------------------------------------------------------------------------
 160          
 161          void MBException( byte Code)
 162          // Zapise do bufferu chybovy paket
 163          {
 164   1         MBWriteAddress( MBCGetOwnAddress());
 165   1         MBWriteByte( FunctionCode | 0x80);
 166   1         MBWriteByte( Code);
 167   1         MBWriteCrc();
 168   1         Status.ExceptionCount++;
 169   1         Status.ExceptionStatus |= (1 << Code);
 170   1         Status.ComEventCount--;             // nezpracovana zprava
 171   1      } // MBException
 172          
 173          //-----------------------------------------------------------------------------
 174          // Function code
 175          //-----------------------------------------------------------------------------
 176          
 177          byte MBGetFunctionCode( void)
 178          // Vrati funkcni kod posledniho PDU
 179          {
 180   1         return( FunctionCode);
 181   1      } // MBGetFunctionCode
 182          
 183          //-----------------------------------------------------------------------------
 184          // Rx paket
 185          //-----------------------------------------------------------------------------
 186          
 187          static TYesNo RxPacket( void)
 188          // Zpracuje prijaty paket
 189          {
 190   1      TMBPdu *Pdu;
 191   1      word    Size;
C51 COMPILER V5.50,  MB                                                                    20/07/12  15:15:09  PAGE 4   

 192   1      byte    IsBroadcast;
 193   1      byte    Address;
 194   1      
 195   1         if( !MBReceive( (void **)&Pdu, &Size)){
 196   2            Status.ErrorCount++;             // vadny paket
 197   2            return( NO);
 198   2         }
 199   1         Status.TotalCount++;                // dobry paket
 200   1         Address = MBGetAddress();
 201   1         IsBroadcast = Address == MB_BROADCAST_ADDRESS;
 202   1         if( Address > MB_MAX_ADDRESS){
 203   2            Status.ErrorCount++;             // vadny paket
 204   2            return( NO);
 205   2         }
 206   1         if( !IsBroadcast && Address != MBCGetOwnAddress()){
 207   2            return( NO);                     // jine zarizeni
 208   2         }
 209   1         Status.MessageCount++;              // zprava pro toto zarizeni
 210   1         Status.ComEventCount++;             // pocet zpracovanych zprav
 211   1         // Function codes :
 212   1         FunctionCode = Pdu->Function;
 213   1         switch( FunctionCode){
 214   2      #ifdef MB_ENABLE_DISCRETE
                    case MBF_READ_DISCRETE :
                       if( Size != sizeof( TReadDiscrete)){
                          MBException( MBEX_SLAVE_DEVICE_FAILURE);
                          break;
                       }
                       MBRReadDiscrete( MBGetWord( Pdu->ReadDiscrete.Address), MBGetWord( Pdu->ReadDiscrete.Count));
                       break;
              #endif // MB_ENABLE_DISCRETE
 223   2      #ifdef MB_ENABLE_COILS
                    case MBF_READ_COILS :
                       if( Size != sizeof( TReadCoils)){
                          MBException( MBEX_SLAVE_DEVICE_FAILURE);
                          break;
                       }
                       MBRReadCoils( MBGetWord( Pdu->ReadCoils.Address), MBGetWord( Pdu->ReadCoils.Count));
                       break;
              
                    case MBF_WRITE_SINGLE_COIL :
                       if( Size != sizeof( TWriteSingleCoil)){
                          MBException( MBEX_SLAVE_DEVICE_FAILURE);
                          break;
                       }
                       MBRWriteSingleCoil( MBGetWord( Pdu->WriteSingleCoil.Address), MBGetWord( Pdu->WriteSingleCoil.Val
             -ue));
                       break;
              
                    case MBF_WRITE_MULTIPLE_COILS :
                       if( Pdu->WriteCoils.ByteCount !=  MBBitsToBytes( Pdu->WriteCoils.Count) ||
                           Size != SizeofTWriteCoils() + Pdu->WriteCoils.ByteCount){
                          MBException( MBEX_SLAVE_DEVICE_FAILURE);
                          break;
                       }
                       MBRWriteCoils( MBGetWord( Pdu->WriteCoils.Address), MBGetWord( Pdu->WriteCoils.Count), Pdu->Write
             -Coils.Data);
                       break;
              #endif // MB_ENABLE_COILS
 249   2      #ifdef MB_ENABLE_INPUT_REGISTERS
                    case MBF_READ_INPUT_REGISTERS :
                       if( Size != sizeof( TReadInputRegisters)){
                          MBException( MBEX_SLAVE_DEVICE_FAILURE);
                          break;
                       }
                       MBRReadInputRegisters( MBGetWord( Pdu->ReadInputRegisters.Address), MBGetWord( Pdu->ReadInputRegi
C51 COMPILER V5.50,  MB                                                                    20/07/12  15:15:09  PAGE 5   

             -sters.Count));
                       break;
              #endif // MB_ENABLE_INPUT_REGISTERS
 258   2      #ifdef MB_ENABLE_REGISTERS
 259   2            case MBF_READ_HOLDING_REGISTERS :
 260   2               if( Size != sizeof( TReadRegisters)){
 261   3                  MBException( MBEX_SLAVE_DEVICE_FAILURE);
 262   3                  break;
 263   3               }
 264   2               MBRReadRegisters( MBGetWord( Pdu->ReadRegisters.Address), MBGetWord( Pdu->ReadRegisters.Count));
 265   2               break;
 266   2      
 267   2            case MBF_WRITE_MULTIPLE_REGISTERS :
 268   2               if( Pdu->WriteRegisters.ByteCount !=  2 * Pdu->WriteRegisters.Count ||
 269   2                   Size != SizeofTWriteRegisters() + Pdu->WriteRegisters.ByteCount){
 270   3                  MBException( MBEX_SLAVE_DEVICE_FAILURE);
 271   3                  break;
 272   3               }
 273   2               MBRWriteRegisters( MBGetWord( Pdu->WriteRegisters.Address), MBGetWord( Pdu->WriteRegisters.Count)
             -, Pdu->WriteRegisters.Data);
 274   2               break;
 275   2      
 276   2            case MBF_WRITE_SINGLE_REGISTER :
 277   2               if( Size != sizeof( TWriteSingleRegister)){
 278   3                  MBException( MBEX_SLAVE_DEVICE_FAILURE);
 279   3                  break;
 280   3               }
 281   2               MBRWriteSingleRegister( MBGetWord( Pdu->WriteSingleRegister.Address), MBGetWord( Pdu->WriteSingle
             -Register.Value));
 282   2               break;
 283   2      
 284   2            case MBF_MASK_WRITE_REGISTER :
 285   2               if( Size != sizeof( TMaskWriteRegister)){
 286   3                  MBException( MBEX_SLAVE_DEVICE_FAILURE);
 287   3                  break;
 288   3               }
 289   2               MBRMaskWriteRegister( MBGetWord( Pdu->MaskWriteRegister.Address), MBGetWord( Pdu->MaskWriteRegist
             -er.AndMask),
 290   2                                     MBGetWord( Pdu->MaskWriteRegister.OrMask));
 291   2               break;
 292   2      
 293   2            case MBF_RW_MULTIPLE_REGISTERS :
 294   2               if( Pdu->ReadWriteRegisters.WriteByteCount !=  2 * Pdu->ReadWriteRegisters.WriteCount ||
 295   2                   Size != SizeofTReadWriteRegisters() + Pdu->ReadWriteRegisters.WriteByteCount){
 296   3                  MBException( MBEX_SLAVE_DEVICE_FAILURE);
 297   3                  break;
 298   3               }
 299   2               MBRReadWriteRegisters( MBGetWord( Pdu->ReadWriteRegisters.ReadAddress), MBGetWord( Pdu->ReadWrite
             -Registers.ReadCount),
 300   2                                                 MBGetWord( Pdu->ReadWriteRegisters.WriteAddress), MBGetWord( Pd
             -u->ReadWriteRegisters.WriteCount),
 301   2                                                 Pdu->ReadWriteRegisters.Data);
 302   2               break;
 303   2      #endif // MB_ENABLE_REGISTERS
 304   2      #ifdef MB_ENABLE_FIFO
                    case MBF_READ_FIFO_QUEUE :
                       if( Size != sizeof( TReadFifoQueue)){
                          MBException( MBEX_SLAVE_DEVICE_FAILURE);
                          break;
                       }
                       MBRReadFifoQueue( MBGetWord( Pdu->ReadFifoQueue.Address));
                       break;
              #endif // MB_ENABLE_FIFO
 313   2      #ifdef MB_ENABLE_EXCEPTION_STATUS
                    case MBF_READ_EXCEPTION_STATUS :
                       if( Size != sizeof( TExceptionStatus)){
C51 COMPILER V5.50,  MB                                                                    20/07/12  15:15:09  PAGE 6   

                          MBException( MBEX_SLAVE_DEVICE_FAILURE);
                          break;
                       }
                       ExceptionStatus();
                       break;
              #endif // MB_ENABLE_EXCEPTION_STATUS
 322   2      #ifdef MB_ENABLE_DIAGNOSTIC
                    case MBF_DIAGNOSTIC :
                       if( Size != sizeof( TDiagnostic)){
                          MBException( MBEX_SLAVE_DEVICE_FAILURE);
                          break;
                       }
                       Diagnostic( MBGetWord( Pdu->Diagnostic.SubFunction), MBGetWord( Pdu->Diagnostic.Data));
                       break;
              #endif // MB_ENABLE_DIAGNOSTIC
 331   2      #ifdef MB_ENABLE_COM_EVENT
                    case MBF_GET_COM_EVENT_COUNTER :
                       if( Size != sizeof( TComEventCounter)){
                          MBException( MBEX_SLAVE_DEVICE_FAILURE);
                          break;
                       }
                       Status.ComEventCount--;       // nezapocitana zprava
                       ComEventCounter();
                       break;
              
                    case MBF_GET_COM_EVENT_LOG :
                       if( Size != sizeof( TComEventLog)){
                          MBException( MBEX_SLAVE_DEVICE_FAILURE);
                          break;
                       }
                       Status.ComEventCount--;       // nezapocitana zprava
                       ComEventLog();
                       break;
              #endif // MB_ENABLE_COM_EVENT
 350   2      #ifdef MB_ENABLE_SLAVE_ID
                    case MBF_REPORT_SLAVE_ID :
                       if( Size != sizeof( TSlaveId)){
                          MBException( MBEX_SLAVE_DEVICE_FAILURE);
                          break;
                       }
                       SlaveId();
                       break;
              #endif // MB_ENABLE_SLAVE_ID
 359   2      #ifdef MB_ENABLE_IDENTIFICATION
                    case MBF_READ_DEVICE_ID :
                       if( Size != sizeof( TIdentification)){
                          MBException( MBEX_SLAVE_DEVICE_FAILURE);
                          break;
                       }
                       if( Pdu->Identification.MEIType != MB_MEI_DEVICE_IDENTIFICATION){
                          // jina informace nez identifikace zarizeni
                          MBException( MBEX_ILLEGAL_FUNCTION);
                          break;
                       }
                       if( Pdu->Identification.IdCode != MEI_BASIC_IDENTIFICATION){
                          // rozsirena identifikace zarizeni
                          MBException( MBEX_ILLEGAL_FUNCTION);
                          break;
                       }
                       if( Pdu->Identification.ObjectId != MEI_OBJECT_VENDOR){
                          // podporujeme jen uplnou informaci
                          MBException( MBEX_ILLEGAL_FUNCTION);
                          break;
                       }
                       Identification();
                       break;
C51 COMPILER V5.50,  MB                                                                    20/07/12  15:15:09  PAGE 7   

              #endif // MB_ENABLE_IDENTIFICATION
 383   2      
 384   2      //-----------------------------------------------------------------------------
 385   2            default :
 386   2               MBException( MBEX_ILLEGAL_FUNCTION);
 387   2               break;
 388   2         }
 389   1         if( IsBroadcast){
 390   2            Status.NoResponseCount++;
 391   2            return( NO);                     // broadcast - nevysilej, zahaj novy prijem
 392   2         }
 393   1         ComTxStart();                       // vysli paket
 394   1         return( YES);
 395   1      } // RxPacket
 396          
 397          //-----------------------------------------------------------------------------
 398          // Clear
 399          //-----------------------------------------------------------------------------
 400          
 401          static void ClearStatus( void)
 402          // Resetuje citace paketu a kontext komunikace
 403          {
 404   1         memset( &Status, 0, sizeof( Status));  // clear counters
 405   1      } // ClearStatus
 406          
 407          #ifdef MB_ENABLE_EXCEPTION_STATUS
              //-----------------------------------------------------------------------------
              // Exception status
              //-----------------------------------------------------------------------------
              static void ExceptionStatus( void)
              // Vrati stav vyjimek
              {
                 MBWriteAddress( MBCGetOwnAddress());
                 MBWriteByte( MBGetFunctionCode());
                 MBWriteByte( 0);                    // Exception Status = always ok
                 MBWriteCrc();
              } // ExceptionStatus
              #endif // MB_ENABLE_EXCEPTION_STATUS
 420          
 421          #ifdef MB_ENABLE_DIAGNOSTIC
              //-----------------------------------------------------------------------------
              // Diagnostic
              //-----------------------------------------------------------------------------
              
              static void Diagnostic( word SubFunction, word Data)
              // Diagnosticke funkce
              {
                 switch( SubFunction){
                    case MBD_RETURN_QUERY_DATA :
                       break;                        // data echo
                    case MBD_RESTART_COMMUNICATION :
                       MBInitialize();               // inicializace, mazani stavu
                       break;
                    case MBD_RETURN_DIAGNOSTIC_REGISTER :
                       Data = 0;                     // no diagnostic register
                       break;
                    case MBD_CHANGE_DELIMITER :
                       MBException( MBEX_ILLEGAL_FUNCTION);
                       return;
                    case MBD_LISTEN_ONLY :
                       MBException( MBEX_ILLEGAL_FUNCTION);
                       return;
                    case MBD_CLEAR_STATUS :
                       ClearStatus();
                       break;
                    case MBD_TOTAL_COUNT :
C51 COMPILER V5.50,  MB                                                                    20/07/12  15:15:09  PAGE 8   

                       Data = Status.TotalCount;
                       break;
                    case MBD_ERROR_COUNT :
                       Data = Status.ErrorCount;
                       break;
                    case MBD_EXCEPTION_COUNT :
                       Data = Status.ExceptionCount;
                       break;
                    case MBD_MESSAGE_COUNT :
                       Data = Status.MessageCount;
                       break;
                    case MBD_NO_RESPONSE_COUNT :
                       Data = Status.NoResponseCount;
                       break;
                    case MBD_NAK_COUNT :
                       Data = Status.NakCount;
                       break;
                    case MBD_BUSY_COUNT :
                       Data = Status.BusyCount;
                       break;
                    case MBD_OVERRUN_COUNT :
                       Data = Status.OverrunCount;
                       break;
                    case MBD_CLEAR_OVERRUN_COUNT :
                       Status.OverrunCount    = 0;
                       Status.ExceptionStatus = 0;
                       break;
                    default :
                       MBException( MBEX_ILLEGAL_FUNCTION);
                       return;
                 }
                 MBWriteAddress( MBCGetOwnAddress());
                 MBWriteByte( MBGetFunctionCode());
                 MBWriteWord( SubFunction);
                 MBWriteWord( Data);
                 MBWriteCrc();
              } // Diagnostic
              #endif // MB_ENABLE_DIAGNOSTIC
 486          
 487          #ifdef MB_ENABLE_COM_EVENT
              //-----------------------------------------------------------------------------
              // Com Event Counter
              //-----------------------------------------------------------------------------
              
              static void ComEventCounter( void)
              // Pocet zpracovanych zprav
              {
                 MBWriteAddress( MBCGetOwnAddress());
                 MBWriteByte( MBGetFunctionCode());
                 MBWriteWord( 0);                    // Status = always ready
                 MBWriteWord( Status.ComEventCount); // Event Counter
                 MBWriteCrc();
              } // ComEventCounter
              
              //-----------------------------------------------------------------------------
              // Com Event Log
              //-----------------------------------------------------------------------------
              
              static void ComEventLog( void)
              // Vrati event log
              {
                 MBWriteAddress( MBCGetOwnAddress());
                 MBWriteByte( MBGetFunctionCode());
                 MBWriteByte( 6);                    // ByteCount (6 + log bytes)
                 MBWriteWord( 0);                    // Status = always ready
                 MBWriteWord( Status.ComEventCount); // Event Counter
C51 COMPILER V5.50,  MB                                                                    20/07/12  15:15:09  PAGE 9   

                 MBWriteWord( Status.TotalCount);    // Total (Message) Counter
                 // Log = always empty
                 MBWriteCrc();
              } // ComEventLog
              #endif // MB_ENABLE_COM_EVENT
 519          
 520          #ifdef MB_ENABLE_SLAVE_ID
              //-----------------------------------------------------------------------------
              // Slave ID
              //-----------------------------------------------------------------------------
              
              static void SlaveId( void)
              // Vrati identifikaci zarizeni
              {
                 MBWriteAddress( MBCGetOwnAddress());
                 MBWriteByte( MBGetFunctionCode());
                 MBWriteByte( sizeof( TSlaveIdReply) - 2);   // bez function code a byte count
                 MBWriteWord( MBCGetSlaveId());              // Slave ID
                 MBWriteByte( 0xFF);                         // Run indicator (ON)
                 MBWriteByte( 'V');                          // Additional data
                 MBWriteByte( 'E');
                 MBWriteByte( 'I');
                 MBWriteByte( 'T');
                 MBWriteCrc();
              } // SlaveId
              #endif // MB_ENABLE_SLAVE_ID
 540          
 541          #ifdef MB_ENABLE_IDENTIFICATION
              //-----------------------------------------------------------------------------
              // Identification
              //-----------------------------------------------------------------------------
              
              static char code VendorName[]     = MB_VENDOR_NAME;
              static char code ProductCode[]    = MB_PRODUCT_CODE;
              static char code RevisionString[] = MB_REVISION_STRING;
              
              static void Identification( void)
              // Vrati identifikaci zarizeni
              {
              byte i;
              byte Count;
              
                 MBWriteAddress( MBCGetOwnAddress());
                 MBWriteByte( MBGetFunctionCode());
                 MBWriteByte( MB_MEI_DEVICE_IDENTIFICATION);   // MEIType
                 MBWriteByte( MEI_BASIC_IDENTIFICATION);       // IdCode
                 MBWriteByte( CL_BASIC_STREAM);                // ConformityLevel
                 MBWriteByte( 0);                              // MoreFollows
                 MBWriteByte( 0);                              // NextObjectId
                 MBWriteByte( 3);                              // NumberOfObjects
                 // object 0 - vendor :
                 MBWriteByte( MEI_OBJECT_VENDOR);              // Id objektu
                 Count = sizeof( VendorName) - 1;              // bez koncove nuly
                 MBWriteByte( Count);                          // delka objektu
                 for( i = 0; i < Count; i++){
                    MBWriteByte( VendorName[ i]);
                 }
                 // object 1 - product :
                 MBWriteByte( MEI_OBJECT_PRODUCT_CODE);        // Id objektu
                 Count = sizeof( ProductCode) - 1;             // bez koncove nuly
                 MBWriteByte( Count);                          // delka objektu
                 for( i = 0; i < Count; i++){
                    MBWriteByte( ProductCode[ i]);
                 }
                 // object 2 - revision :
                 MBWriteByte( MEI_OBJECT_REVISION);            // Id objektu
C51 COMPILER V5.50,  MB                                                                    20/07/12  15:15:09  PAGE 10  

                 Count = sizeof( RevisionString) - 1;          // bez koncove nuly
                 MBWriteByte( Count);                          // delka objektu
                 for( i = 0; i < Count; i++){
                    MBWriteByte( RevisionString[ i]);
                 }
                 MBWriteCrc();
              } // Identification
              #endif // MB_ENABLE_IDENTIFICATION
C51 COMPILER V5.50,  MB                                                                    20/07/12  15:15:09  PAGE 11  

ASSEMBLY LISTING OF GENERATED OBJECT CODE


             ; FUNCTION MBInitialize (BEGIN)
                                           ; SOURCE LINE # 87
                                           ; SOURCE LINE # 89
                                           ; SOURCE LINE # 95
0000 120000  E     LCALL   MBCGetBaud
0003 8E00    R     MOV     Baud,R6
0005 8F00    R     MOV     Baud+01H,R7
                                           ; SOURCE LINE # 96
0007 120000  E     LCALL   MBCGetParity
000A 8F00    R     MOV     Parity,R7
                                           ; SOURCE LINE # 97
000C 120000  E     LCALL   MBCGetTimeout
000F 8E00    R     MOV     Timeout,R6
0011 8F00    R     MOV     Timeout+01H,R7
                                           ; SOURCE LINE # 99
0013 120000  E     LCALL   MBCGetMode
;---- Variable 'Mode' assigned to Register 'R4' ----
0016 AC07          MOV     R4,AR7
                                           ; SOURCE LINE # 103
0018 AF00    R     MOV     R7,Baud+01H
001A AE00    R     MOV     R6,Baud
001C AD00    R     MOV     R5,Parity
001E AB00    R     MOV     R3,Timeout+01H
0020 AA00    R     MOV     R2,Timeout
0022 8C00    E     MOV     ?_MBSetMode?BYTE+05H,R4
0024 120000  E     LCALL   _MBSetMode
                                           ; SOURCE LINE # 105
0027 120000  E     LCALL   MBCGetTxSpace
002A 120000  E     LCALL   _ComSetTxSpace
                                           ; SOURCE LINE # 107
002D 120000  R     LCALL   ClearStatus
                                           ; SOURCE LINE # 108
0030 22            RET     
             ; FUNCTION MBInitialize (END)

             ; FUNCTION MBExecute (BEGIN)
                                           ; SOURCE LINE # 114
                                           ; SOURCE LINE # 116
                                           ; SOURCE LINE # 117
0000 AF00    E     MOV     R7,ComStatus
0002 EF            MOV     A,R7
0003 24FE          ADD     A,#0FEH
0005 6035          JZ      ?C0008
0007 14            DEC     A
0008 600E          JZ      ?C0005
000A 14            DEC     A
000B 601D          JZ      ?C0006
000D 14            DEC     A
000E 602C          JZ      ?C0008
0010 2405          ADD     A,#05H
0012 7030          JNZ     ?C0012
                                           ; SOURCE LINE # 118
0014         ?C0003:
                                           ; SOURCE LINE # 121
0014 120000  E     LCALL   ComRxStart
                                           ; SOURCE LINE # 122
0017 22            RET     
                                           ; SOURCE LINE # 123
                                           ; SOURCE LINE # 126
                                           ; SOURCE LINE # 127
0018         ?C0005:
                                           ; SOURCE LINE # 130
0018 900000  R     MOV     DPTR,#Status+05H
C51 COMPILER V5.50,  MB                                                                    20/07/12  15:15:09  PAGE 12  

001B E0            MOVX    A,@DPTR
001C 04            INC     A
001D F0            MOVX    @DPTR,A
001E 7006          JNZ     ?C0037
0020 900000  R     MOV     DPTR,#Status+04H
0023 E0            MOVX    A,@DPTR
0024 04            INC     A
0025 F0            MOVX    @DPTR,A
0026         ?C0037:
                                           ; SOURCE LINE # 131
0026 120000  E     LCALL   ComRxStart
                                           ; SOURCE LINE # 132
0029 22            RET     
                                           ; SOURCE LINE # 133
002A         ?C0006:
                                           ; SOURCE LINE # 136
002A 900000  R     MOV     DPTR,#Status+011H
002D E0            MOVX    A,@DPTR
002E 04            INC     A
002F F0            MOVX    @DPTR,A
0030 7006          JNZ     ?C0038
0032 900000  R     MOV     DPTR,#Status+010H
0035 E0            MOVX    A,@DPTR
0036 04            INC     A
0037 F0            MOVX    @DPTR,A
0038         ?C0038:
                                           ; SOURCE LINE # 137
0038 120000  E     LCALL   ComRxStart
                                           ; SOURCE LINE # 138
003B 22            RET     
                                           ; SOURCE LINE # 139
                                           ; SOURCE LINE # 141
003C         ?C0008:
                                           ; SOURCE LINE # 144
003C 120000  R     LCALL   RxPacket
003F 4003          JC      ?C0012
                                           ; SOURCE LINE # 145
0041 120000  E     LCALL   ComRxStart
                                           ; SOURCE LINE # 146
                                           ; SOURCE LINE # 147
                                           ; SOURCE LINE # 148
                                           ; SOURCE LINE # 150
                                           ; SOURCE LINE # 151
                                           ; SOURCE LINE # 153
                                           ; SOURCE LINE # 154
                                           ; SOURCE LINE # 155
0044         ?C0012:
0044 22            RET     
             ; FUNCTION MBExecute (END)

             ; FUNCTION _MBException (BEGIN)
0000 8F00    R     MOV     Code,R7
                                           ; SOURCE LINE # 161
                                           ; SOURCE LINE # 163
                                           ; SOURCE LINE # 164
0002 120000  E     LCALL   MBCGetOwnAddress
0005 120000  E     LCALL   _MBWriteAddress
                                           ; SOURCE LINE # 165
0008 900000  R     MOV     DPTR,#FunctionCode
000B E0            MOVX    A,@DPTR
000C 4480          ORL     A,#080H
000E FF            MOV     R7,A
000F 120000  E     LCALL   _MBWriteByte
                                           ; SOURCE LINE # 166
0012 AF00    R     MOV     R7,Code
0014 120000  E     LCALL   _MBWriteByte
C51 COMPILER V5.50,  MB                                                                    20/07/12  15:15:09  PAGE 13  

                                           ; SOURCE LINE # 167
0017 120000  E     LCALL   MBWriteCrc
                                           ; SOURCE LINE # 168
001A 900000  R     MOV     DPTR,#Status+07H
001D E0            MOVX    A,@DPTR
001E 04            INC     A
001F F0            MOVX    @DPTR,A
0020 7006          JNZ     ?C0039
0022 900000  R     MOV     DPTR,#Status+06H
0025 E0            MOVX    A,@DPTR
0026 04            INC     A
0027 F0            MOVX    @DPTR,A
0028         ?C0039:
                                           ; SOURCE LINE # 169
0028 7401          MOV     A,#01H
002A 7E00          MOV     R6,#00H
002C A800    R     MOV     R0,Code
002E 08            INC     R0
002F 8005          SJMP    ?C0041
0031         ?C0040:
0031 C3            CLR     C
0032 33            RLC     A
0033 CE            XCH     A,R6
0034 33            RLC     A
0035 CE            XCH     A,R6
0036         ?C0041:
0036 D8F9          DJNZ    R0,?C0040
0038 FF            MOV     R7,A
0039 900000  R     MOV     DPTR,#Status
003C E0            MOVX    A,@DPTR
003D 4E            ORL     A,R6
003E F0            MOVX    @DPTR,A
003F A3            INC     DPTR
0040 E0            MOVX    A,@DPTR
0041 4F            ORL     A,R7
0042 F0            MOVX    @DPTR,A
                                           ; SOURCE LINE # 170
0043 900000  R     MOV     DPTR,#Status+013H
0046 E0            MOVX    A,@DPTR
0047 24FF          ADD     A,#0FFH
0049 F0            MOVX    @DPTR,A
004A 900000  R     MOV     DPTR,#Status+012H
004D E0            MOVX    A,@DPTR
004E 34FF          ADDC    A,#0FFH
0050 F0            MOVX    @DPTR,A
                                           ; SOURCE LINE # 171
0051 22            RET     
             ; FUNCTION _MBException (END)

             ; FUNCTION MBGetFunctionCode (BEGIN)
                                           ; SOURCE LINE # 177
                                           ; SOURCE LINE # 179
                                           ; SOURCE LINE # 180
0000 900000  R     MOV     DPTR,#FunctionCode
0003 E0            MOVX    A,@DPTR
0004 FF            MOV     R7,A
                                           ; SOURCE LINE # 181
0005         ?C0014:
0005 22            RET     
             ; FUNCTION MBGetFunctionCode (END)

             ; FUNCTION RxPacket (BEGIN)
                                           ; SOURCE LINE # 187
                                           ; SOURCE LINE # 189
                                           ; SOURCE LINE # 195
0000 750000  E     MOV     ?_MBReceive?BYTE+03H,#00H
C51 COMPILER V5.50,  MB                                                                    20/07/12  15:15:09  PAGE 14  

0003 750000  R     MOV     ?_MBReceive?BYTE+04H,#HIGH Size
0006 750000  R     MOV     ?_MBReceive?BYTE+05H,#LOW Size
0009 7B00          MOV     R3,#00H
000B 7A00    R     MOV     R2,#HIGH Pdu
000D 7900    R     MOV     R1,#LOW Pdu
000F 120000  E     LCALL   _MBReceive
0012 4010          JC      ?C0015
                                           ; SOURCE LINE # 196
0014 900000  R     MOV     DPTR,#Status+05H
0017 E0            MOVX    A,@DPTR
0018 04            INC     A
0019 F0            MOVX    @DPTR,A
001A 7006          JNZ     ?C0042
001C 900000  R     MOV     DPTR,#Status+04H
001F E0            MOVX    A,@DPTR
0020 04            INC     A
0021 F0            MOVX    @DPTR,A
0022         ?C0042:
                                           ; SOURCE LINE # 197
0022 C3            CLR     C
0023 22            RET     
                                           ; SOURCE LINE # 198
0024         ?C0015:
                                           ; SOURCE LINE # 199
0024 900000  R     MOV     DPTR,#Status+03H
0027 E0            MOVX    A,@DPTR
0028 04            INC     A
0029 F0            MOVX    @DPTR,A
002A 7006          JNZ     ?C0043
002C 900000  R     MOV     DPTR,#Status+02H
002F E0            MOVX    A,@DPTR
0030 04            INC     A
0031 F0            MOVX    @DPTR,A
0032         ?C0043:
                                           ; SOURCE LINE # 200
0032 120000  E     LCALL   MBGetAddress
0035 8F00    R     MOV     Address,R7
                                           ; SOURCE LINE # 201
0037 E500    R     MOV     A,Address
0039 7004          JNZ     ?C0017
003B 7F01          MOV     R7,#01H
003D 8002          SJMP    ?C0018
003F         ?C0017:
003F 7F00          MOV     R7,#00H
0041         ?C0018:
0041 8F00    R     MOV     IsBroadcast,R7
                                           ; SOURCE LINE # 202
0043 E500    R     MOV     A,Address
0045 D3            SETB    C
0046 94F7          SUBB    A,#0F7H
0048 4010          JC      ?C0019
                                           ; SOURCE LINE # 203
004A 900000  R     MOV     DPTR,#Status+05H
004D E0            MOVX    A,@DPTR
004E 04            INC     A
004F F0            MOVX    @DPTR,A
0050 7006          JNZ     ?C0044
0052 900000  R     MOV     DPTR,#Status+04H
0055 E0            MOVX    A,@DPTR
0056 04            INC     A
0057 F0            MOVX    @DPTR,A
0058         ?C0044:
                                           ; SOURCE LINE # 204
0058 C3            CLR     C
0059 22            RET     
                                           ; SOURCE LINE # 205
C51 COMPILER V5.50,  MB                                                                    20/07/12  15:15:09  PAGE 15  

005A         ?C0019:
                                           ; SOURCE LINE # 206
005A E500    R     MOV     A,IsBroadcast
005C 700A          JNZ     ?C0020
005E 120000  E     LCALL   MBCGetOwnAddress
0061 EF            MOV     A,R7
0062 6500    R     XRL     A,Address
0064 6002          JZ      ?C0020
                                           ; SOURCE LINE # 207
0066 C3            CLR     C
0067 22            RET     
                                           ; SOURCE LINE # 208
0068         ?C0020:
                                           ; SOURCE LINE # 209
0068 900000  R     MOV     DPTR,#Status+09H
006B E0            MOVX    A,@DPTR
006C 04            INC     A
006D F0            MOVX    @DPTR,A
006E 7006          JNZ     ?C0045
0070 900000  R     MOV     DPTR,#Status+08H
0073 E0            MOVX    A,@DPTR
0074 04            INC     A
0075 F0            MOVX    @DPTR,A
0076         ?C0045:
                                           ; SOURCE LINE # 210
0076 900000  R     MOV     DPTR,#Status+013H
0079 E0            MOVX    A,@DPTR
007A 04            INC     A
007B F0            MOVX    @DPTR,A
007C 7006          JNZ     ?C0046
007E 900000  R     MOV     DPTR,#Status+012H
0081 E0            MOVX    A,@DPTR
0082 04            INC     A
0083 F0            MOVX    @DPTR,A
0084         ?C0046:
                                           ; SOURCE LINE # 212
0084 AB00    R     MOV     R3,Pdu
0086 AA00    R     MOV     R2,Pdu+01H
0088 A900    R     MOV     R1,Pdu+02H
008A 120000  E     LCALL   ?C?CLDPTR
008D 900000  R     MOV     DPTR,#FunctionCode
0090 F0            MOVX    @DPTR,A
                                           ; SOURCE LINE # 213
0091 24FA          ADD     A,#0FAH
0093 7003          JNZ     $ + 5H
0095 020000  R     LJMP    ?C0027
0098 24F6          ADD     A,#0F6H
009A 6042          JZ      ?C0024
009C 24FA          ADD     A,#0FAH
009E 7003          JNZ     $ + 5H
00A0 020000  R     LJMP    ?C0029
00A3 14            DEC     A
00A4 7003          JNZ     $ + 5H
00A6 020000  R     LJMP    ?C0031
00A9 2414          ADD     A,#014H
00AB 6003          JZ      $ + 5H
00AD 020000  R     LJMP    ?C0034
                                           ; SOURCE LINE # 259
00B0         ?C0022:
                                           ; SOURCE LINE # 260
00B0 E500    R     MOV     A,Size+01H
00B2 6405          XRL     A,#05H
00B4 4500    R     ORL     A,Size
00B6 6008          JZ      ?C0023
                                           ; SOURCE LINE # 261
00B8 7F04          MOV     R7,#04H
C51 COMPILER V5.50,  MB                                                                    20/07/12  15:15:09  PAGE 16  

00BA 120000  R     LCALL   _MBException
                                           ; SOURCE LINE # 262
00BD 020000  R     LJMP    ?C0021
                                           ; SOURCE LINE # 263
00C0         ?C0023:
                                           ; SOURCE LINE # 264
00C0 AB00    R     MOV     R3,Pdu
00C2 AA00    R     MOV     R2,Pdu+01H
00C4 A900    R     MOV     R1,Pdu+02H
00C6 900001        MOV     DPTR,#01H
00C9 120000  E     LCALL   ?C?ILDOPTR
00CC FF            MOV     R7,A
00CD AEF0          MOV     R6,B
00CF 900003        MOV     DPTR,#03H
00D2 120000  E     LCALL   ?C?ILDOPTR
00D5 FD            MOV     R5,A
00D6 ACF0          MOV     R4,B
00D8 120000  E     LCALL   _MBRReadRegisters
                                           ; SOURCE LINE # 265
00DB 020000  R     LJMP    ?C0021
                                           ; SOURCE LINE # 267
00DE         ?C0024:
                                           ; SOURCE LINE # 268
00DE AB00    R     MOV     R3,Pdu
00E0 AA00    R     MOV     R2,Pdu+01H
00E2 A900    R     MOV     R1,Pdu+02H
00E4 900003        MOV     DPTR,#03H
00E7 120000  E     LCALL   ?C?ILDOPTR
00EA 25E0          ADD     A,ACC
00EC FF            MOV     R7,A
00ED E5F0          MOV     A,B
00EF 33            RLC     A
00F0 FE            MOV     R6,A
00F1 900005        MOV     DPTR,#05H
00F4 120000  E     LCALL   ?C?CLDOPTR
00F7 FD            MOV     R5,A
00F8 7C00          MOV     R4,#00H
00FA B50715        CJNE    A,AR7,?C0026
00FD EC            MOV     A,R4
00FE B50611        CJNE    A,AR6,?C0026
0101 ED            MOV     A,R5
0102 2406          ADD     A,#06H
0104 FF            MOV     R7,A
0105 EC            MOV     A,R4
0106 33            RLC     A
0107 FE            MOV     R6,A
0108 EF            MOV     A,R7
0109 6500    R     XRL     A,Size+01H
010B 7003          JNZ     ?C0048
010D EE            MOV     A,R6
010E 6500    R     XRL     A,Size
0110         ?C0048:
0110 6008          JZ      ?C0025
0112         ?C0026:
                                           ; SOURCE LINE # 269
                                           ; SOURCE LINE # 270
0112 7F04          MOV     R7,#04H
0114 120000  R     LCALL   _MBException
                                           ; SOURCE LINE # 271
0117 020000  R     LJMP    ?C0021
                                           ; SOURCE LINE # 272
011A         ?C0025:
                                           ; SOURCE LINE # 273
011A AB00    R     MOV     R3,Pdu
011C AA00    R     MOV     R2,Pdu+01H
011E A900    R     MOV     R1,Pdu+02H
C51 COMPILER V5.50,  MB                                                                    20/07/12  15:15:09  PAGE 17  

0120 900001        MOV     DPTR,#01H
0123 120000  E     LCALL   ?C?ILDOPTR
0126 FF            MOV     R7,A
0127 AEF0          MOV     R6,B
0129 900003        MOV     DPTR,#03H
012C 120000  E     LCALL   ?C?ILDOPTR
012F FD            MOV     R5,A
0130 ACF0          MOV     R4,B
0132 E9            MOV     A,R1
0133 2406          ADD     A,#06H
0135 F9            MOV     R1,A
0136 E4            CLR     A
0137 3A            ADDC    A,R2
0138 FA            MOV     R2,A
0139 120000  E     LCALL   _MBRWriteRegisters
                                           ; SOURCE LINE # 274
013C 020000  R     LJMP    ?C0021
                                           ; SOURCE LINE # 276
013F         ?C0027:
                                           ; SOURCE LINE # 277
013F E500    R     MOV     A,Size+01H
0141 6405          XRL     A,#05H
0143 4500    R     ORL     A,Size
0145 6008          JZ      ?C0028
                                           ; SOURCE LINE # 278
0147 7F04          MOV     R7,#04H
0149 120000  R     LCALL   _MBException
                                           ; SOURCE LINE # 279
014C 020000  R     LJMP    ?C0021
                                           ; SOURCE LINE # 280
014F         ?C0028:
                                           ; SOURCE LINE # 281
014F AB00    R     MOV     R3,Pdu
0151 AA00    R     MOV     R2,Pdu+01H
0153 A900    R     MOV     R1,Pdu+02H
0155 900001        MOV     DPTR,#01H
0158 120000  E     LCALL   ?C?ILDOPTR
015B FF            MOV     R7,A
015C AEF0          MOV     R6,B
015E 900003        MOV     DPTR,#03H
0161 120000  E     LCALL   ?C?ILDOPTR
0164 FD            MOV     R5,A
0165 ACF0          MOV     R4,B
0167 120000  E     LCALL   _MBRWriteSingleRegister
                                           ; SOURCE LINE # 282
016A 020000  R     LJMP    ?C0021
                                           ; SOURCE LINE # 284
016D         ?C0029:
                                           ; SOURCE LINE # 285
016D E500    R     MOV     A,Size+01H
016F 6407          XRL     A,#07H
0171 4500    R     ORL     A,Size
0173 6008          JZ      ?C0030
                                           ; SOURCE LINE # 286
0175 7F04          MOV     R7,#04H
0177 120000  R     LCALL   _MBException
                                           ; SOURCE LINE # 287
017A 020000  R     LJMP    ?C0021
                                           ; SOURCE LINE # 288
017D         ?C0030:
                                           ; SOURCE LINE # 289
017D AB00    R     MOV     R3,Pdu
017F AA00    R     MOV     R2,Pdu+01H
0181 A900    R     MOV     R1,Pdu+02H
0183 900001        MOV     DPTR,#01H
0186 120000  E     LCALL   ?C?ILDOPTR
C51 COMPILER V5.50,  MB                                                                    20/07/12  15:15:09  PAGE 18  

0189 FF            MOV     R7,A
018A AEF0          MOV     R6,B
018C 900003        MOV     DPTR,#03H
018F 120000  E     LCALL   ?C?ILDOPTR
0192 FD            MOV     R5,A
0193 ACF0          MOV     R4,B
0195 900005        MOV     DPTR,#05H
0198 120000  E     LCALL   ?C?ILDOPTR
019B FB            MOV     R3,A
019C AAF0          MOV     R2,B
019E 120000  E     LCALL   _MBRMaskWriteRegister
                                           ; SOURCE LINE # 291
01A1 020000  R     LJMP    ?C0021
                                           ; SOURCE LINE # 293
01A4         ?C0031:
                                           ; SOURCE LINE # 294
01A4 AB00    R     MOV     R3,Pdu
01A6 AA00    R     MOV     R2,Pdu+01H
01A8 A900    R     MOV     R1,Pdu+02H
01AA 900007        MOV     DPTR,#07H
01AD 120000  E     LCALL   ?C?ILDOPTR
01B0 25E0          ADD     A,ACC
01B2 FF            MOV     R7,A
01B3 E5F0          MOV     A,B
01B5 33            RLC     A
01B6 FE            MOV     R6,A
01B7 900009        MOV     DPTR,#09H
01BA 120000  E     LCALL   ?C?CLDOPTR
01BD FD            MOV     R5,A
01BE 7C00          MOV     R4,#00H
01C0 B50715        CJNE    A,AR7,?C0033
01C3 EC            MOV     A,R4
01C4 B50611        CJNE    A,AR6,?C0033
01C7 ED            MOV     A,R5
01C8 240A          ADD     A,#0AH
01CA FF            MOV     R7,A
01CB EC            MOV     A,R4
01CC 33            RLC     A
01CD FE            MOV     R6,A
01CE EF            MOV     A,R7
01CF 6500    R     XRL     A,Size+01H
01D1 7003          JNZ     ?C0050
01D3 EE            MOV     A,R6
01D4 6500    R     XRL     A,Size
01D6         ?C0050:
01D6 6007          JZ      ?C0032
01D8         ?C0033:
                                           ; SOURCE LINE # 295
                                           ; SOURCE LINE # 296
01D8 7F04          MOV     R7,#04H
01DA 120000  R     LCALL   _MBException
                                           ; SOURCE LINE # 297
01DD 804E          SJMP    ?C0021
                                           ; SOURCE LINE # 298
01DF         ?C0032:
                                           ; SOURCE LINE # 299
01DF AB00    R     MOV     R3,Pdu
01E1 AA00    R     MOV     R2,Pdu+01H
01E3 A900    R     MOV     R1,Pdu+02H
01E5 900001        MOV     DPTR,#01H
01E8 120000  E     LCALL   ?C?ILDOPTR
01EB FF            MOV     R7,A
01EC AEF0          MOV     R6,B
01EE 900003        MOV     DPTR,#03H
01F1 120000  E     LCALL   ?C?ILDOPTR
01F4 FD            MOV     R5,A
C51 COMPILER V5.50,  MB                                                                    20/07/12  15:15:09  PAGE 19  

01F5 ACF0          MOV     R4,B
01F7 900005        MOV     DPTR,#05H
01FA 120000  E     LCALL   ?C?ILDOPTR
01FD FB            MOV     R3,A
01FE AAF0          MOV     R2,B
0200 C002          PUSH    AR2
0202 C003          PUSH    AR3
0204 AB00    R     MOV     R3,Pdu
0206 AA00    R     MOV     R2,Pdu+01H
0208 900007        MOV     DPTR,#07H
020B 120000  E     LCALL   ?C?ILDOPTR
020E 85F000  E     MOV     ?_MBRReadWriteRegisters?BYTE+06H,B
0211 F500    E     MOV     ?_MBRReadWriteRegisters?BYTE+07H,A
0213 E9            MOV     A,R1
0214 240A          ADD     A,#0AH
0216 F9            MOV     R1,A
0217 E4            CLR     A
0218 3A            ADDC    A,R2
0219 8B00    E     MOV     ?_MBRReadWriteRegisters?BYTE+08H,R3
021B F500    E     MOV     ?_MBRReadWriteRegisters?BYTE+09H,A
021D 8900    E     MOV     ?_MBRReadWriteRegisters?BYTE+0AH,R1
021F D003          POP     AR3
0221 D002          POP     AR2
0223 120000  E     LCALL   _MBRReadWriteRegisters
                                           ; SOURCE LINE # 302
0226 8005          SJMP    ?C0021
                                           ; SOURCE LINE # 385
0228         ?C0034:
                                           ; SOURCE LINE # 386
0228 7F01          MOV     R7,#01H
022A 120000  R     LCALL   _MBException
                                           ; SOURCE LINE # 387
                                           ; SOURCE LINE # 388
022D         ?C0021:
                                           ; SOURCE LINE # 389
022D E500    R     MOV     A,IsBroadcast
022F 6010          JZ      ?C0035
                                           ; SOURCE LINE # 390
0231 900000  R     MOV     DPTR,#Status+0BH
0234 E0            MOVX    A,@DPTR
0235 04            INC     A
0236 F0            MOVX    @DPTR,A
0237 7006          JNZ     ?C0051
0239 900000  R     MOV     DPTR,#Status+0AH
023C E0            MOVX    A,@DPTR
023D 04            INC     A
023E F0            MOVX    @DPTR,A
023F         ?C0051:
                                           ; SOURCE LINE # 391
023F C3            CLR     C
0240 22            RET     
                                           ; SOURCE LINE # 392
0241         ?C0035:
                                           ; SOURCE LINE # 393
0241 120000  E     LCALL   ComTxStart
                                           ; SOURCE LINE # 394
0244 D3            SETB    C
                                           ; SOURCE LINE # 395
0245         ?C0016:
0245 22            RET     
             ; FUNCTION RxPacket (END)

             ; FUNCTION ClearStatus (BEGIN)
                                           ; SOURCE LINE # 401
                                           ; SOURCE LINE # 403
                                           ; SOURCE LINE # 404
C51 COMPILER V5.50,  MB                                                                    20/07/12  15:15:09  PAGE 20  

0000 7E00          MOV     R6,#00H
0002 7F14          MOV     R7,#014H
0004 7D00          MOV     R5,#00H
0006 7B01          MOV     R3,#01H
0008 7A00    R     MOV     R2,#HIGH Status
000A 7900    R     MOV     R1,#LOW Status
000C 120000  E     LCALL   ?C?MEMSET
                                           ; SOURCE LINE # 405
000F 22            RET     
             ; FUNCTION ClearStatus (END)



MODULE INFORMATION:   STATIC OVERLAYABLE
   CODE SIZE        =    804    ----
   CONSTANT SIZE    =   ----    ----
   XDATA SIZE       =     21    ----
   PDATA SIZE       =   ----    ----
   DATA SIZE        =   ----      13
   IDATA SIZE       =   ----    ----
   BIT SIZE         =   ----    ----
END OF MODULE INFORMATION.


C51 COMPILATION COMPLETE.  0 WARNING(S),  0 ERROR(S)
