C51 COMPILER V5.50,  MBCOM                                                                 20/07/12  15:15:09  PAGE 1   


DOS C51 COMPILER V5.50, COMPILATION OF MODULE MBCOM
OBJECT MODULE PLACED IN ..\MODULY\MODBUS\MBCOM.OBJ
COMPILER INVOKED BY: E:\C51_V5.5\BIN\C51.EXE ..\MODULY\MODBUS\MBCOM.C51 CD DB

stmt level    source

   1          //*****************************************************************************
   2          //
   3          //   MBCom.c     Modbus serial communication
   4          //   Version 1.0 (c) VymOs
   5          //
   6          //*****************************************************************************
   7          
   8          #include "..\inc\MBCom.h"
   9          
  10          // globalni data :
  11          byte xdata    ComBuffer[ COM_DATA_SIZE];        // datovy buffer
  12          com_pointer_t ComDataSize;                      // delka prijatych/vysilanych dat
  13          
  14          byte volatile ComStatus;               // stav zarizeni
  15          word volatile ComTimeoutCounter;       // timeout counter
  16          
  17          // lokalni data :
  18          static byte _ComParity;
  19          static byte _ComMode;
  20          static com_pointer_t _ComPointer;      // Rx/Tx buffer pointer
  21          static word _ComTimeout;               // meziznakovy timeout
  22          #ifdef COM_TX_SPACE
  23          static word __xdata__ _ComTxSpace;     // mezera mezi Rx-Tx
  24          #endif // COM_TX_SPACE
  25          
  26          //-----------------------------------------------------------------------------
  27          // Inicializace komunikace
  28          //-----------------------------------------------------------------------------
  29          
  30          TYesNo ComInit( word Baud, byte Parity, byte Mode)
  31          // Inicializace komunikace
  32          {
  33   1         ComDisableInt();
  34   1         #ifdef ComTxDisable
  35   1            ComTxDisable();                  // RS485 disable Tx
  36   1         #endif
  37   1         #if DOUBLE_BAUDRATE_T1 == 2
                    PCON |=  PCON_SMOD1;
                 #else
  40   1            PCON &= ~PCON_SMOD1;
  41   1         #endif
  42   1         #ifdef COM_TIMER_1
                    // Timer 1 jako baud generator :
                    SetTimer1Baud( Baud);
                    TMOD &= 0x0F;
                    TMOD |= TMOD_M81;                // timer, mode 2, TR1 control
                    TR1   = 1;                       // run timer 1
                 #elif COM_TIMER_2
  49   1            // Timer 2 jako baud generator :
  50   1            if( Baud == COM_115200Bd){
  51   2               SetTimer2Baud( 115200);
  52   2            } else {
  53   2               SetTimer2Baud( Baud);
  54   2            }
  55   1            T2CON  = T2CON_COM;              // TR2=1, RCLK, TCLK
  56   1         #else
                    // ED2 ma baudrate timer, mozna casem doplnit
                    #error "Neni definovan casovac pro RS232"
                 #endif
C51 COMPILER V5.50,  MBCOM                                                                 20/07/12  15:15:09  PAGE 2   

  60   1         switch( Parity){
  61   2            case COM_PARITY_EVEN :
  62   2            case COM_PARITY_ODD  :
  63   2            case COM_PARITY_MARK :
  64   2               SCON = SCON_SMTIMER9;
  65   2               break;
  66   2            case COM_PARITY_NONE :
  67   2            case COM_PARITY_7BITS_EVEN :
  68   2            case COM_PARITY_7BITS_ODD :
  69   2            case COM_PARITY_7BITS_MARK :
  70   2               SCON = SCON_SMTIMER8;
  71   2               break;
  72   2            default :
  73   2               return( NO);
  74   2         }
  75   1         // kontextove promenne :
  76   1         ComStatus         = COM_STATUS_STOPPED;
  77   1         ComDataSize       = 0;
  78   1         ComTimeoutCounter = 0;
  79   1      
  80   1         _ComParity  = Parity;
  81   1         _ComMode    = Mode;
  82   1         _ComTimeout = 20;
  83   1      #ifdef COM_TX_SPACE
  84   1         _ComTxSpace = 0;
  85   1      #endif // COM_TX_SPACE
  86   1      
  87   1         return( YES);
  88   1      } // ComInit
  89          
  90          //-----------------------------------------------------------------------------
  91          // Timeout;
  92          //-----------------------------------------------------------------------------
  93          
  94          void ComSetTimeout( word ms)
  95          // Nastaveni meziznakoveho timeoutu
  96          {
  97   1         _ComTimeout = ms / MB_TIMEOUT_TIMER_PERIOD;
  98   1         if( _ComTimeout < 2){
  99   2            _ComTimeout = 2;                 // minimalni pocet tiku je 2 (rozsah TIMER_PERIOD0..2*TIMER_PERIOD0
             -)
 100   2         }
 101   1      } // ComSetTimeout
 102          
 103          #ifdef COM_TX_SPACE
 104          //-----------------------------------------------------------------------------
 105          // Timeout;
 106          //-----------------------------------------------------------------------------
 107          
 108          void ComSetTxSpace( word ms)
 109          // Nastaveni mezery mezi Rx a Tx
 110          {
 111   1         _ComTxSpace = ms / MB_TIMEOUT_TIMER_PERIOD;
 112   1         if( _ComTxSpace < 2){
 113   2            _ComTxSpace = 0;                 // mene nez 2 tiky nema smysl
 114   2         }
 115   1      } // ComSetTxSpace
 116          
 117          #endif // COM_TX_SPACE
 118          
 119          //-----------------------------------------------------------------------------
 120          // Start Tx
 121          //-----------------------------------------------------------------------------
 122          
 123          void ComTxStart( void)
 124          // Zahaji vysilani bufferu
C51 COMPILER V5.50,  MBCOM                                                                 20/07/12  15:15:09  PAGE 3   

 125          {
 126   1         #ifdef ComTxEnable
 127   1            ComTxEnable();                   // RS485, povoleni vysilani
 128   1         #endif
 129   1      #ifdef COM_TX_SPACE
 130   1         DisableInts();                      // zakaz preruseni od casovace
 131   1         ComStatus   = COM_STATUS_TX_RUNNING;
 132   1         if( _ComTxSpace != 0){
 133   2            TI = 0;                          // zpozdeny start
 134   2            ComTimeoutCounter = _ComTxSpace; // pocet tiku do startu
 135   2         } else {
 136   2            TI = 1;                          // okamzite vyvolat Tx interrupt
 137   2            ComTimeoutCounter = 0;           // zakazat start v preruseni casovace
 138   2         }
 139   1         EnableInts();                       // povoleni preruseni od casovace
 140   1         _ComPointer = 0;                    // ukazatel do bufferu
 141   1         ComEnableInt();
 142   1      #else
                 ComStatus   = COM_STATUS_TX_RUNNING;
                 _ComPointer = 0;                    // ukazatel do bufferu
                 TI = 1;                             // vyvolat Tx interrupt
                 ComEnableInt();
              #endif // COM_TX_SPACE
 148   1      } // ComTxStart
 149          
 150          //-----------------------------------------------------------------------------
 151          // Start Rx
 152          //-----------------------------------------------------------------------------
 153          
 154          void ComRxStart( void)
 155          // Zahaji prijem do bufferu
 156          {
 157   1         DisableInts();                                // zakaz preruseni od timeru
 158   1         ComStatus         = COM_STATUS_RX_RUNNING;    // start prijmu
 159   1         ComTimeoutCounter = 0;                        // zatim zadny znak
 160   1         EnableInts();
 161   1         ComDataSize       = 0;                        // ukazatel do bufferu
 162   1         ComEnableRx();
 163   1         RI = 0;                                       // flush predchozich znaku
 164   1         ComEnableInt();
 165   1      } // ComRxStart
 166          
 167          //-----------------------------------------------------------------------------
 168          // Stop
 169          //-----------------------------------------------------------------------------
 170          
 171          void ComStopAll( void)
 172          // Ukonci praci v preruseni (Rx i Tx)
 173          {
 174   1         ComDisableInt();                              // zakaz preruseni COM
 175   1         DisableInts();                                // zakaz preruseni od timeru
 176   1         ComStatus         = COM_STATUS_STOPPED;       // vychozi mod
 177   1         ComTimeoutCounter = 0;                        // zakaz casovace
 178   1         EnableInts();                                 // povoleni preruseni od timeru
 179   1         ComDataSize       = 0;                        // zadna data
 180   1      } // ComStopAll
 181          
 182          //-----------------------------------------------------------------------------
 183          // Prerusovaci rutina
 184          //-----------------------------------------------------------------------------
 185          
 186          static void ComIsr( void) interrupt INT_SERIAL
 187          {
 188   1      byte c;
 189   1      
 190   1         if( RI){
C51 COMPILER V5.50,  MBCOM                                                                 20/07/12  15:15:09  PAGE 4   

 191   2            // preruseni od prijimace
 192   2            RI = 0;                                    // zrus priznak preruseni
 193   2            c  = SBUF;                                 // prevezmi znak
 194   2            if( ComStatus != COM_STATUS_RX_RUNNING){
 195   3               goto check_tx;                          // dobeh znaku behem vysilani
 196   3            }
 197   2            // kontrola parity : ----------------------------------------------------
 198   2            switch( _ComParity){
 199   3               case COM_PARITY_EVEN :
 200   3                  ACC = c;
 201   3                  if( RB8 != P){
 202   4                     ComStatus = COM_STATUS_RX_PARITY;
 203   4                  }
 204   3                  break;
 205   3               case COM_PARITY_ODD :
 206   3                  ACC = c;
 207   3                  if( RB8 == P){
 208   4                     ComStatus = COM_STATUS_RX_PARITY;
 209   4                  }
 210   3                  break;
 211   3               case COM_PARITY_MARK :
 212   3                  if( RB8 != 1){
 213   4                     ComStatus = COM_STATUS_RX_PARITY;
 214   4                  }
 215   3               case COM_PARITY_7BITS_EVEN :
 216   3                  ACC = c;
 217   3                  if( P == 1){
 218   4                     ComStatus = COM_STATUS_RX_PARITY;
 219   4                  }
 220   3                  c &= 0x7F;
 221   3                  break;
 222   3               case COM_PARITY_7BITS_ODD :
 223   3                  ACC = c;
 224   3                  if( P == 0){
 225   4                     ComStatus = COM_STATUS_RX_PARITY;
 226   4                  }
 227   3                  c &= 0x7F;
 228   3                  break;
 229   3               case COM_PARITY_7BITS_MARK :
 230   3                  if( !(c & 0x80)){
 231   4                     ComStatus = COM_STATUS_RX_PARITY;
 232   4                  }
 233   3                  c &= 0x7F;
 234   3                  break;
 235   3            }
 236   2            //-----------------------------------------------------------------------
 237   2            if( ComDataSize == COM_DATA_SIZE){
 238   3               // plny buffer
 239   3               ComStatus = COM_STATUS_RX_OVERRUN;
 240   3            } else {
 241   3               if( (_ComMode & COM_MODE_TRAILER) && (c == COM_TRAILER_CHAR)){
 242   4                  // cekame na tento ukoncovaci znak
 243   4                  if( !(_ComMode & COM_MODE_LEADER) || (ComDataSize != 0)){
 244   5                     ComStatus = COM_STATUS_RX_DONE;   // stop
 245   5                     ComBuffer[ ComDataSize++] = c;    // uloz znak
 246   5                  } // else cekame na vedouci znak, pokracuj
 247   4               }
 248   3            }
 249   2            if( ComStatus != COM_STATUS_RX_RUNNING){
 250   3               // zastaveni prijmu
 251   3               ComStopRx();                            // zastavit prijem, zakazat preruseni
 252   3               ComTimeoutCounter = 0;                  // zastavit citani
 253   3            } else {
 254   3               // pripravit dalsi prijem
 255   3               if( _ComMode & COM_MODE_TIMEOUT){
 256   4                  ComTimeoutCounter = _ComTimeout;     // citani meziznakoveho timeoutu
C51 COMPILER V5.50,  MBCOM                                                                 20/07/12  15:15:09  PAGE 5   

 257   4               }
 258   3               if( _ComMode & COM_MODE_LEADER){
 259   4                  // vyhodnocujeme vedouci znak
 260   4                  if( c == COM_LEADER_CHAR){
 261   5                     ComDataSize = 0;                  // ukladat vzdy od zacatku
 262   5                  }
 263   4                  if( (c == COM_LEADER_CHAR) || (ComDataSize != 0)){
 264   5                     ComBuffer[ ComDataSize++] = c;    // uloz znak
 265   5                  } // else cekame na vedouci znak
 266   4               } else {
 267   4                  // ukladame vsechny znaky
 268   4                  ComBuffer[ ComDataSize++] = c;       // uloz znak
 269   4               }
 270   3            }
 271   2         }
 272   1         //---------------------------------------------------------------------------
 273   1      check_tx :
 274   1         //---------------------------------------------------------------------------
 275   1         if( TI){
 276   2            // preruseni od vysilace
 277   2            TI = 0;
 278   2            if( ComStatus != COM_STATUS_TX_RUNNING){
 279   3               goto done_tx;                           // dobeh znaku behem prijmu
 280   3            }
 281   2            if( _ComPointer == ComDataSize){
 282   3               // vysilani ukonceno
 283   3               #ifdef ComTxDisable
 284   3                  ComTxDisable();                      // RS485, zakaz vysilani
 285   3               #endif
 286   3               // start prijmu :
 287   3               ComStatus  = COM_STATUS_RX_RUNNING;     // start prijmu
 288   3               ComTimeoutCounter = 0;                  // zatim zadny znak
 289   3               ComDataSize       = 0;                  // ukazatel do bufferu
 290   3               ComEnableRx();
 291   3               RI = 0;                                 // flush predchozich znaku
 292   3               return;
 293   3            }
 294   2            c = ComBuffer[ _ComPointer++];
 295   2            // nastaveni parity : ----------------------------------------------------
 296   2            switch( _ComParity){
 297   3               case COM_PARITY_EVEN :
 298   3                  ACC = c;
 299   3                  TB8 = P;
 300   3                  break;
 301   3               case COM_PARITY_ODD :
 302   3                  ACC = c;
 303   3                  TB8 = !P;
 304   3                  break;
 305   3               case COM_PARITY_MARK :
 306   3                  TB8 = 1;
 307   3                  break;
 308   3               case COM_PARITY_7BITS_EVEN :
 309   3                  c &= 0x7F;                           // shodit paritni bit
 310   3                  ACC = c;
 311   3                  if( P){
 312   4                     c |= 0x80;
 313   4                  }
 314   3                  break;
 315   3               case COM_PARITY_7BITS_ODD :
 316   3                  c &= 0x7F;                           // shodit paritni bit
 317   3                  ACC = c;
 318   3                  if( !P){
 319   4                     c |= 0x80;
 320   4                  }
 321   3                  break;
 322   3               case COM_PARITY_7BITS_MARK :
C51 COMPILER V5.50,  MBCOM                                                                 20/07/12  15:15:09  PAGE 6   

 323   3                  c |= 0x80;                           // vzdy nahodit paritni bit
 324   3                  break;
 325   3            }
 326   2            //-----------------------------------------------------------------------
 327   2            SBUF = c;                                  // vyslani
 328   2         }
 329   1      done_tx :;
 330   1      } // ComIsr
C51 COMPILER V5.50,  MBCOM                                                                 20/07/12  15:15:09  PAGE 7   

ASSEMBLY LISTING OF GENERATED OBJECT CODE


             ; FUNCTION _ComInit (BEGIN)
0000 8E00    R     MOV     Baud,R6
0002 8F00    R     MOV     Baud+01H,R7
0004 8D00    R     MOV     Parity,R5
0006 8B00    R     MOV     Mode,R3
                                           ; SOURCE LINE # 30
                                           ; SOURCE LINE # 32
                                           ; SOURCE LINE # 33
0008 C2AC          CLR     ES
                                           ; SOURCE LINE # 35
000A D2B5          SETB    BatZAPGSM
                                           ; SOURCE LINE # 40
000C 53877F        ANL     PCON,#07FH
                                           ; SOURCE LINE # 50
000F E500    R     MOV     A,Baud+01H
0011 4500    R     ORL     A,Baud
0013 7008          JNZ     ?C0001
                                           ; SOURCE LINE # 51
0015 75CAFB        MOV     RCAP2L,#0FBH
0018 75CBFF        MOV     RCAP2H,#0FFH
                                           ; SOURCE LINE # 52
001B 803A          SJMP    ?C0002
001D         ?C0001:
                                           ; SOURCE LINE # 53
001D AE00    R     MOV     R6,Baud
001F AF00    R     MOV     R7,Baud+01H
0021 E4            CLR     A
0022 FC            MOV     R4,A
0023 FD            MOV     R5,A
0024 F8            MOV     R0,A
0025 F9            MOV     R1,A
0026 AA06          MOV     R2,AR6
0028 AB07          MOV     R3,AR7
002A FF            MOV     R7,A
002B 7ECA          MOV     R6,#0CAH
002D 7D08          MOV     R5,#08H
002F 120000  E     LCALL   ?C?SLDIV
0032 120000  E     LCALL   ?C?LNEG
0035 EF            MOV     A,R7
0036 E4            CLR     A
0037 8FCA          MOV     RCAP2L,R7
0039 AE00    R     MOV     R6,Baud
003B AF00    R     MOV     R7,Baud+01H
003D FC            MOV     R4,A
003E FD            MOV     R5,A
003F F8            MOV     R0,A
0040 F9            MOV     R1,A
0041 AA06          MOV     R2,AR6
0043 AB07          MOV     R3,AR7
0045 FF            MOV     R7,A
0046 7ECA          MOV     R6,#0CAH
0048 7D08          MOV     R5,#08H
004A 120000  E     LCALL   ?C?SLDIV
004D 120000  E     LCALL   ?C?LNEG
0050 7808          MOV     R0,#08H
0052 120000  E     LCALL   ?C?SLSHR
0055 8FCB          MOV     RCAP2H,R7
                                           ; SOURCE LINE # 54
0057         ?C0002:
                                           ; SOURCE LINE # 55
0057 75C834        MOV     T2CON,#034H
                                           ; SOURCE LINE # 60
005A E500    R     MOV     A,Parity
C51 COMPILER V5.50,  MBCOM                                                                 20/07/12  15:15:09  PAGE 8   

005C 600F          JZ      ?C0010
005E 24FC          ADD     A,#0FCH
0060 5006          JNC     ?C0006
0062 24FD          ADD     A,#0FDH
0064 5007          JNC     ?C0010
0066 800A          SJMP    ?C0011
                                           ; SOURCE LINE # 61
                                           ; SOURCE LINE # 62
                                           ; SOURCE LINE # 63
0068         ?C0006:
                                           ; SOURCE LINE # 64
0068 7598C0        MOV     SCON,#0C0H
                                           ; SOURCE LINE # 65
006B 8007          SJMP    ?C0003
                                           ; SOURCE LINE # 66
                                           ; SOURCE LINE # 67
                                           ; SOURCE LINE # 68
                                           ; SOURCE LINE # 69
006D         ?C0010:
                                           ; SOURCE LINE # 70
006D 759840        MOV     SCON,#040H
                                           ; SOURCE LINE # 71
0070 8002          SJMP    ?C0003
                                           ; SOURCE LINE # 72
0072         ?C0011:
                                           ; SOURCE LINE # 73
0072 C3            CLR     C
0073 22            RET     
                                           ; SOURCE LINE # 74
0074         ?C0003:
                                           ; SOURCE LINE # 76
0074 E4            CLR     A
0075 F500    R     MOV     ComStatus,A
                                           ; SOURCE LINE # 77
0077 F500    R     MOV     ComDataSize,A
0079 F500    R     MOV     ComDataSize+01H,A
                                           ; SOURCE LINE # 78
007B F500    R     MOV     ComTimeoutCounter,A
007D F500    R     MOV     ComTimeoutCounter+01H,A
                                           ; SOURCE LINE # 80
007F 850000  R     MOV     _ComParity,Parity
                                           ; SOURCE LINE # 81
0082 850000  R     MOV     _ComMode,Mode
                                           ; SOURCE LINE # 82
0085 F500    R     MOV     _ComTimeout,A
0087 750014  R     MOV     _ComTimeout+01H,#014H
                                           ; SOURCE LINE # 84
008A 900000  R     MOV     DPTR,#_ComTxSpace
008D F0            MOVX    @DPTR,A
008E A3            INC     DPTR
008F F0            MOVX    @DPTR,A
                                           ; SOURCE LINE # 87
0090 D3            SETB    C
                                           ; SOURCE LINE # 88
0091         ?C0012:
0091 22            RET     
             ; FUNCTION _ComInit (END)

             ; FUNCTION _ComSetTimeout (BEGIN)
;---- Variable 'ms' assigned to Register 'R6/R7' ----
                                           ; SOURCE LINE # 94
                                           ; SOURCE LINE # 96
                                           ; SOURCE LINE # 97
0000 8E00    R     MOV     _ComTimeout,R6
0002 8F00    R     MOV     _ComTimeout+01H,R7
                                           ; SOURCE LINE # 98
C51 COMPILER V5.50,  MBCOM                                                                 20/07/12  15:15:09  PAGE 9   

0004 C3            CLR     C
0005 E500    R     MOV     A,_ComTimeout+01H
0007 9402          SUBB    A,#02H
0009 E500    R     MOV     A,_ComTimeout
000B 9400          SUBB    A,#00H
000D 5006          JNC     ?C0014
                                           ; SOURCE LINE # 99
000F 750000  R     MOV     _ComTimeout,#00H
0012 750002  R     MOV     _ComTimeout+01H,#02H
                                           ; SOURCE LINE # 100
                                           ; SOURCE LINE # 101
0015         ?C0014:
0015 22            RET     
             ; FUNCTION _ComSetTimeout (END)

             ; FUNCTION _ComSetTxSpace (BEGIN)
;---- Variable 'ms' assigned to Register 'R6/R7' ----
                                           ; SOURCE LINE # 108
                                           ; SOURCE LINE # 110
                                           ; SOURCE LINE # 111
0000 900000  R     MOV     DPTR,#_ComTxSpace
0003 EE            MOV     A,R6
0004 F0            MOVX    @DPTR,A
0005 A3            INC     DPTR
0006 EF            MOV     A,R7
0007 F0            MOVX    @DPTR,A
                                           ; SOURCE LINE # 112
0008 C3            CLR     C
0009 9402          SUBB    A,#02H
000B EE            MOV     A,R6
000C 9400          SUBB    A,#00H
000E 5007          JNC     ?C0016
                                           ; SOURCE LINE # 113
0010 E4            CLR     A
0011 900000  R     MOV     DPTR,#_ComTxSpace
0014 F0            MOVX    @DPTR,A
0015 A3            INC     DPTR
0016 F0            MOVX    @DPTR,A
                                           ; SOURCE LINE # 114
                                           ; SOURCE LINE # 115
0017         ?C0016:
0017 22            RET     
             ; FUNCTION _ComSetTxSpace (END)

             ; FUNCTION ComTxStart (BEGIN)
                                           ; SOURCE LINE # 123
                                           ; SOURCE LINE # 125
                                           ; SOURCE LINE # 127
0000 C2B5          CLR     BatZAPGSM
                                           ; SOURCE LINE # 130
0002 C2AF          CLR     EA
                                           ; SOURCE LINE # 131
0004 750006  R     MOV     ComStatus,#06H
                                           ; SOURCE LINE # 132
0007 900000  R     MOV     DPTR,#_ComTxSpace
000A E0            MOVX    A,@DPTR
000B FE            MOV     R6,A
000C A3            INC     DPTR
000D E0            MOVX    A,@DPTR
000E FF            MOV     R7,A
000F 4E            ORL     A,R6
0010 6008          JZ      ?C0017
                                           ; SOURCE LINE # 133
0012 C299          CLR     TI
                                           ; SOURCE LINE # 134
0014 8E00    R     MOV     ComTimeoutCounter,R6
C51 COMPILER V5.50,  MBCOM                                                                 20/07/12  15:15:09  PAGE 10  

0016 8F00    R     MOV     ComTimeoutCounter+01H,R7
                                           ; SOURCE LINE # 135
0018 8007          SJMP    ?C0018
001A         ?C0017:
                                           ; SOURCE LINE # 136
001A D299          SETB    TI
                                           ; SOURCE LINE # 137
001C E4            CLR     A
001D F500    R     MOV     ComTimeoutCounter,A
001F F500    R     MOV     ComTimeoutCounter+01H,A
                                           ; SOURCE LINE # 138
0021         ?C0018:
                                           ; SOURCE LINE # 139
0021 D2AF          SETB    EA
                                           ; SOURCE LINE # 140
0023 E4            CLR     A
0024 F500    R     MOV     _ComPointer,A
0026 F500    R     MOV     _ComPointer+01H,A
                                           ; SOURCE LINE # 141
0028 D2AC          SETB    ES
                                           ; SOURCE LINE # 148
002A 22            RET     
             ; FUNCTION ComTxStart (END)

             ; FUNCTION ComRxStart (BEGIN)
                                           ; SOURCE LINE # 154
                                           ; SOURCE LINE # 156
                                           ; SOURCE LINE # 157
0000 C2AF          CLR     EA
                                           ; SOURCE LINE # 158
0002 750001  R     MOV     ComStatus,#01H
                                           ; SOURCE LINE # 159
0005 E4            CLR     A
0006 F500    R     MOV     ComTimeoutCounter,A
0008 F500    R     MOV     ComTimeoutCounter+01H,A
                                           ; SOURCE LINE # 160
000A D2AF          SETB    EA
                                           ; SOURCE LINE # 161
000C F500    R     MOV     ComDataSize,A
000E F500    R     MOV     ComDataSize+01H,A
                                           ; SOURCE LINE # 162
0010 D29C          SETB    REN
                                           ; SOURCE LINE # 163
0012 C298          CLR     RI
                                           ; SOURCE LINE # 164
0014 D2AC          SETB    ES
                                           ; SOURCE LINE # 165
0016 22            RET     
             ; FUNCTION ComRxStart (END)

             ; FUNCTION ComStopAll (BEGIN)
                                           ; SOURCE LINE # 171
                                           ; SOURCE LINE # 173
                                           ; SOURCE LINE # 174
0000 C2AC          CLR     ES
                                           ; SOURCE LINE # 175
0002 C2AF          CLR     EA
                                           ; SOURCE LINE # 176
0004 E4            CLR     A
0005 F500    R     MOV     ComStatus,A
                                           ; SOURCE LINE # 177
0007 F500    R     MOV     ComTimeoutCounter,A
0009 F500    R     MOV     ComTimeoutCounter+01H,A
                                           ; SOURCE LINE # 178
000B D2AF          SETB    EA
                                           ; SOURCE LINE # 179
C51 COMPILER V5.50,  MBCOM                                                                 20/07/12  15:15:09  PAGE 11  

000D F500    R     MOV     ComDataSize,A
000F F500    R     MOV     ComDataSize+01H,A
                                           ; SOURCE LINE # 180
0011 22            RET     
             ; FUNCTION ComStopAll (END)

             ; FUNCTION ComIsr (BEGIN)
0000 C0E0          PUSH    ACC
0002 C083          PUSH    DPH
0004 C082          PUSH    DPL
0006 C0D0          PUSH    PSW
0008 75D000        MOV     PSW,#00H
000B C004          PUSH    AR4
000D C007          PUSH    AR7
;---- Variable 'c' assigned to Register 'R7' ----
                                           ; SOURCE LINE # 186
                                           ; SOURCE LINE # 190
000F 209803        JB      RI,$ + 6H
0012 020000  R     LJMP    check_tx
                                           ; SOURCE LINE # 192
0015 C298          CLR     RI
                                           ; SOURCE LINE # 193
0017 AF99          MOV     R7,SBUF
                                           ; SOURCE LINE # 194
0019 E500    R     MOV     A,ComStatus
001B 6401          XRL     A,#01H
001D 6003          JZ      $ + 5H
001F 020000  R     LJMP    check_tx
                                           ; SOURCE LINE # 195
                                           ; SOURCE LINE # 196
0022         ?C0023:
                                           ; SOURCE LINE # 198
0022 E500    R     MOV     A,_ComParity
0024 24FE          ADD     A,#0FEH
0026 601E          JZ      ?C0028
0028 14            DEC     A
0029 6029          JZ      ?C0030
002B 14            DEC     A
002C 602C          JZ      ?C0032
002E 14            DEC     A
002F 6035          JZ      ?C0034
0031 14            DEC     A
0032 603E          JZ      ?C0036
0034 2405          ADD     A,#05H
0036 7044          JNZ     ?C0025
                                           ; SOURCE LINE # 199
0038         ?C0026:
                                           ; SOURCE LINE # 200
0038 EF            MOV     A,R7
                                           ; SOURCE LINE # 201
0039 A29A          MOV     C,RB8
003B 30D001        JNB     P,?C0065
003E B3            CPL     C
003F         ?C0065:
003F 503B          JNC     ?C0025
                                           ; SOURCE LINE # 202
0041 750003  R     MOV     ComStatus,#03H
                                           ; SOURCE LINE # 203
                                           ; SOURCE LINE # 204
0044 8036          SJMP    ?C0025
                                           ; SOURCE LINE # 205
0046         ?C0028:
                                           ; SOURCE LINE # 206
0046 EF            MOV     A,R7
                                           ; SOURCE LINE # 207
0047 A29A          MOV     C,RB8
C51 COMPILER V5.50,  MBCOM                                                                 20/07/12  15:15:09  PAGE 12  

0049 30D001        JNB     P,?C0066
004C B3            CPL     C
004D         ?C0066:
004D 402D          JC      ?C0025
                                           ; SOURCE LINE # 208
004F 750003  R     MOV     ComStatus,#03H
                                           ; SOURCE LINE # 209
                                           ; SOURCE LINE # 210
0052 8028          SJMP    ?C0025
                                           ; SOURCE LINE # 211
0054         ?C0030:
                                           ; SOURCE LINE # 212
0054 209A03        JB      RB8,?C0032
                                           ; SOURCE LINE # 213
0057 750003  R     MOV     ComStatus,#03H
                                           ; SOURCE LINE # 214
                                           ; SOURCE LINE # 215
005A         ?C0032:
                                           ; SOURCE LINE # 216
005A EF            MOV     A,R7
                                           ; SOURCE LINE # 217
005B 30D003        JNB     P,?C0033
                                           ; SOURCE LINE # 218
005E 750003  R     MOV     ComStatus,#03H
                                           ; SOURCE LINE # 219
0061         ?C0033:
                                           ; SOURCE LINE # 220
0061 53077F        ANL     AR7,#07FH
                                           ; SOURCE LINE # 221
0064 8016          SJMP    ?C0025
                                           ; SOURCE LINE # 222
0066         ?C0034:
                                           ; SOURCE LINE # 223
0066 EF            MOV     A,R7
                                           ; SOURCE LINE # 224
0067 20D003        JB      P,?C0035
                                           ; SOURCE LINE # 225
006A 750003  R     MOV     ComStatus,#03H
                                           ; SOURCE LINE # 226
006D         ?C0035:
                                           ; SOURCE LINE # 227
006D 53077F        ANL     AR7,#07FH
                                           ; SOURCE LINE # 228
0070 800A          SJMP    ?C0025
                                           ; SOURCE LINE # 229
0072         ?C0036:
                                           ; SOURCE LINE # 230
0072 EF            MOV     A,R7
0073 20E703        JB      ACC.7,?C0037
                                           ; SOURCE LINE # 231
0076 750003  R     MOV     ComStatus,#03H
                                           ; SOURCE LINE # 232
0079         ?C0037:
                                           ; SOURCE LINE # 233
0079 53077F        ANL     AR7,#07FH
                                           ; SOURCE LINE # 234
                                           ; SOURCE LINE # 235
007C         ?C0025:
                                           ; SOURCE LINE # 237
007C E4            CLR     A
007D B5000A  R     CJNE    A,ComDataSize+01H,?C0038
0080 E500    R     MOV     A,ComDataSize
0082 B40105        CJNE    A,#01H,?C0038
                                           ; SOURCE LINE # 239
0085 750004  R     MOV     ComStatus,#04H
                                           ; SOURCE LINE # 240
C51 COMPILER V5.50,  MBCOM                                                                 20/07/12  15:15:09  PAGE 13  

0088 802A          SJMP    ?C0039
008A         ?C0038:
                                           ; SOURCE LINE # 241
008A E500    R     MOV     A,_ComMode
008C 30E225        JNB     ACC.2,?C0039
008F BF0A22        CJNE    R7,#0AH,?C0039
                                           ; SOURCE LINE # 243
0092 30E106        JNB     ACC.1,?C0042
0095 E500    R     MOV     A,ComDataSize+01H
0097 4500    R     ORL     A,ComDataSize
0099 6019          JZ      ?C0039
009B         ?C0042:
                                           ; SOURCE LINE # 244
009B 750002  R     MOV     ComStatus,#02H
                                           ; SOURCE LINE # 245
009E 0500    R     INC     ComDataSize+01H
00A0 E500    R     MOV     A,ComDataSize+01H
00A2 AC00    R     MOV     R4,ComDataSize
00A4 7002          JNZ     ?C0068
00A6 0500    R     INC     ComDataSize
00A8         ?C0068:
00A8 14            DEC     A
00A9 2400    R     ADD     A,#LOW ComBuffer
00AB F582          MOV     DPL,A
00AD EC            MOV     A,R4
00AE 3400    R     ADDC    A,#HIGH ComBuffer
00B0 F583          MOV     DPH,A
00B2 EF            MOV     A,R7
00B3 F0            MOVX    @DPTR,A
                                           ; SOURCE LINE # 246
                                           ; SOURCE LINE # 247
                                           ; SOURCE LINE # 248
00B4         ?C0039:
                                           ; SOURCE LINE # 249
00B4 E500    R     MOV     A,ComStatus
00B6 6401          XRL     A,#01H
00B8 600C          JZ      ?C0043
                                           ; SOURCE LINE # 251
00BA C29C          CLR     REN
00BC C2AC          CLR     ES
                                           ; SOURCE LINE # 252
00BE 750000  R     MOV     ComTimeoutCounter,#00H
00C1 750000  R     MOV     ComTimeoutCounter+01H,#00H
                                           ; SOURCE LINE # 253
00C4 8052          SJMP    check_tx
00C6         ?C0043:
                                           ; SOURCE LINE # 255
00C6 E500    R     MOV     A,_ComMode
00C8 30E006        JNB     ACC.0,?C0045
                                           ; SOURCE LINE # 256
00CB 850000  R     MOV     ComTimeoutCounter,_ComTimeout
00CE 850000  R     MOV     ComTimeoutCounter+01H,_ComTimeout+01H
                                           ; SOURCE LINE # 257
00D1         ?C0045:
                                           ; SOURCE LINE # 258
00D1 E500    R     MOV     A,_ComMode
00D3 30E12C        JNB     ACC.1,?C0046
                                           ; SOURCE LINE # 260
00D6 BF3A06        CJNE    R7,#03AH,?C0047
                                           ; SOURCE LINE # 261
00D9 750000  R     MOV     ComDataSize,#00H
00DC 750000  R     MOV     ComDataSize+01H,#00H
                                           ; SOURCE LINE # 262
00DF         ?C0047:
                                           ; SOURCE LINE # 263
00DF EF            MOV     A,R7
C51 COMPILER V5.50,  MBCOM                                                                 20/07/12  15:15:09  PAGE 14  

00E0 643A          XRL     A,#03AH
00E2 6006          JZ      ?C0049
00E4 E500    R     MOV     A,ComDataSize+01H
00E6 4500    R     ORL     A,ComDataSize
00E8 602E          JZ      check_tx
00EA         ?C0049:
                                           ; SOURCE LINE # 264
00EA 0500    R     INC     ComDataSize+01H
00EC E500    R     MOV     A,ComDataSize+01H
00EE AC00    R     MOV     R4,ComDataSize
00F0 7002          JNZ     ?C0069
00F2 0500    R     INC     ComDataSize
00F4         ?C0069:
00F4 14            DEC     A
00F5 2400    R     ADD     A,#LOW ComBuffer
00F7 F582          MOV     DPL,A
00F9 EC            MOV     A,R4
00FA 3400    R     ADDC    A,#HIGH ComBuffer
00FC F583          MOV     DPH,A
00FE EF            MOV     A,R7
00FF F0            MOVX    @DPTR,A
                                           ; SOURCE LINE # 265
                                           ; SOURCE LINE # 266
0100 8016          SJMP    check_tx
0102         ?C0046:
                                           ; SOURCE LINE # 268
0102 0500    R     INC     ComDataSize+01H
0104 E500    R     MOV     A,ComDataSize+01H
0106 AC00    R     MOV     R4,ComDataSize
0108 7002          JNZ     ?C0070
010A 0500    R     INC     ComDataSize
010C         ?C0070:
010C 14            DEC     A
010D 2400    R     ADD     A,#LOW ComBuffer
010F F582          MOV     DPL,A
0111 EC            MOV     A,R4
0112 3400    R     ADDC    A,#HIGH ComBuffer
0114 F583          MOV     DPH,A
0116 EF            MOV     A,R7
0117 F0            MOVX    @DPTR,A
                                           ; SOURCE LINE # 269
                                           ; SOURCE LINE # 270
                                           ; SOURCE LINE # 271
                                           ; SOURCE LINE # 273
0118         check_tx:
                                           ; SOURCE LINE # 275
0118 209903        JB      TI,$ + 6H
011B 020000  R     LJMP    ?C0055
                                           ; SOURCE LINE # 277
011E C299          CLR     TI
                                           ; SOURCE LINE # 278
0120 E500    R     MOV     A,ComStatus
0122 6406          XRL     A,#06H
0124 6003          JZ      $ + 5H
0126 020000  R     LJMP    ?C0055
                                           ; SOURCE LINE # 279
                                           ; SOURCE LINE # 280
0129         ?C0052:
                                           ; SOURCE LINE # 281
0129 E500    R     MOV     A,_ComPointer+01H
012B B5001C  R     CJNE    A,ComDataSize+01H,?C0054
012E E500    R     MOV     A,_ComPointer
0130 B50017  R     CJNE    A,ComDataSize,?C0054
                                           ; SOURCE LINE # 284
0133 D2B5          SETB    BatZAPGSM
                                           ; SOURCE LINE # 287
C51 COMPILER V5.50,  MBCOM                                                                 20/07/12  15:15:09  PAGE 15  

0135 750001  R     MOV     ComStatus,#01H
                                           ; SOURCE LINE # 288
0138 750000  R     MOV     ComTimeoutCounter,#00H
013B 750000  R     MOV     ComTimeoutCounter+01H,#00H
                                           ; SOURCE LINE # 289
013E 750000  R     MOV     ComDataSize,#00H
0141 750000  R     MOV     ComDataSize+01H,#00H
                                           ; SOURCE LINE # 290
0144 D29C          SETB    REN
                                           ; SOURCE LINE # 291
0146 C298          CLR     RI
0148 805C          SJMP    ?C0055
                                           ; SOURCE LINE # 293
014A         ?C0054:
                                           ; SOURCE LINE # 294
014A 0500    R     INC     _ComPointer+01H
014C E500    R     MOV     A,_ComPointer+01H
014E AC00    R     MOV     R4,_ComPointer
0150 7002          JNZ     ?C0072
0152 0500    R     INC     _ComPointer
0154         ?C0072:
0154 14            DEC     A
0155 2400    R     ADD     A,#LOW ComBuffer
0157 F582          MOV     DPL,A
0159 EC            MOV     A,R4
015A 3400    R     ADDC    A,#HIGH ComBuffer
015C F583          MOV     DPH,A
015E E0            MOVX    A,@DPTR
015F FF            MOV     R7,A
                                           ; SOURCE LINE # 296
0160 E500    R     MOV     A,_ComParity
0162 24FE          ADD     A,#0FEH
0164 6017          JZ      ?C0058
0166 14            DEC     A
0167 601C          JZ      ?C0059
0169 14            DEC     A
016A 601D          JZ      ?C0060
016C 14            DEC     A
016D 6026          JZ      ?C0062
016F 14            DEC     A
0170 602F          JZ      ?C0064
0172 2405          ADD     A,#05H
0174 702E          JNZ     ?C0056
                                           ; SOURCE LINE # 297
0176         ?C0057:
                                           ; SOURCE LINE # 298
0176 EF            MOV     A,R7
                                           ; SOURCE LINE # 299
0177 A2D0          MOV     C,P
0179 929B          MOV     TB8,C
                                           ; SOURCE LINE # 300
017B 8027          SJMP    ?C0056
                                           ; SOURCE LINE # 301
017D         ?C0058:
                                           ; SOURCE LINE # 302
017D EF            MOV     A,R7
                                           ; SOURCE LINE # 303
017E A2D0          MOV     C,P
0180 B3            CPL     C
0181 929B          MOV     TB8,C
                                           ; SOURCE LINE # 304
0183 801F          SJMP    ?C0056
                                           ; SOURCE LINE # 305
0185         ?C0059:
                                           ; SOURCE LINE # 306
0185 D29B          SETB    TB8
C51 COMPILER V5.50,  MBCOM                                                                 20/07/12  15:15:09  PAGE 16  

                                           ; SOURCE LINE # 307
0187 801B          SJMP    ?C0056
                                           ; SOURCE LINE # 308
0189         ?C0060:
                                           ; SOURCE LINE # 309
0189 53077F        ANL     AR7,#07FH
                                           ; SOURCE LINE # 310
018C EF            MOV     A,R7
                                           ; SOURCE LINE # 311
018D 30D014        JNB     P,?C0056
                                           ; SOURCE LINE # 312
0190 430780        ORL     AR7,#080H
                                           ; SOURCE LINE # 313
                                           ; SOURCE LINE # 314
0193 800F          SJMP    ?C0056
                                           ; SOURCE LINE # 315
0195         ?C0062:
                                           ; SOURCE LINE # 316
0195 53077F        ANL     AR7,#07FH
                                           ; SOURCE LINE # 317
0198 EF            MOV     A,R7
                                           ; SOURCE LINE # 318
0199 20D008        JB      P,?C0056
                                           ; SOURCE LINE # 319
019C 430780        ORL     AR7,#080H
                                           ; SOURCE LINE # 320
                                           ; SOURCE LINE # 321
019F 8003          SJMP    ?C0056
                                           ; SOURCE LINE # 322
01A1         ?C0064:
                                           ; SOURCE LINE # 323
01A1 430780        ORL     AR7,#080H
                                           ; SOURCE LINE # 324
                                           ; SOURCE LINE # 325
01A4         ?C0056:
                                           ; SOURCE LINE # 327
01A4 8F99          MOV     SBUF,R7
                                           ; SOURCE LINE # 328
                                           ; SOURCE LINE # 329
01A6         done_tx:
                                           ; SOURCE LINE # 330
01A6         ?C0055:
01A6 D007          POP     AR7
01A8 D004          POP     AR4
01AA D0D0          POP     PSW
01AC D082          POP     DPL
01AE D083          POP     DPH
01B0 D0E0          POP     ACC
01B2 32            RETI    
             ; FUNCTION ComIsr (END)



MODULE INFORMATION:   STATIC OVERLAYABLE
   CODE SIZE        =    714    ----
   CONSTANT SIZE    =   ----    ----
   XDATA SIZE       =    258    ----
   PDATA SIZE       =   ----    ----
   DATA SIZE        =     11       4
   IDATA SIZE       =   ----    ----
   BIT SIZE         =   ----    ----
END OF MODULE INFORMATION.


C51 COMPILATION COMPLETE.  0 WARNING(S),  0 ERROR(S)
