C51 COMPILER V5.50,  MBRREGS                                                               20/07/12  15:15:09  PAGE 1   


DOS C51 COMPILER V5.50, COMPILATION OF MODULE MBRREGS
OBJECT MODULE PLACED IN ..\MODULY\MODBUS\MBRREGS.OBJ
COMPILER INVOKED BY: E:\C51_V5.5\BIN\C51.EXE ..\MODULY\MODBUS\MBRREGS.C51 CD DB

stmt level    source

   1          //*****************************************************************************
   2          //
   3          //   MBRRegs.c       Modbus process reply - holding registers commands
   4          //   Version 1.0 (c) VymOs
   5          //
   6          //*****************************************************************************
   7          
   8          #include "MBRRegs.h"
   9          #include "..\inc\MBPacket.h"          // zapis dat paketu
  10          #include "..\inc\MBCb.h"              // vykonne callbacky
  11          #include "..\inc\MB.h"                // pomocne operace
  12          #include "..\inc\MBPdu.h"             // MBBitsToByte
  13          
  14          //-----------------------------------------------------------------------------
  15          // Read registers
  16          //-----------------------------------------------------------------------------
  17          
  18          void MBRReadRegisters( word Address, word Count)
  19          // Precte pole 16bit hodnot o poctu <Count>
  20          {
  21   1         // zahlavi odpovedi :
  22   1         MBWriteAddress( MBCGetOwnAddress());
  23   1         MBWriteByte( MBGetFunctionCode());
  24   1         MBWriteByte( 2 * Count);
  25   1         // vykonny callback :
  26   1         if( !MBCReadRegisters( Address, Count)){
  27   2            return;                          // exception
  28   2         }
  29   1         MBWriteCrc();                       // dokonceni paketu
  30   1      } // MBRReadRegisters
  31          
  32          //-----------------------------------------------------------------------------
  33          // Write single register
  34          //-----------------------------------------------------------------------------
  35          
  36          void MBRWriteSingleRegister( word Address, word Value)
  37          // Zapis 16bit hodnoty <Value>
  38          {
  39   1         // vykonny callback :
  40   1         if( !MBCWriteSingleRegister( Address, Value)){
  41   2            return;                          // exception
  42   2         }
  43   1         // odpoved :
  44   1         MBWriteAddress( MBCGetOwnAddress());
  45   1         MBWriteByte( MBGetFunctionCode());
  46   1         MBWriteWord( Address);
  47   1         MBWriteWord( Value);
  48   1         MBWriteCrc();
  49   1      } // MBRWriteSingleRegister
  50          
  51          //-----------------------------------------------------------------------------
  52          // Write registers
  53          //-----------------------------------------------------------------------------
  54          
  55          void MBRWriteRegisters( word Address, word Count, word *Data)
  56          // Zapis pole 16bit hodnot o poctu <Count>. <Data> je pole hodnot
  57          {
  58   1         // vykonny callback :
  59   1         if( !MBCWriteRegisters( Address, Count, Data)){
C51 COMPILER V5.50,  MBRREGS                                                               20/07/12  15:15:09  PAGE 2   

  60   2            return;                          // exception
  61   2         }
  62   1         // odpoved :
  63   1         MBWriteAddress( MBCGetOwnAddress());
  64   1         MBWriteByte( MBGetFunctionCode());
  65   1         MBWriteWord( Address);
  66   1         MBWriteWord( Count);
  67   1         MBWriteCrc();                       // dokonceni paketu
  68   1      } // MBRWriteRegisters
  69          
  70          //-----------------------------------------------------------------------------
  71          // Write mask
  72          //-----------------------------------------------------------------------------
  73          
  74          void MBRMaskWriteRegister( word Address, word AndMask, word OrMask)
  75          // Zapis registru pomoci masky
  76          {
  77   1         // vykonny callback :
  78   1         if( !MBCMaskWriteRegister( Address, AndMask, OrMask)){
  79   2            return;                          // exception
  80   2         }
  81   1         // odpoved :
  82   1         MBWriteAddress( MBCGetOwnAddress());
  83   1         MBWriteByte( MBGetFunctionCode());
  84   1         MBWriteWord( Address);
  85   1         MBWriteWord( AndMask);
  86   1         MBWriteWord( OrMask);
  87   1         MBWriteCrc();
  88   1      } // MBRMaskWriteRegister
  89          
  90          //-----------------------------------------------------------------------------
  91          // Read / Write registers
  92          //-----------------------------------------------------------------------------
  93          
  94          void MBRReadWriteRegisters( word ReadAddress, word ReadCount, word WriteAddress, word WriteCount, word *Da
             -ta)
  95          // Zapis pole 16bit hodnot o delce <WriteCount>, <Data> je pole hodnot.
  96          // Cteni pole 16bit hodnot o delce <ReadCount>
  97          {
  98   1         // vykonny callback :
  99   1         if( !MBCWriteRegisters( WriteAddress, WriteCount, Data)){
 100   2            return;                          // exception
 101   2         }
 102   1         // odpoved :
 103   1         MBWriteAddress( MBCGetOwnAddress());
 104   1         MBWriteByte( MBGetFunctionCode());
 105   1         MBWriteByte( 2 * ReadCount);
 106   1         // vykonny callback :
 107   1         if( !MBCReadRegisters( ReadAddress, ReadCount)){
 108   2            return;                          // exception
 109   2         }
 110   1         MBWriteCrc();                       // dokonceni paketu
 111   1      } // MBRReadWriteRegisters
 112          
C51 COMPILER V5.50,  MBRREGS                                                               20/07/12  15:15:09  PAGE 3   

ASSEMBLY LISTING OF GENERATED OBJECT CODE


             ; FUNCTION _MBRReadRegisters (BEGIN)
0000 8E00    R     MOV     Address,R6
0002 8F00    R     MOV     Address+01H,R7
0004 8C00    R     MOV     Count,R4
0006 8D00    R     MOV     Count+01H,R5
                                           ; SOURCE LINE # 18
                                           ; SOURCE LINE # 20
                                           ; SOURCE LINE # 22
0008 120000  E     LCALL   MBCGetOwnAddress
000B 120000  E     LCALL   _MBWriteAddress
                                           ; SOURCE LINE # 23
000E 120000  E     LCALL   MBGetFunctionCode
0011 120000  E     LCALL   _MBWriteByte
                                           ; SOURCE LINE # 24
0014 E500    R     MOV     A,Count+01H
0016 25E0          ADD     A,ACC
0018 FF            MOV     R7,A
0019 120000  E     LCALL   _MBWriteByte
                                           ; SOURCE LINE # 26
001C AF00    R     MOV     R7,Address+01H
001E AE00    R     MOV     R6,Address
0020 AD00    R     MOV     R5,Count+01H
0022 AC00    R     MOV     R4,Count
0024 120000  E     LCALL   _MBCReadRegisters
0027 5003          JNC     ?C0002
                                           ; SOURCE LINE # 28
0029         ?C0001:
                                           ; SOURCE LINE # 29
0029 120000  E     LCALL   MBWriteCrc
                                           ; SOURCE LINE # 30
002C         ?C0002:
002C 22            RET     
             ; FUNCTION _MBRReadRegisters (END)

             ; FUNCTION _MBRWriteSingleRegister (BEGIN)
0000 8E00    R     MOV     Address,R6
0002 8F00    R     MOV     Address+01H,R7
0004 8C00    R     MOV     Value,R4
0006 8D00    R     MOV     Value+01H,R5
                                           ; SOURCE LINE # 36
                                           ; SOURCE LINE # 38
                                           ; SOURCE LINE # 40
0008 120000  E     LCALL   _MBCWriteSingleRegister
000B 501D          JNC     ?C0004
                                           ; SOURCE LINE # 42
000D         ?C0003:
                                           ; SOURCE LINE # 44
000D 120000  E     LCALL   MBCGetOwnAddress
0010 120000  E     LCALL   _MBWriteAddress
                                           ; SOURCE LINE # 45
0013 120000  E     LCALL   MBGetFunctionCode
0016 120000  E     LCALL   _MBWriteByte
                                           ; SOURCE LINE # 46
0019 AF00    R     MOV     R7,Address+01H
001B AE00    R     MOV     R6,Address
001D 120000  E     LCALL   _MBWriteWord
                                           ; SOURCE LINE # 47
0020 AF00    R     MOV     R7,Value+01H
0022 AE00    R     MOV     R6,Value
0024 120000  E     LCALL   _MBWriteWord
                                           ; SOURCE LINE # 48
0027 120000  E     LCALL   MBWriteCrc
                                           ; SOURCE LINE # 49
C51 COMPILER V5.50,  MBRREGS                                                               20/07/12  15:15:09  PAGE 4   

002A         ?C0004:
002A 22            RET     
             ; FUNCTION _MBRWriteSingleRegister (END)

             ; FUNCTION _MBRWriteRegisters (BEGIN)
0000 8E00    R     MOV     Address,R6
0002 8F00    R     MOV     Address+01H,R7
0004 8C00    R     MOV     Count,R4
0006 8D00    R     MOV     Count+01H,R5
;---- Variable 'Data' assigned to Register 'R1/R2/R3' ----
                                           ; SOURCE LINE # 55
                                           ; SOURCE LINE # 57
                                           ; SOURCE LINE # 59
0008 120000  E     LCALL   _MBCWriteRegisters
000B 501D          JNC     ?C0006
                                           ; SOURCE LINE # 61
000D         ?C0005:
                                           ; SOURCE LINE # 63
000D 120000  E     LCALL   MBCGetOwnAddress
0010 120000  E     LCALL   _MBWriteAddress
                                           ; SOURCE LINE # 64
0013 120000  E     LCALL   MBGetFunctionCode
0016 120000  E     LCALL   _MBWriteByte
                                           ; SOURCE LINE # 65
0019 AF00    R     MOV     R7,Address+01H
001B AE00    R     MOV     R6,Address
001D 120000  E     LCALL   _MBWriteWord
                                           ; SOURCE LINE # 66
0020 AF00    R     MOV     R7,Count+01H
0022 AE00    R     MOV     R6,Count
0024 120000  E     LCALL   _MBWriteWord
                                           ; SOURCE LINE # 67
0027 120000  E     LCALL   MBWriteCrc
                                           ; SOURCE LINE # 68
002A         ?C0006:
002A 22            RET     
             ; FUNCTION _MBRWriteRegisters (END)

             ; FUNCTION _MBRMaskWriteRegister (BEGIN)
0000 8E00    R     MOV     Address,R6
0002 8F00    R     MOV     Address+01H,R7
0004 8C00    R     MOV     AndMask,R4
0006 8D00    R     MOV     AndMask+01H,R5
0008 8A00    R     MOV     OrMask,R2
000A 8B00    R     MOV     OrMask+01H,R3
                                           ; SOURCE LINE # 74
                                           ; SOURCE LINE # 76
                                           ; SOURCE LINE # 78
000C 120000  E     LCALL   _MBCMaskWriteRegister
000F 5024          JNC     ?C0008
                                           ; SOURCE LINE # 80
0011         ?C0007:
                                           ; SOURCE LINE # 82
0011 120000  E     LCALL   MBCGetOwnAddress
0014 120000  E     LCALL   _MBWriteAddress
                                           ; SOURCE LINE # 83
0017 120000  E     LCALL   MBGetFunctionCode
001A 120000  E     LCALL   _MBWriteByte
                                           ; SOURCE LINE # 84
001D AF00    R     MOV     R7,Address+01H
001F AE00    R     MOV     R6,Address
0021 120000  E     LCALL   _MBWriteWord
                                           ; SOURCE LINE # 85
0024 AF00    R     MOV     R7,AndMask+01H
0026 AE00    R     MOV     R6,AndMask
0028 120000  E     LCALL   _MBWriteWord
C51 COMPILER V5.50,  MBRREGS                                                               20/07/12  15:15:09  PAGE 5   

                                           ; SOURCE LINE # 86
002B AF00    R     MOV     R7,OrMask+01H
002D AE00    R     MOV     R6,OrMask
002F 120000  E     LCALL   _MBWriteWord
                                           ; SOURCE LINE # 87
0032 120000  E     LCALL   MBWriteCrc
                                           ; SOURCE LINE # 88
0035         ?C0008:
0035 22            RET     
             ; FUNCTION _MBRMaskWriteRegister (END)

             ; FUNCTION _MBRReadWriteRegisters (BEGIN)
0000 8E00    R     MOV     ReadAddress,R6
0002 8F00    R     MOV     ReadAddress+01H,R7
0004 8C00    R     MOV     ReadCount,R4
0006 8D00    R     MOV     ReadCount+01H,R5
;---- Variable 'WriteAddress' assigned to Register 'R6/R7' ----
0008 AF03          MOV     R7,AR3
000A AE02          MOV     R6,AR2
                                           ; SOURCE LINE # 94
                                           ; SOURCE LINE # 97
                                           ; SOURCE LINE # 99
000C AD00    R     MOV     R5,WriteCount+01H
000E AC00    R     MOV     R4,WriteCount
0010 AB00    R     MOV     R3,Data
0012 AA00    R     MOV     R2,Data+01H
0014 A900    R     MOV     R1,Data+02H
0016 120000  E     LCALL   _MBCWriteRegisters
0019 5024          JNC     ?C0010
                                           ; SOURCE LINE # 101
001B         ?C0009:
                                           ; SOURCE LINE # 103
001B 120000  E     LCALL   MBCGetOwnAddress
001E 120000  E     LCALL   _MBWriteAddress
                                           ; SOURCE LINE # 104
0021 120000  E     LCALL   MBGetFunctionCode
0024 120000  E     LCALL   _MBWriteByte
                                           ; SOURCE LINE # 105
0027 E500    R     MOV     A,ReadCount+01H
0029 25E0          ADD     A,ACC
002B FF            MOV     R7,A
002C 120000  E     LCALL   _MBWriteByte
                                           ; SOURCE LINE # 107
002F AF00    R     MOV     R7,ReadAddress+01H
0031 AE00    R     MOV     R6,ReadAddress
0033 AD00    R     MOV     R5,ReadCount+01H
0035 AC00    R     MOV     R4,ReadCount
0037 120000  E     LCALL   _MBCReadRegisters
003A 5003          JNC     ?C0010
                                           ; SOURCE LINE # 109
003C         ?C0011:
                                           ; SOURCE LINE # 110
003C 120000  E     LCALL   MBWriteCrc
                                           ; SOURCE LINE # 111
003F         ?C0010:
003F 22            RET     
             ; FUNCTION _MBRReadWriteRegisters (END)



MODULE INFORMATION:   STATIC OVERLAYABLE
   CODE SIZE        =    249    ----
   CONSTANT SIZE    =   ----    ----
   XDATA SIZE       =   ----    ----
   PDATA SIZE       =   ----    ----
   DATA SIZE        =   ----      29
C51 COMPILER V5.50,  MBRREGS                                                               20/07/12  15:15:09  PAGE 6   

   IDATA SIZE       =   ----    ----
   BIT SIZE         =   ----    ----
END OF MODULE INFORMATION.


C51 COMPILATION COMPLETE.  0 WARNING(S),  0 ERROR(S)
