C51 COMPILER V5.50,  LANGFR                                                                13/09/12  16:09:45  PAGE 1   


DOS C51 COMPILER V5.50, COMPILATION OF MODULE LANGFR
OBJECT MODULE PLACED IN LANGFR.OBJ
COMPILER INVOKED BY: E:\C51_V5.5\BIN\C51.EXE LANGFR.C51 CD DB

stmt level    source

   1          //*****************************************************************************
   2          //
   3          // Definice stringu:
   4          //   - En
   5          //   - Fr
   6          //
   7          //*****************************************************************************
   8          
   9          #include "Lang.h"                   // Stringy
  10          
  11          #ifdef LANG_VERSION_FR  // Prekladam, jen pokud je tato jazykova verze aktivni
  12          
  13          // ---------------------------------------------------------------------------------------------
  14          // Definice jazyka
  15          // ---------------------------------------------------------------------------------------------
  16          
  17          byte code STR_LANGUAGE[] = "Language";   // Toto menu se nepreklada
  18          byte code STR_MENU_LANGUAGE[] =
  19            "English\x0"
  20            "Fran\x013ais";
  21          
  22          // ---------------------------------------------------------------------------------------------
  23          // HW verze
  24          // ---------------------------------------------------------------------------------------------
  25          
  26          byte code STR_HW_VERSION[] =
  27            "GSM\x0"
  28            "LW1\x0"
  29            "MODBUS";
  30          
  31          // ---------------------------------------------------------------------------------------------
  32          // Menu
  33          // ---------------------------------------------------------------------------------------------
  34          
  35          byte code STR_DAY[] =
  36            "Day\x0"
  37            "Jour";
  38          byte code STR_WEIGHT[] =
  39            "Weight\x0"
  40            "Poids";
  41          byte code STR_START[] =
  42            "Start\x0"
  43            "D\x082but";
  44          byte code STR_SCALE[] =
  45            "Scale\x0"
  46            "Peson";
  47          byte code STR_TARGET_WEIGHT[] =
  48            "Target\x0"
  49            "Cible";
  50          byte code STR_LAST_SAVED_WEIGHT[] =
  51            "Last\x0"
  52            "Precedent";
  53          byte code STR_COUNT[] =
  54            "Count\x0"
  55            "Nombre";
  56          byte code STR_OK[] =
  57            "OK\x0"
  58            "OK";
  59          byte code STR_CANCEL[] =
C51 COMPILER V5.50,  LANGFR                                                                13/09/12  16:09:45  PAGE 2   

  60            "Cancel\x0"
  61            "Annuler";
  62          byte code STR_RETRY[] =
  63            "Retry\x0"
  64            "Re-essay";
  65          byte code STR_YES[] =
  66            "Yes\x0"
  67            "Oui";
  68          byte code STR_NO[] =
  69            "No\x0"
  70            "Non";
  71          byte code STR_ERROR[] =
  72            "Error\x0"
  73            "Erreur";
  74          byte code STR_WAIT[] =
  75            "Wait\x0"
  76            "Attendre";
  77          byte code STR_HEADS[] =
  78            "hds\x0"
  79            "anx";
  80          /*byte code STR_VERZE[] =
  81            "version\x0"
  82            "version";*/
  83          
  84          // Jednotky mam zvlast pro vyber v menu a pro zobrazeni (kvuli jednoduchosti)
  85          byte code STR_UNITS_MENU[]=    // Pro menu
  86             "kg\x0" "lb\x0"
  87             "kg\x0" "lb";
  88          byte code STR_UNITS[_UNITS_COUNT][_LANG_COUNT][3]= {   // Pro zobrazeni
  89            {
  90              "kg",
  91              "kg"
  92            },
  93            {
  94              "lb",
  95              "lb"
  96            }
  97          };
  98          
  99          // Dilek v menu
 100          byte code STR_DIVISION_MENU[] =
 101            "1\x0"
 102            "2\x0"
 103            "5\x0"
 104            "10";
 105          
 106          byte code STR_INVALID_VALUE[] =
 107            "The value\x0FFis not valid\x0"
 108            "La valeur n'est\x0FFpas valable";
 109          byte code STR_SAVE_CHANGES[] =
 110            "Save changes?\x0"
 111            "Enregistrer\x0FFmodifications?";
 112          byte code STR_STOP_WEIGHING_FIRST[] =
 113            "Weighing is started.\x0FFStop the weighing\x0FFfirst.\x0"
 114            "La pesee est commencee.\x0FFArreter la pesee d'abord.";
 115          
 116          // Typy zobrazeni behem vazeni
 117          byte code STR_WEIGHING_IDLE[] =
 118            "STOPPED\x0"
 119            "ARRET";
 120          byte code STR_WEIGHING_WAITING[] =
 121            "WAITING\x0"
 122            "EN ATTENTE";
 123          byte code STR_WEIGHING_WEIGHING[] =
 124            "WEIGHING\x0"
 125            "PESEE";
C51 COMPILER V5.50,  LANGFR                                                                13/09/12  16:09:45  PAGE 3   

 126          byte code STR_WEIGHING_PAUSE[] =
 127            "PAUSED\x0"
 128            "PAUSE";
 129          byte code STR_WEIGHING_ONLINE[] =
 130            "ONLINE\x0"
 131            "EN LIGNE";
 132          
 133          // Historie
 134          byte code STR_ARCHIVE[] =
 135            "ARCHIVE\x0"
 136            "ARCHIVE";
 137          
 138          // Statistika
 139          byte code STR_CV[] =
 140            "Cv\x0"
 141            "Cv";
 142          byte code STR_UNI[] =
 143            "UNI\x0"
 144            "Hom.";
 145          
 146          // Logger
 147          byte code STR_PAGE[] =
 148            "Page\x0"
 149            "Page";
 150          byte code STR_NO_DATA[] =
 151            "No data\x0"
 152            "Pas de donnees";
 153          
 154          // Editace hejna
 155          byte code STR_STOP_WEIGHING[] =
 156            "Really stop\x0FFweighing of the flock?\x0"
 157            "Arreter vraiment\x0FFla pesee?";
 158          byte code STR_SELECT_ANOTHER_FLOCK[] =
 159            "The selected flock is\x0FFnow weighed.\x0FFSelect another flock.\x0"
 160            "Le lot choisi est\x0FFen pesee. Choisir\x0FFun autre lot.";
 161          byte code STR_USE_FLOCK[] =
 162            "Use a predefined flock?\x0"
 163            "Utiliser un lot\x0FFpredefini?";
 164          byte code STR_STARTING_DAY[] =
 165            "Starting day:\x0FF\x0FF\x0FF\x0"
 166            "Debut de pesee:\x0FF\x0FF\x0FF";
 167          byte code STR_PASSWORD[] =
 168            "Password:\x0FF\x0FF\x0FF\x0"
 169            "Mot de passe:\x0FF\x0FF\x0FF";
 170          byte code STR_INVALID_PASSWORD[] =
 171            "Invalid password\x0"
 172            "Mot de passe invalide";
 173          byte code STR_FLOCK_NUMBER[] =
 174            "Flock number:\x0FF\x0FF\x0FF\x0"
 175            "Numero de lot:\x0FF\x0FF\x0FF";
 176          byte code STR_REALLY_DELETE_ALL_FLOCKS[] =
 177            "Really delete\x0FFall the flocks?\x0"
 178            "Supprimer vraiment\x0FFtous les lots?";
 179          byte code STR_ALL_FLOCKS_DELETED[] =
 180            "All the flocks\x0FFwere deleted.\x0"
 181            "Tous les lots\x0FFsont supprimes.";
 182          byte code STR_START_WEIGHING_NOW[] =
 183            "Start weighing now?\x0"
 184            "Commencer la pes\x082e\x0FFmaintenant?";
 185          byte code STR_COMPARE_RESULTS[] =
 186            "Compare with\x0FFanother flock?\x0"
 187            "Comparaison avec\x0FFun autre lot?";
 188          byte code STR_FLOCK_NOT_VALID[] =
 189            "The selected flock is\x0FFnot valid.\x0FFSelect another flock.\x0"
 190            "Le lot choisi n'est\x0FFpas valable.\x0FFS\x082lectionner un autre lot.";
 191          
C51 COMPILER V5.50,  LANGFR                                                                13/09/12  16:09:45  PAGE 4   

 192          // Editace datumu a casu
 193          byte code STR_DATE[] =
 194            "Date:\x0FF\x0FF\x0FF\x0"
 195            "Date:\x0FF\x0FF\x0FF";
 196          byte code STR_TIME[] =
 197            "Time:\x0FF\x0FF\x0FF\x0"
 198            "Heure:\x0FF\x0FF\x0FF";
 199          
 200          // Editace identifikacniho cisla
 201          byte code STR_IDENTIFICATION_NUMBER[] =
 202            "Identification number:\x0FF\x0FF\x0FF\x0"
 203            "Numero d'identification:\x0FF\x0FF\x0FF";
 204          
 205          // Editace parametru statistiky
 206          byte code STR_HISTOGRAM_RANGE[] =
 207            "Histogram range:\x0FF\x0FF\x0FF\x0"
 208            "Echelle de l'histogramme:\x0FF\x0FF\x0FF";
 209          byte code STR_UNIFORMITY_RANGE[] =
 210            "Uniformity range:\x0FF\x0FF\x0FF\x0"
 211            "Echelle d'uniformite:\x0FF\x0FF\x0FF";
 212          
 213          // Parametry naslapne vahy
 214          byte code STR_SCALE_MARGIN_ABOVE_FEMALES[] =
 215            "Margin above target\x0FFfor females:\x0FF\x0FF\x0"
 216            "Ecart au-dessus de la\x0FFcourbe pour les femelles:\x0FF\x0FF";
 217          byte code STR_SCALE_MARGIN_BELOW_FEMALES[] =
 218            "Margin under target\x0FFfor females:\x0FF\x0FF\x0"
 219            "Ecart en-dessous de la\x0FFcourbe pour les femelles:\x0FF\x0FF";
 220          byte code STR_SCALE_MARGIN_ABOVE_MALES[] =
 221            "Margin above target\x0FFfor males:\x0FF\x0FF\x0"
 222            "Ecart au-dessus de la\x0FFcourbe pour les m\x011les:\x0FF\x0FF";
 223          byte code STR_SCALE_MARGIN_BELOW_MALES[] =
 224            "Margin under target\x0FFfor males:\x0FF\x0FF\x0"
 225            "Ecart en-dessous de la\x0FFcourbe pour les m\x011les:\x0FF\x0FF";
 226          byte code STR_SCALE_FILTER[] =
 227            "Filter:\x0FF\x0FF\x0FF\x0"
 228            "Filtre:\x0FF\x0FF\x0FF";
 229          byte code STR_SCALE_STABILIZATION_RANGE[] =
 230            "Stabilization:\x0FF\x0FF\x0FF\x0"
 231            "Stabilisation:\x0FF\x0FF\x0FF";
 232          byte code STR_SCALE_STABILIZATION_TIME[] =
 233            "Stabilization\x0FFtime:\x0FF\x0FF\x0"
 234            "Temps\x0FFde stabilisation:\x0FF\x0FF";
 235          byte code STR_SCALE_AUTO_MODE_TYPE[] =
 236            "Use gain in\x0FFautomatic mode?\x0"
 237            "Utiliser le calcul\x0FFautomatique du GMQ?";
 238          byte code STR_JUMP_MODE[] =
 239             "Save sample upon:\x0FF\x0FF\x0FF\x0"
 240             "Sauveg. la donn\x082e\x0FFlors de:\x0FF\x0FF";
 241          byte code STR_ENTER_LEAVE_BOTH[] =
 242             "Entering the scale\x0" "Leaving the scale\x0" "Both\x0"
 243             "Arriv\x082e sur balance\x0" "Sortie de la balance\x0" "Des deux";
 244          
 245          // Kalibrace
 246          byte code STR_CALIBRATION_UNITS[] =
 247            "Units:\x0FF\x0FF\x0FF\x0"
 248            "Unit\x082:\x0FF\x0FF\x0FF";
 249          byte code STR_CALIBRATION_DIVISION[] =
 250            "Division:\x0FF\x0FF\x0FF\x0"
 251            "Graduation:\x0FF\x0FF\x0FF";
 252          byte code STR_CALIBRATION_ZERO[] =
 253            "Empty the scale\x0"
 254            "Liberer les balances";
 255          byte code STR_CALIBRATION_RANGE[] =
 256            "Put on the scale:\x0FF\x0FF\x0FF\x0"
 257            "Calibrer les balances:\x0FF\x0FF\x0FF";
C51 COMPILER V5.50,  LANGFR                                                                13/09/12  16:09:45  PAGE 5   

 258          
 259          // Podsvit
 260          byte code STR_BACKLIGHT[]=
 261             "Backlight:\x0FF\x0FF\x0FF\x0"
 262             "Eclairage:\x0FF\x0FF\x0FF";
 263          
 264          byte code STR_ON_OFF_AUTO[]=
 265             "Off\x0" "On\x0" "Automatic\x0"
 266             "Arr\x015t\x082\x0" "En marche\x0" "Automatique";
 267          
 268          // Kopie do a z pametoveho modulu
 269          byte code STR_INSERT_MODULE[] =
 270            "Insert a memory\x0FFmodule\x0"
 271            "Inserer un module\x0FFde memoire";
 272          byte code STR_NO_MODULE[] =
 273            "Memory module\x0FFis not present\x0"
 274            "Le module de memoire\x0FFn'est pas present";
 275          byte code STR_COPY_OK[] =
 276            "Copy successful\x0"
 277            "Copie reussie";
 278          byte code STR_COPY_PROGRESS[] =
 279            "Progress:\x0FF\x0FF\x0FF\x0"
 280            "Progression:\x0FF\x0FF\x0FF";
 281          byte code STR_CANT_COPY_CONFIG[] =
 282            "Cannot read\x0FFconfiguration\x0"
 283            "La configuration ne\x0FFpeut pas etre lue";
 284          
 285          // Gsm
 286          
 287          #ifdef VERSION_GSM          // Pouze pokud pouziva GSM
 288          
 289          byte code STR_GSM_USE[] =
 290            "Use GSM\x0FFcommunication?\x0"
 291            "Utiliser appel GSM?";
 292          byte code STR_GSM_MIDNIGHT[] =
 293            "Send statistics\x0FFat midnight?\x0"
 294            "Envoyer les donnees\x0FFa minuit?";
 295          byte code STR_GSM_PERIOD1[] =
 296            "Period 1:\x0FF\x0FF\x0FF\x0"
 297            "P\x082riode 1:\x0FF\x0FF\x0FF";
 298          byte code STR_GSM_DAY1[] =
 299            "Day 1:\x0FF\x0FF\x0FF\x0"
 300            "Jour 1:\x0FF\x0FF\x0FF";
 301          byte code STR_GSM_PERIOD2[] =
 302            "Period 2:\x0FF\x0FF\x0FF\x0"
 303            "P\x082riode 2:\x0FF\x0FF\x0FF";
 304          byte code STR_GSM_PERIOD_DAYS[] =
 305            "days\x0"
 306            "Jours";
 307          byte code STR_GSM_SEND_TIME[] =
 308            "Time of sending:\x0FF\x0FF\x0FF\x0"
 309            "Heure d'envoi:\x0FF\x0FF\x0FF";
 310          byte code STR_GSM_REQUEST[] =
 311            "Send data\x0FFupon request?\x0"
 312            "Envoyer les donnees\x0FFa la demande?";
 313          byte code STR_GSM_CHECK_NUMBERS[] =
 314            "Check numbers?\x0"
 315            "Verifier les numeros?";
 316          byte code STR_GSM_SIGNAL_STENGTH[] =
 317            "Signal strength:\x0FF\x0FF\x0FF\x0"
 318            "Force du signal:\x0FF\x0FF\x0FF";
 319          byte code STR_GSM_PIN_CODE[] =
 320            "PIN code:\x0FF\x0FF\x0FF\x0"
 321            "Code PIN:\x0FF\x0FF\x0FF";
 322          byte code STR_GSM_NUMBER[] =
 323            "Phone number:\x0FF\x0FF\x0FF\x0"
C51 COMPILER V5.50,  LANGFR                                                                13/09/12  16:09:45  PAGE 6   

 324            "Numero de telephone:\x0FF\x0FF\x0FF";
 325          byte code STR_GSM_ACTIVE_NUMBERS[] =
 326            "Active numbers:\x0FF\x0FF\x0FF\x0"
 327            "Numeros utilisables:\x0FF\x0FF\x0FF";
 328          
 329          #endif // VERSION_GSM
 330          
 331          // RS-485
 332          
 333          #if defined(VERSION_DACS_LW1) || defined(VERSION_MODBUS)
              
              byte code STR_RS485_ADDRESS[] =
                "Address:\x0FF\x0FF\x0FF\x0"
                "R\x082f\x082rence:\x0FF\x0FF\x0FF";
              byte code STR_RS485_SPEED[] =
                "Speed:\x0FF\x0FF\x0FF\x0"
                "Vitesse:\x0FF\x0FF\x0FF";
              byte code STR_RS485_SPEED_ITEMS[] =
                 "1200 Bd\x0" "2400 Bd\x0" "4800 Bd\x0" "9600 Bd\x0" "19200 Bd\x0" "38400 Bd\x0" "57600 Bd\x0" "115200 B
             -d";
              byte code STR_RS485_PARITY[] =
                "Parity:\x0FF\x0FF\x0FF\x0"
                "Parit\x082:\x0FF\x0FF\x0FF";
              byte code STR_RS485_PARITY_ITEMS[] =
                 "8-n-1\x0" "8-e-1\x0" "8-o-1\x0" "8-n-2";
              byte code STR_RS485_REPLY_DELAY[] =
                "Reply delay:\x0FF\x0FF\x0FF\x0"
                "Temps de r\x082ponse:\x0FF\x0FF\x0FF";
              byte code STR_RS485_MS[] =
                "ms\x0"
                "ms";
              
              #ifdef VERSION_MODBUS
              byte code STR_RS485_SILENT_INTERVAL[] =
                "Silent interval:\x0FF\x0FF\x0FF\x0"
                "Temporisation:\x0FF\x0FF\x0FF";
              byte code STR_RS485_PROTOCOL[] =
                "Protocol:\x0FF\x0FF\x0FF\x0"
                "Protocole:\x0FF\x0FF\x0FF";
              byte code STR_RS485_PROTOCOL_ITEMS[] =
                 "MODBUS RTU\x0" "MODBUS ASCII";
              #endif // VERSION_MODBUS
              
              #endif // VERSION_DACS_LW1, VERSION_MODBUS
 367          
 368          
 369          
 370          //-----------------------------------------------------------------------------
 371          // Hlavni Menu
 372          //-----------------------------------------------------------------------------
 373          
 374          byte code STR_MAIN_MENU_IDLE[] =
 375            // Eng
 376            "Start weighing\x0"
 377            "Archive\x0"
 378            "Compare\x0"
 379            "Copy data\x0"
 380            "Setup\x0"
 381            // Sp
 382            "Debut de la pesee\x0"
 383            "Archive\x0"
 384            "Comparer\x0"
 385            "Copier les donnees\x0"
 386            "Mise au point";
 387          
 388          byte code STR_MAIN_MENU_WAITING[] =
C51 COMPILER V5.50,  LANGFR                                                                13/09/12  16:09:45  PAGE 7   

 389            // Eng
 390            "Stop weighing\x0"
 391            "Archive\x0"
 392            "Compare\x0"
 393            "Copy data\x0"
 394            "Setup\x0"
 395            // Sp
 396            "Arr\x015ter la pesee\x0"
 397            "Archive\x0"
 398            "Comparer\x0"
 399            "Copier les donnees\x0"
 400            "Mise au point";
 401          
 402          byte code STR_MAIN_MENU_WEIGHING[] =
 403            // Eng
 404            "Pause weighing\x0"
 405            "Stop weighing\x0"
 406            "Archive\x0"
 407            "Compare\x0"
 408            "Copy data\x0"
 409            "Setup\x0"
 410            // Sp
 411            "Pause\x0"
 412            "Arr\x015ter la pesee\x0"
 413            "Archive\x0"
 414            "Comparer\x0"
 415            "Copier les donnees\x0"
 416            "Mise au point";
 417          
 418          byte code STR_MAIN_MENU_PAUSE[] =
 419            // Eng
 420            "Continue weighing\x0"
 421            "Stop weighing\x0"
 422            "Archive\x0"
 423            "Compare\x0"
 424            "Copy data\x0"
 425            "Setup\x0"
 426            // Sp
 427            "Continuer a peser\x0"
 428            "Arr\x015ter la pesee\x0"
 429            "Archive\x0"
 430            "Comparer\x0"
 431            "Copier les donnees\x0"
 432            "Mise au point";
 433          
 434          //-----------------------------------------------------------------------------
 435          // Menu nastaveni
 436          //-----------------------------------------------------------------------------
 437          
 438          byte code STR_MENU_SETUP_TITLE[] =
 439            "Setup\x0"
 440            "Mise au point";
 441          
 442          byte code STR_MENU_SETUP[] =
 443            // Eng
 444            "Date and time\x0"
 445            "Identification number\x0"
 446            "Flocks\x0"
 447            "Statistics\x0"
 448          #ifdef VERSION_GSM
 449            "GSM\x0"
 450          #else
                "RS-485\x0"
              #endif // VERSION_GSM
 453            "Scale\x0"
 454            "Backlight\x0"
C51 COMPILER V5.50,  LANGFR                                                                13/09/12  16:09:45  PAGE 8   

 455            "Read from module\x0"
 456            "Start online\x0"
 457            // Sp
 458            "Date et heure\x0"
 459            "Numero d'identification\x0"
 460            "Lots\x0"
 461            "Statistiques\x0"
 462          #ifdef VERSION_GSM
 463            "GSM\x0"
 464          #else
                "RS-485\x0"
              #endif // VERSION_GSM
 467            "Balances\x0"
 468            "Eclairage\x0"
 469            "Lecture du module\x0"
 470            "Debut mode en ligne";
 471          
 472          //-----------------------------------------------------------------------------
 473          // Menu hejna
 474          //-----------------------------------------------------------------------------
 475          
 476          byte code STR_MENU_SETUP_FLOCKS_TITLE[] =
 477            "Flocks\x0"
 478            "Lots";
 479          
 480          byte code STR_MENU_SETUP_FLOCKS[] =
 481            // Eng
 482            "New flock\x0"
 483            "Edit flock\x0"
 484            "Delete flock\x0"
 485            "Delete all flocks\x0"
 486            // Sp
 487            "Nouveau lot\x0"
 488            "Editer le lot\x0"
 489            "Supprimer le lot\x0"
 490            "Supprimer tous les lots";
 491          
 492          //-----------------------------------------------------------------------------
 493          // Menu vahy
 494          //-----------------------------------------------------------------------------
 495          
 496          byte code STR_MENU_SETUP_SCALE_TITLE[] =
 497            "Scale\x0"
 498            "Balances";
 499          
 500          byte code STR_MENU_SETUP_SCALE[] =
 501            // Eng
 502            "Saving parameters\x0"
 503            "Correction curve\x0"
 504            "Units\x0"
 505            "Calibration\x0"
 506            // Sp
 507            "Sauvegarde\x0"
 508            "Courbe de correction\x0"
 509            "Unit\x082\x0"
 510            "Calibrage";
 511          
 512          //-----------------------------------------------------------------------------
 513          // Menu GSM
 514          //-----------------------------------------------------------------------------
 515          
 516          #ifdef VERSION_GSM          // Pouze pokud pouziva GSM
 517          
 518          byte code STR_MENU_SETUP_GSM_TITLE[] =
 519            "GSM\x0"
 520            "GSM";
C51 COMPILER V5.50,  LANGFR                                                                13/09/12  16:09:45  PAGE 9   

 521          
 522          byte code STR_MENU_SETUP_GSM[] =
 523            // Eng
 524            "Settings\x0"
 525            "Numbers\x0"
 526            "Signal strength\x0"
 527            "PIN code\x0"
 528            // Sp
 529            "Mises au point\x0"
 530            "Numeros\x0"
 531            "Force du signal\x0"
 532            "Code PIN";
 533          
 534          #endif // VERSION_GSM
 535          
 536          //-----------------------------------------------------------------------------
 537          // Menu RS-485
 538          //-----------------------------------------------------------------------------
 539          
 540          #if defined(VERSION_DACS_LW1) || defined(VERSION_MODBUS)
              
              byte code STR_MENU_SETUP_RS485_TITLE[] =
                "RS-485\x0"
                "RS-485";
              
              byte code STR_MENU_SETUP_RS485[] =
                // Eng
                "Address\x0"
                "Speed\x0"
                "Parity\x0"
              #ifdef VERSION_MODBUS
                "Protocol\x0"
              #endif // VERSION_MODBUS
                "Delays\x0"
                // Sp
                "R\x082f\x082rence\x0"
                "Vitesse\x0"
                "Parit\x082\x0"
              #ifdef VERSION_MODBUS
                "Protocole\x0"
              #endif // VERSION_MODBUS
                "Attente";
              
              #endif // VERSION_DACS_LW1, VERSION_MODBUS
 565          
 566          //-----------------------------------------------------------------------------
 567          // Editace hejn
 568          //-----------------------------------------------------------------------------
 569          
 570          byte code STR_FLOCK_EXISTS[] =
 571            "The flock already exists.\x0FFEnter different number.\x0"
 572            "Le lot existe deja:\x0FFentrer un nombre\x0FFdifferent.";
 573          byte code STR_FLOCK_DOESNT_EXIST[] =
 574            "The selected flock\x0FFdoesn't exist.\x0FFSelect another number.\x0"
 575            "Le lot choisi n'existe\x0FFpas: selectionner\x0FFun autre nombre.";
 576          byte code STR_ENTER_FLOCK_NAME[] =
 577            "Flock name:\x0FF\x0FF\x0FF\x0"
 578            "Nom du lot:\x0FF\x0FF\x0FF";
 579          byte code STR_USE_BOTH_GENDERS[] =   // Vyuziva i Menu.c
 580            "Use both genders?\x0"
 581            "Separer les sexes?";
 582          byte code STR_USE_CURVES[] =
 583            "Use growth curves?\x0"
 584            "Utiliser des courbes\x0FFde poids specifiques?";
 585          byte code STR_PREFACE_CURVE_FEMALES[] =
 586            "Now you can enter\x0FFa growth curve\x0FFfor females.\x0"
C51 COMPILER V5.50,  LANGFR                                                                13/09/12  16:09:45  PAGE 10  

 587            "Maintenant programmer\x0FFune courbe de croissance\x0FFfemelles";
 588          byte code STR_PREFACE_CURVE_MALES[] =
 589            "Now you can enter\x0FFa growth curve\x0FFfor males.\x0"
 590            "Maintenant programmer\x0FFune courbe de croissance\x0FFm\x011les";
 591          byte code STR_PREFACE_CURVE[] =
 592            "Now you can enter\x0FFa growth curve.\x0"
 593            "Maintenant programmer\x0FFune courbe\x0FFde croissance.";
 594          byte code STR_USE_TIME_LIMIT[] =
 595            "Limit the weighing\x0FFby time?\x0"
 596            "Limiter le temps\x0FFde pesee?";
 597          byte code STR_LIMIT_FROM[] =
 598            "Weigh from:\x0FF\x0FF\x0FF\x0"
 599            "Pesee \x010 partir de:\x0FF\x0FF\x0FF";
 600          byte code STR_LIMIT_TILL[] =
 601            "Weigh till:\x0FF\x0FF\x0FF\x0"
 602            "Pesee jusqu'a:\x0FF\x0FF\x0FF";
 603          byte code STR_LIMIT_TIME[] =
 604            "Hours\x0"
 605            "Heures";
 606          
 607          byte code STR_INITIAL_WEIGHT[] =
 608            "Initial weight:\x0FF\x0FF\x0FF\x0"
 609            "Poids initial:\x0FF\x0FF\x0FF";
 610          byte code STR_INITIAL_WEIGHT_FEMALES[] =
 611            "Initial weight\x0FFfor females:\x0FF\x0FF\x0"
 612            "Poids initial\x0FFpour femelles:\x0FF\x0FF";
 613          byte code STR_INITIAL_WEIGHT_MALES[] =
 614            "Initial weight\x0FFfor males:\x0FF\x0FF\x0"
 615            "Poids initial\x0FFpour males:\x0FF\x0FF";
 616          
 617          byte code STR_NO_FLOCK_FOUND[] =
 618            "No flock found\x0"
 619            "Pas de lot\x0FFen memoire";
 620          byte code STR_CHOOSE_FLOCK[] =
 621            "Choose a flock:\x0FF\x0FF\x0FF\x0"
 622            "Choisir un lot:\x0FF\x0FF\x0FF";
 623          byte code STR_NONAME[] =
 624            "no name\x0"
 625            "Pas de nom";
 626          
 627          // ---------------------------------------------------------------------------------------------
 628          // Editace rustove krivky
 629          // ---------------------------------------------------------------------------------------------
 630          
 631          byte code STR_SAVE[] =
 632            "Save\x0"
 633            "Sauveg.";
 634          byte code STR_DELETE[] =
 635            "Delete\x0"
 636            "Effacer";
 637          byte code STR_QUIT[] =
 638            "Quit\x0"
 639            "Quitter";
 640          byte code STR_NEXT[] =
 641            "Next\x0"
 642            "Suivant";
 643          byte code STR_ADD[] =
 644            "Add\x0"
 645            "Ajouter";
 646          byte code STR_CHANGE[] =
 647            "Change\x0"
 648            "Modifier";
 649          byte code STR_MOVE[] =
 650            "Move\x0"
 651            "Deplac.";
 652          byte code STR_DAY_COLON[] =
C51 COMPILER V5.50,  LANGFR                                                                13/09/12  16:09:45  PAGE 11  

 653            "Day:\x0"
 654            "Jour:";
 655          byte code STR_WEIGHT_COLON[] =
 656            "Weight:\x0"
 657            "Poids:";
 658          byte code STR_CURVE_FULL[] =
 659            "The curve is full\x0"
 660            "La courbe est satur\x082e";
 661          
 662          byte code STR_CURVE_DAY_EXISTS[] =
 663            "The day already exists.\x0FFOverwrite?\x0"
 664            "Ce jour existe deja.\x0FFLe remplacer?";
 665          byte code STR_CURVE_DELETE[] =
 666            "Delete the selected\x0FFday from the table?\x0"
 667            "Supprimer le jour\x0FFchoisi du tableau?";
 668          
 669          //-----------------------------------------------------------------------------
 670          // SMS - Pozor, nevyuzivat zadne diakriticke znaky
 671          //-----------------------------------------------------------------------------
 672          
 673          byte code STR_SMS_SCALES[] =
 674            "SCALE \x0"
 675            "BALANCE ";
 676          byte code STR_SMS_DAY[] =
 677            "DAY \x0"
 678            "JOUR ";
 679          byte code STR_SMS_FEMALE[] =
 680            "FEMALES: \x0"
 681            "FEMELLE: ";
 682          byte code STR_SMS_MALE[] =
 683            "MALES: \x0"
 684            "MALE: ";
 685          byte code STR_SMS_CNT[] =
 686            "Cnt \x0"
 687            "Nb ";
 688          byte code STR_SMS_AVG[] =
 689            "Avg \x0"
 690            "Moy ";
 691          byte code STR_SMS_GAIN[] =
 692            "Gain \x0"
 693            "GMQ ";
 694          byte code STR_SMS_SIG[] =
 695            "Sig \x0"
 696            "Ety ";
 697          byte code STR_SMS_CV[] =
 698            "Cv \x0"
 699            "Cv ";
 700          byte code STR_SMS_UNI[] =
 701            "Uni \x0"
 702            "Hom ";
 703          
 704          byte code STR_SMS_STOPPED[] =
 705            "STOPPED\x0"
 706            "ARRET";
 707          byte code STR_SMS_WAITING[] =
 708            "WAITING\x0"
 709            "EN ATTENTE";
 710          byte code STR_SMS_NODATA[] =
 711            "NO DATA\x0"
 712            "PAS DE DONNEES";
 713          
 714          // ---------------------------------------------------------------------------------------------
 715          // Editace korekcni krivky
 716          // ---------------------------------------------------------------------------------------------
 717          
 718          byte code STR_CORRECTION_USE[] =
C51 COMPILER V5.50,  LANGFR                                                                13/09/12  16:09:45  PAGE 12  

 719            "Use correction curve?\x0"
 720            "Utiliser la courbe\x0FFde correction?";
 721          
 722          byte code STR_CORRECTION_DAY1[] =
 723            "Day 1:\x0FF\x0FF\x0FF\x0"
 724            "Jour 1:\x0FF\x0FF\x0FF";
 725          
 726          byte code STR_CORRECTION_DAY2[] =
 727            "Day 2:\x0FF\x0FF\x0FF\x0"
 728            "Jour 2:\x0FF\x0FF\x0FF";
 729          
 730          byte code STR_CORRECTION_CORRECTION[] =
 731            "Correction:\x0FF\x0FF\x0FF\x0"
 732            "Correction:\x0FF\x0FF\x0FF";
 733          
 734          
 735          
 736          #endif
C51 COMPILER V5.50,  LANGFR                                                                13/09/12  16:09:45  PAGE 13  

ASSEMBLY LISTING OF GENERATED OBJECT CODE




MODULE INFORMATION:   STATIC OVERLAYABLE
   CODE SIZE        =   ----    ----
   CONSTANT SIZE    =   5755    ----
   XDATA SIZE       =   ----    ----
   PDATA SIZE       =   ----    ----
   DATA SIZE        =   ----    ----
   IDATA SIZE       =   ----    ----
   BIT SIZE         =   ----    ----
END OF MODULE INFORMATION.


C51 COMPILATION COMPLETE.  0 WARNING(S),  0 ERROR(S)
