C51 COMPILER V5.50,  FARRAY                                                                24/07/12  10:33:53  PAGE 1   


DOS C51 COMPILER V5.50, COMPILATION OF MODULE FARRAY
OBJECT MODULE PLACED IN ..\MODULY\FIFO\FARRAY.OBJ
COMPILER INVOKED BY: E:\C51_V5.5\BIN\C51.EXE ..\MODULY\FIFO\FARRAY.C51 CD DB

stmt level    source

   1          //*****************************************************************************
   2          //
   3          //    FArray.c - FIFO array module
   4          //    Version 1.1, (c) Vymos
   5          //
   6          //*****************************************************************************
   7          
   8          
   9          /*
  10          
  11          Verze 1.1:
  12            - 7.6.2005: Pridan watchdog do fce FarReset(), pri count = 50 a size = 4 se to resetovalo, protoze ED2 n
             -ema strankovy zapis, tj. 200*10ms = 2sec.
  13          
  14          */
  15          
  16          #include "..\inc\FArray.h"
  17          #include "..\inc\Iep.h"
  18          
  19          #define FAR_INVALID_POSITION      0xFF               // neplatna pozice
  20          
  21          // Promenna <address> udava zacatek pole hodnot,
  22          // promenna <count> udava pocet prvku pole
  23          // promenna <size> je velikost prvku v bytech
  24          
  25          // Lokani funkce :
  26          
  27          static byte FindMarker( word address, byte count, byte size);
  28          // Vrati pozici markeru
  29          
  30          static TYesNo WriteMarker( word address, byte size);
  31          // Zapise znacku na pozici <address>
  32          
  33          //-----------------------------------------------------------------------------
  34          // Zapis
  35          //-----------------------------------------------------------------------------
  36          
  37          TYesNo FarWrite( dword value, word address, byte count, byte size)
  38          // Zapise hodnotu do interni EEPROM
  39          {
  40   1      byte     i;
  41   1      byte     pos;
  42   1      byte     offset;
  43   1      TFarData un;
  44   1      
  45   1         pos = FindMarker( address, count, size);
  46   1         if( pos == FAR_INVALID_POSITION){
  47   2            pos = 0;     // zkus zapis od prvni pozice
  48   2         }
  49   1         // nova pozice markeru :
  50   1         if( pos + 1 == count){
  51   2            // posledni pozice, marker na zacatek :
  52   2            WriteMarker( address, size);
  53   2         } else {
  54   2            // marker na nasledujici pozici
  55   2            offset = (pos + 1) * size;
  56   2            WriteMarker( address + offset, size);
  57   2         }
  58   1         // zapis dat :
C51 COMPILER V5.50,  FARRAY                                                                24/07/12  10:33:53  PAGE 2   

  59   1         offset = pos * size;
  60   1         un.dw  = value;
  61   1         if( !IepPageWriteStart()){
  62   2            return( NO);
  63   2         }
  64   1         for( i = 0; i < size; i++){
  65   2            IepPageWriteData( address + (offset + i), un.array[ i]);
  66   2         }
  67   1         IepPageWritePerform();
  68   1         return( YES);      // zapis markeru na pozici
  69   1      } // FarWrite
  70          
  71          //-----------------------------------------------------------------------------
  72          // Cteni
  73          //-----------------------------------------------------------------------------
  74          
  75          dword FarRead( word address, byte count, byte size)
  76          // Precte hodnotu z interni EEPROM
  77          {
  78   1      byte     pos;
  79   1      byte     offset;
  80   1      byte     i;
  81   1      TFarData un;
  82   1      
  83   1         pos = FindMarker( address, count, size);
  84   1         if( pos == FAR_INVALID_POSITION){
  85   2            return( 0);     // nenalezena znacka, vrat cokoli
  86   2         }
  87   1         if( pos == 0){
  88   2            // znacka na prvni pozici, data na posledni
  89   2            pos = count - 1;
  90   2         } else {
  91   2            // platna hodnota je pred znackou
  92   2            pos--;
  93   2         }
  94   1         offset = pos * size;
  95   1         un.dw  = 0;
  96   1         for( i = 0; i < size; i++){
  97   2            un.array[ i] = IepRead( address + (offset + i));
  98   2         }
  99   1         return( un.dw);
 100   1      } // FarRead
 101          
 102          #ifdef FAR_RESET
 103          //-----------------------------------------------------------------------------
 104          // Mazani obsahu
 105          //-----------------------------------------------------------------------------
 106          
 107          TYesNo FarReset( word address, byte count, byte size)
 108          // Vymaze celou oblast, zapise marker na prvni pozici
 109          {
 110   1      byte i;
 111   1      byte length;
 112   1      
 113   1         // mazani cele oblasti :
 114   1         length = count * size;
 115   1         if( !IepPageWriteStart()){
 116   2            return( NO);
 117   2         }
 118   1         for( i = 0; i < length; i++){
 119   2            IepPageWriteData( address + i, 0);
 120   2            WatchDog();       // Pridano 7.6.2005: pri count = 50 a size = 4 se to resetovalo, protoze ED2 nema 
             -strankovy zapis, tj. 200*10ms = 2sec.
 121   2         }
 122   1         IepPageWritePerform();
 123   1         // zapis markeru :
C51 COMPILER V5.50,  FARRAY                                                                24/07/12  10:33:53  PAGE 3   

 124   1         return( WriteMarker( address, size));
 125   1      } // FarReset
 126          #endif
 127          
 128          //-----------------------------------------------------------------------------
 129          // Hledani znacky
 130          //-----------------------------------------------------------------------------
 131          
 132          static byte FindMarker( word address, byte count, byte size)
 133          // Vrati pozici markeru
 134          {
 135   1      byte i, j;
 136   1      
 137   1         // znacka je ulozena jako FAR_MARKER 0 0 0 ...
 138   1         for( i = 0; i < count; i++, address += size){
 139   2            if( IepRead( address) != FAR_MARKER){
 140   3               continue;         // neni zacatek markeru
 141   3            }
 142   2            // na prvni pozici je MARKER, dalsi pozice :
 143   2            for( j = 1; j < size; j++){
 144   3                if( IepRead( address + j) != 0){
 145   4                   goto next;
 146   4                }
 147   3            }
 148   2            return( i);          // nasli jsme
 149   2      next :;                    // nesedi nektera z dalsich pozic
 150   2         }
 151   1         return( FAR_INVALID_POSITION);
 152   1      } // FindMarker
 153          
 154          //-----------------------------------------------------------------------------
 155          // Zapis znacky
 156          //-----------------------------------------------------------------------------
 157          
 158          static TYesNo WriteMarker( word address, byte size)
 159          // Zapise znacku na pozici <address>
 160          {
 161   1      byte i;
 162   1      
 163   1         if( !IepPageWriteStart()){
 164   2            return( NO);
 165   2         }
 166   1         IepPageWriteData( address, FAR_MARKER);
 167   1         for( i = 1; i < size; i++){
 168   2            IepPageWriteData( address + i, 0);
 169   2         }
 170   1         IepPageWritePerform();
 171   1         return( YES);
 172   1      } // WriteMarker
C51 COMPILER V5.50,  FARRAY                                                                24/07/12  10:33:53  PAGE 4   

ASSEMBLY LISTING OF GENERATED OBJECT CODE


             ; FUNCTION _FarWrite (BEGIN)
0000 8F00    R     MOV     value+03H,R7
0002 8E00    R     MOV     value+02H,R6
0004 8D00    R     MOV     value+01H,R5
0006 8C00    R     MOV     value,R4
                                           ; SOURCE LINE # 37
                                           ; SOURCE LINE # 39
                                           ; SOURCE LINE # 45
0008 AF00    R     MOV     R7,address+01H
000A AE00    R     MOV     R6,address
000C AD00    R     MOV     R5,count
000E AB00    R     MOV     R3,size
0010 120000  R     LCALL   _FindMarker
0013 8F00    R     MOV     pos,R7
                                           ; SOURCE LINE # 46
0015 E500    R     MOV     A,pos
0017 B4FF03        CJNE    A,#0FFH,?C0001
                                           ; SOURCE LINE # 47
001A E4            CLR     A
001B F500    R     MOV     pos,A
                                           ; SOURCE LINE # 48
001D         ?C0001:
                                           ; SOURCE LINE # 50
001D E500    R     MOV     A,pos
001F 2401          ADD     A,#01H
0021 FF            MOV     R7,A
0022 E4            CLR     A
0023 33            RLC     A
0024 FE            MOV     R6,A
0025 7C00          MOV     R4,#00H
0027 EF            MOV     A,R7
0028 B5000F  R     CJNE    A,count,?C0002
002B EC            MOV     A,R4
002C B5060B        CJNE    A,AR6,?C0002
                                           ; SOURCE LINE # 52
002F AF00    R     MOV     R7,address+01H
0031 AE00    R     MOV     R6,address
0033 AD00    R     MOV     R5,size
0035 120000  R     LCALL   _WriteMarker
                                           ; SOURCE LINE # 53
0038 8017          SJMP    ?C0003
003A         ?C0002:
                                           ; SOURCE LINE # 55
003A E500    R     MOV     A,pos
003C 04            INC     A
003D 8500F0  R     MOV     B,size
0040 A4            MUL     AB
0041 F500    R     MOV     offset,A
                                           ; SOURCE LINE # 56
0043 7E00          MOV     R6,#00H
0045 2500    R     ADD     A,address+01H
0047 FF            MOV     R7,A
0048 EE            MOV     A,R6
0049 3500    R     ADDC    A,address
004B FE            MOV     R6,A
004C AD00    R     MOV     R5,size
004E 120000  R     LCALL   _WriteMarker
                                           ; SOURCE LINE # 57
0051         ?C0003:
                                           ; SOURCE LINE # 59
0051 E500    R     MOV     A,pos
0053 8500F0  R     MOV     B,size
0056 A4            MUL     AB
C51 COMPILER V5.50,  FARRAY                                                                24/07/12  10:33:53  PAGE 5   

0057 F500    R     MOV     offset,A
                                           ; SOURCE LINE # 60
0059 AE00    R     MOV     R6,value+02H
005B AD00    R     MOV     R5,value+01H
005D AC00    R     MOV     R4,value
005F 850000  R     MOV     un+03H,value+03H
0062 8E00    R     MOV     un+02H,R6
0064 8D00    R     MOV     un+01H,R5
0066 8C00    R     MOV     un,R4
                                           ; SOURCE LINE # 61
0068 120000  E     LCALL   IepPageWriteStart
006B 4002          JC      ?C0004
                                           ; SOURCE LINE # 62
006D C3            CLR     C
006E 22            RET     
                                           ; SOURCE LINE # 63
006F         ?C0004:
                                           ; SOURCE LINE # 64
006F E4            CLR     A
0070 F500    R     MOV     i,A
0072         ?C0006:
0072 E500    R     MOV     A,i
0074 C3            CLR     C
0075 9500    R     SUBB    A,size
0077 501E          JNC     ?C0007
                                           ; SOURCE LINE # 65
0079 AF00    R     MOV     R7,i
007B E500    R     MOV     A,offset
007D 2500    R     ADD     A,i
007F FF            MOV     R7,A
0080 E4            CLR     A
0081 33            RLC     A
0082 CF            XCH     A,R7
0083 2500    R     ADD     A,address+01H
0085 CF            XCH     A,R7
0086 3500    R     ADDC    A,address
0088 FE            MOV     R6,A
0089 7400    R     MOV     A,#un
008B 2500    R     ADD     A,i
008D F8            MOV     R0,A
008E E6            MOV     A,@R0
008F FD            MOV     R5,A
0090 120000  E     LCALL   _IepRawWriteByte
                                           ; SOURCE LINE # 66
0093 0500    R     INC     i
0095 80DB          SJMP    ?C0006
0097         ?C0007:
                                           ; SOURCE LINE # 68
0097 D3            SETB    C
                                           ; SOURCE LINE # 69
0098         ?C0005:
0098 22            RET     
             ; FUNCTION _FarWrite (END)

             ; FUNCTION _FarRead (BEGIN)
0000 8E00    R     MOV     address,R6
0002 8F00    R     MOV     address+01H,R7
0004 8D00    R     MOV     count,R5
0006 8B00    R     MOV     size,R3
                                           ; SOURCE LINE # 75
                                           ; SOURCE LINE # 77
                                           ; SOURCE LINE # 83
0008 120000  R     LCALL   _FindMarker
;---- Variable 'pos' assigned to Register 'R3' ----
000B AB07          MOV     R3,AR7
                                           ; SOURCE LINE # 84
C51 COMPILER V5.50,  FARRAY                                                                24/07/12  10:33:53  PAGE 6   

000D BBFF09        CJNE    R3,#0FFH,?C0009
                                           ; SOURCE LINE # 85
0010 7F00          MOV     R7,#00H
0012 7E00          MOV     R6,#00H
0014 7D00          MOV     R5,#00H
0016 7C00          MOV     R4,#00H
0018 22            RET     
                                           ; SOURCE LINE # 86
0019         ?C0009:
                                           ; SOURCE LINE # 87
0019 EB            MOV     A,R3
001A 7006          JNZ     ?C0011
                                           ; SOURCE LINE # 89
001C E500    R     MOV     A,count
001E 14            DEC     A
001F FB            MOV     R3,A
                                           ; SOURCE LINE # 90
0020 8001          SJMP    ?C0012
0022         ?C0011:
                                           ; SOURCE LINE # 92
0022 1B            DEC     R3
                                           ; SOURCE LINE # 93
0023         ?C0012:
                                           ; SOURCE LINE # 94
0023 EB            MOV     A,R3
0024 8500F0  R     MOV     B,size
0027 A4            MUL     AB
0028 F500    R     MOV     offset,A
                                           ; SOURCE LINE # 95
002A 750000  R     MOV     un+03H,#00H
002D 750000  R     MOV     un+02H,#00H
0030 750000  R     MOV     un+01H,#00H
0033 750000  R     MOV     un,#00H
                                           ; SOURCE LINE # 96
0036 E4            CLR     A
0037 F500    R     MOV     i,A
0039         ?C0013:
0039 E500    R     MOV     A,i
003B C3            CLR     C
003C 9500    R     SUBB    A,size
003E 501E          JNC     ?C0014
                                           ; SOURCE LINE # 97
0040 AF00    R     MOV     R7,i
0042 E500    R     MOV     A,offset
0044 2500    R     ADD     A,i
0046 FF            MOV     R7,A
0047 E4            CLR     A
0048 33            RLC     A
0049 CF            XCH     A,R7
004A 2500    R     ADD     A,address+01H
004C CF            XCH     A,R7
004D 3500    R     ADDC    A,address
004F FE            MOV     R6,A
0050 120000  E     LCALL   _IepRead
0053 7400    R     MOV     A,#un
0055 2500    R     ADD     A,i
0057 F8            MOV     R0,A
0058 A607          MOV     @R0,AR7
                                           ; SOURCE LINE # 98
005A 0500    R     INC     i
005C 80DB          SJMP    ?C0013
005E         ?C0014:
                                           ; SOURCE LINE # 99
005E AF00    R     MOV     R7,un+03H
0060 AE00    R     MOV     R6,un+02H
0062 AD00    R     MOV     R5,un+01H
C51 COMPILER V5.50,  FARRAY                                                                24/07/12  10:33:53  PAGE 7   

0064 AC00    R     MOV     R4,un
                                           ; SOURCE LINE # 100
0066         ?C0010:
0066 22            RET     
             ; FUNCTION _FarRead (END)

             ; FUNCTION _FarReset (BEGIN)
0000 8E00    R     MOV     address,R6
0002 8F00    R     MOV     address+01H,R7
0004 8B00    R     MOV     size,R3
;---- Variable 'count' assigned to Register 'R5' ----
                                           ; SOURCE LINE # 107
                                           ; SOURCE LINE # 109
                                           ; SOURCE LINE # 114
0006 ED            MOV     A,R5
0007 8500F0  R     MOV     B,size
000A A4            MUL     AB
000B F500    R     MOV     length,A
                                           ; SOURCE LINE # 115
000D 120000  E     LCALL   IepPageWriteStart
0010 4002          JC      ?C0016
                                           ; SOURCE LINE # 116
0012 C3            CLR     C
0013 22            RET     
                                           ; SOURCE LINE # 117
0014         ?C0016:
                                           ; SOURCE LINE # 118
0014 E4            CLR     A
0015 F500    R     MOV     i,A
0017         ?C0018:
0017 E500    R     MOV     A,i
0019 C3            CLR     C
001A 9500    R     SUBB    A,length
001C 501A          JNC     ?C0019
                                           ; SOURCE LINE # 119
001E 7E00          MOV     R6,#00H
0020 E500    R     MOV     A,address+01H
0022 2500    R     ADD     A,i
0024 FF            MOV     R7,A
0025 EE            MOV     A,R6
0026 3500    R     ADDC    A,address
0028 FE            MOV     R6,A
0029 E4            CLR     A
002A FD            MOV     R5,A
002B 120000  E     LCALL   _IepRawWriteByte
                                           ; SOURCE LINE # 120
002E 75A61E        MOV     WDTRST,#01EH
0031 75A6E1        MOV     WDTRST,#0E1H
                                           ; SOURCE LINE # 121
0034 0500    R     INC     i
0036 80DF          SJMP    ?C0018
0038         ?C0019:
                                           ; SOURCE LINE # 124
0038 AF00    R     MOV     R7,address+01H
003A AE00    R     MOV     R6,address
003C AD00    R     MOV     R5,size
003E 120000  R     LCALL   _WriteMarker
                                           ; SOURCE LINE # 125
0041         ?C0017:
0041 22            RET     
             ; FUNCTION _FarReset (END)

             ; FUNCTION _FindMarker (BEGIN)
0000 8E00    R     MOV     address,R6
0002 8F00    R     MOV     address+01H,R7
0004 8D00    R     MOV     count,R5
C51 COMPILER V5.50,  FARRAY                                                                24/07/12  10:33:53  PAGE 8   

0006 8B00    R     MOV     size,R3
                                           ; SOURCE LINE # 132
                                           ; SOURCE LINE # 134
                                           ; SOURCE LINE # 138
0008 E4            CLR     A
0009 F500    R     MOV     i,A
000B         ?C0021:
000B E500    R     MOV     A,i
000D C3            CLR     C
000E 9500    R     SUBB    A,count
0010 503D          JNC     ?C0022
                                           ; SOURCE LINE # 139
0012 AF00    R     MOV     R7,address+01H
0014 AE00    R     MOV     R6,address
0016 120000  E     LCALL   _IepRead
0019 EF            MOV     A,R7
001A 6480          XRL     A,#080H
001C 7022          JNZ     ?C0023
                                           ; SOURCE LINE # 140
                                           ; SOURCE LINE # 141
001E         ?C0024:
                                           ; SOURCE LINE # 143
001E 750001  R     MOV     j,#01H
0021         ?C0025:
0021 E500    R     MOV     A,j
0023 C3            CLR     C
0024 9500    R     SUBB    A,size
0026 5015          JNC     ?C0026
                                           ; SOURCE LINE # 144
0028 7E00          MOV     R6,#00H
002A E500    R     MOV     A,address+01H
002C 2500    R     ADD     A,j
002E FF            MOV     R7,A
002F EE            MOV     A,R6
0030 3500    R     ADDC    A,address
0032 FE            MOV     R6,A
0033 120000  E     LCALL   _IepRead
0036 EF            MOV     A,R7
0037 7007          JNZ     ?C0023
                                           ; SOURCE LINE # 145
                                           ; SOURCE LINE # 146
                                           ; SOURCE LINE # 147
0039         ?C0027:
0039 0500    R     INC     j
003B 80E4          SJMP    ?C0025
003D         ?C0026:
                                           ; SOURCE LINE # 148
003D AF00    R     MOV     R7,i
003F 22            RET     
                                           ; SOURCE LINE # 149
                                           ; SOURCE LINE # 150
0040         ?C0023:
0040 0500    R     INC     i
0042 E500    R     MOV     A,size
0044 2500    R     ADD     A,address+01H
0046 F500    R     MOV     address+01H,A
0048 E4            CLR     A
0049 3500    R     ADDC    A,address
004B F500    R     MOV     address,A
004D 80BC          SJMP    ?C0021
004F         ?C0022:
                                           ; SOURCE LINE # 151
004F 7FFF          MOV     R7,#0FFH
                                           ; SOURCE LINE # 152
0051         ?C0030:
0051 22            RET     
C51 COMPILER V5.50,  FARRAY                                                                24/07/12  10:33:53  PAGE 9   

             ; FUNCTION _FindMarker (END)

             ; FUNCTION _WriteMarker (BEGIN)
0000 8E00    R     MOV     address,R6
0002 8F00    R     MOV     address+01H,R7
0004 8D00    R     MOV     size,R5
                                           ; SOURCE LINE # 158
                                           ; SOURCE LINE # 160
                                           ; SOURCE LINE # 163
0006 120000  E     LCALL   IepPageWriteStart
0009 4002          JC      ?C0031
                                           ; SOURCE LINE # 164
000B C3            CLR     C
000C 22            RET     
                                           ; SOURCE LINE # 165
000D         ?C0031:
                                           ; SOURCE LINE # 166
000D AF00    R     MOV     R7,address+01H
000F AE00    R     MOV     R6,address
0011 7D80          MOV     R5,#080H
0013 120000  E     LCALL   _IepRawWriteByte
                                           ; SOURCE LINE # 167
0016 750001  R     MOV     i,#01H
0019         ?C0033:
0019 E500    R     MOV     A,i
001B C3            CLR     C
001C 9500    R     SUBB    A,size
001E 5014          JNC     ?C0034
                                           ; SOURCE LINE # 168
0020 7E00          MOV     R6,#00H
0022 E500    R     MOV     A,address+01H
0024 2500    R     ADD     A,i
0026 FF            MOV     R7,A
0027 EE            MOV     A,R6
0028 3500    R     ADDC    A,address
002A FE            MOV     R6,A
002B E4            CLR     A
002C FD            MOV     R5,A
002D 120000  E     LCALL   _IepRawWriteByte
                                           ; SOURCE LINE # 169
0030 0500    R     INC     i
0032 80E5          SJMP    ?C0033
0034         ?C0034:
                                           ; SOURCE LINE # 171
0034 D3            SETB    C
                                           ; SOURCE LINE # 172
0035         ?C0032:
0035 22            RET     
             ; FUNCTION _WriteMarker (END)



MODULE INFORMATION:   STATIC OVERLAYABLE
   CODE SIZE        =    458    ----
   CONSTANT SIZE    =   ----    ----
   XDATA SIZE       =   ----    ----
   PDATA SIZE       =   ----    ----
   DATA SIZE        =   ----      40
   IDATA SIZE       =   ----    ----
   BIT SIZE         =   ----    ----
END OF MODULE INFORMATION.


C51 COMPILATION COMPLETE.  0 WARNING(S),  0 ERROR(S)
