^C:\USERS\IVO\DOCUMENTS\VISUAL STUDIO 2010\PROJECTS\HIDLIBTEST\HIDLIBTEST\DEBUG\HIDLIBTEST.EXE.EMBED.MANIFEST.RES|C:\USERS\IVO\DOCUMENTS\VISUAL STUDIO 2010\PROJECTS\HIDLIBTEST\HIDLIBTEST\DEBUG\MAIN.OBJ|C:\USERS\IVO\DOCUMENTS\VISUAL STUDIO 2010\PROJECTS\HIDLIBTEST\HIDLIBTEST\DEBUG\PERFORMANCE.OBJ
C:\USERS\IVO\DOCUMENTS\VISUAL STUDIO 2010\PROJECTS\HIDLIBTEST\DEBUG\HIDLIBTEST.ILK
C:\USERS\IVO\DOCUMENTS\VISUAL STUDIO 2010\PROJECTS\HIDLIBTEST\DEBUG\HIDLIBTEST.EXE
C:\USERS\IVO\DOCUMENTS\VISUAL STUDIO 2010\PROJECTS\HIDLIBTEST\HIDLIBTEST\DEBUG\HIDLIBTEST.EXE.INTERMEDIATE.MANIFEST
C:\USERS\IVO\DOCUMENTS\VISUAL STUDIO 2010\PROJECTS\HIDLIBTEST\DEBUG\HIDLIBTEST.PDB
