C51 COMPILER V5.50,  MAIN                                                                  12/10/09  13:17:38  PAGE 1   


DOS C51 COMPILER V5.50, COMPILATION OF MODULE MAIN
OBJECT MODULE PLACED IN MAIN.OBJ
COMPILER INVOKED BY: E:\C51_V5.5\BIN\C51.EXE MAIN.C51 CD DB

stmt level    source

   1          //*****************************************************************************
   2          //
   3          //    Main.c51 -  Hermes1r main
   4          //    Verze 1.00  P.Veit
   5          //
   6          //*****************************************************************************
   7          
   8          
   9          /*
  10          
  11           Zmeny pisu u vysilace
  12          
  13           */
  14          
  15          #include "Hardware.h"
  16          #include "Hermes1r.h"
  17          #include "Signal.h"                       // Sila signalu
  18          #include "Cal.h"                          // Kalibrace
  19          #include "Ain.h"                          // Analogove vstupy
  20          #include "Accu.h"                         // Lowbat a stav akumulatoru
  21          #include "..\Hermes1\Beep.h"              // Repro v jednotce
  22          #include "..\Hermes1\Hermes1.h"           // DISPLAY_ALL
  23          #include "..\Hermes1\Podsvit.h"           // Roznuti dospleje po stisku klavesy
  24          #include "..\Hermes1\Menu.h"              // Uzivatelske rozhrani
  25          #include "..\Hermes1\Cfg.h"               // Konfigurace
  26          #include "..\Hermes1\KbdCtl.h"            // Obsluha klavesnice
  27          #include "..\Hermes1\Alarm.h"             // Hlaseni poruchy
  28          
  29          #include "..\inc\System.h"     // "operacni system"
  30          #include "..\inc\Kbd.h"        // klavesnice
  31          #include "..\inc\bcd.h"        // BCD aritmetika
  32          #include "..\inc\Pca.h"        // zvuky pomoci PCA
  33          
  34          
  35          // Odpocet necinnosti :
  36          #define USER_EVENT_TIMEOUT 240    // Uzivatel neobsluhuje dele nez ... s - nastavil jsem to schvalne na 4 
             -minuty, tj. co nejdelsi
  37          
  38          #define NastavPocitadloSekundy() PocitadloSekundy = 1000/TIMER0_PERIOD   // Novy cyklus odpocitavani 1 sek
             -undy
  39          
  40          // Obsluha blikani :
  41          volatile byte BlinkCounter = BLINK_ON;   // Pocitadlo, ktere urcuje periodu blikani
  42          volatile bit  BlinkShow    = YES;        // Zda se ma prave zobrazit nebo skryt
  43          volatile bit  BlinkChange  = NO;         // Flag, ze se zmenil stav BlinkShow a ma se tedy roznout nebo zh
             -asnout => ma se zmenit stav
  44          
  45          // Promenne pro timer 1 sekundy
  46          volatile byte        PocitadloSekundy=0;   // Odpocitavani 1s
  47          volatile bit         UbehlaSekunda=0;      // Priznak odpocitani 1s
  48          static volatile bit  PocitatNecinnost=1;   // Zda mam pocitat necinnost klavesnice nebo ne
  49          static volatile byte _Timeout=0;           // Pocitani necinnosti
  50          
  51          // Rezim cinnosti
  52          typedef enum {
  53            EXECUTE_MEASURE,      // Normalni mereni
  54            EXECUTE_LANGUAGE,     // Nastaveni jazyka
  55            EXECUTE_CALIBRATION,  // Kalibrace akumulatoru a signalu
  56            EXECUTE_COUNT
C51 COMPILER V5.50,  MAIN                                                                  12/10/09  13:17:38  PAGE 2   

  57          } TExecuteMode;
  58          TExecuteMode __xdata__ ExecuteMode;
  59          
  60          // Globalni promenne
  61          TUn UN;
  62          
  63          //-----------------------------------------------------------------------------
  64          // Zpozdeni
  65          //-----------------------------------------------------------------------------
  66          
  67          void SysDelay( word ms)
  68          // Zpozdeni v milisekundach
  69          {
  70   1      byte m;                                                                     // m = R5, n = R6+R7
  71   1      
  72   1        while(ms > 0) {              // DELAY: SETB C/MOV A,R7/SUBB A,#0/MOV A,R6/SUBB A,#0/JC KONEC *7T*
  73   2      
  74   2      #if (FXTAL == 18432000L)
              
                  // Xtal 18.432 MHz v X2 modu, T = 0.325521 us
                  WDTRST=0x1E;
                  WDTRST=0xE1;
                  m = 255; do --m; while(m != 0);                                // MOV R5,#255/DJNZ R5,$ *511T*
                  m = 255; do --m; while(m != 0);                                // MOV R5,#255/DJNZ R5,$ *511T*
                  m = 253; do --m; while(m != 0);                                // MOV R5,#193/DJNZ R5,$ *387T*
                  // Pro X2 mod musim 2x tolik!!
                  m = 255; do --m; while(m != 0);                                // MOV R5,#255/DJNZ R5,$ *511T*
                  m = 255; do --m; while(m != 0);                                // MOV R5,#255/DJNZ R5,$ *511T*
                  m = 253; do --m; while(m != 0);                                // MOV R5,#193/DJNZ R5,$ *387T*
                  --ms;                          // MOV A,R7/DEC R7/JNZ ODSKOK/DEC R6/ODSKOK: SJMP DELAY *5T(4T)*
              
              #elif (FXTAL == 4912500L)
  89   2      
  90   2          // Xtal 4.9125 MHz v X2 modu, T = 1.221374 us
  91   2          WDTRST=0x1E;
  92   2          WDTRST=0xE1;
  93   2          m = 255; do --m; while(m != 0);                                // MOV R5,#255/DJNZ R5,$ *511T*
  94   2          m = 153; do --m; while(m != 0);                                // MOV R5,#255/DJNZ R5,$ *511T*
  95   2          --ms;                          // MOV A,R7/DEC R7/JNZ ODSKOK/DEC R6/ODSKOK: SJMP DELAY *5T(4T)*
  96   2      
  97   2      #else
              
                #error "SysDelay: not defined for FXTAL"
              
              #endif // FXTAL
 102   2      
 103   2        }//while                                                                       // SJMP DELAY *2T*
 104   1      } // SysDelay
 105          
 106          //-----------------------------------------------------------------------------
 107          // Prepnuti kontextu na "operacni system" viz System.h
 108          //-----------------------------------------------------------------------------
 109          
 110          byte SysYield()
 111          // Prepnuti kontextu na operacni system. Vraci udalost
 112          {
 113   1      byte Key;
 114   1      
 115   1        WatchDog();                  // Zahybu watchdogem
 116   1      
 117   1        if (ExecuteMode == EXECUTE_MEASURE) {       // Probiha normalni cinnost (tj. nenastavuje jazyk ani nekal
             -ibruje)
 118   2          Hermes1rExecute();           // Obsluha prijmu dat
 119   2          // Casovac periodicke cinnosti :
 120   2          if (UbehlaSekunda) {
 121   3            // Ubehla 1 sekunda
C51 COMPILER V5.50,  MAIN                                                                  12/10/09  13:17:38  PAGE 3   

 122   3            UbehlaSekunda = 0;         // Shodim flag
 123   3            NastavPocitadloSekundy();  // Novy cyklus odpocitavani 1 sekundy
 124   3            if (PocitatNecinnost) {
 125   4              _Timeout++;              // Pocitam necinnost
 126   4            } else {
 127   4              _Timeout = 0;            // Nepocitam necinnost, stale nuluju
 128   4            }//else
 129   3            //--------- periodicka cinnost 1s :
 130   3            AlarmClear();              // Nulovani poruch na zacatku kazdeho mericiho cyklu
 131   3            PodsvitExecute();          // Ovladaniu podsvitu
 132   3            AccuRead();                // Nacte stav akumulatoru
 133   3            SignalExecute();           // Nacte silu signalu
 134   3            Hermes1rTimer1s();         // Tiknuti do terminalu
 135   3            Display |= DISPLAY_1SEC;   // Zobrazeni po 1sec
 136   3          }//if
 137   2        }//if
 138   1      
 139   1        // Casovac blikani
 140   1          if (BlinkChange) {
 141   2          // Uplynul cas blikani - bud mam skryt nebo zobrazit
 142   2          BlinkChange = 0;          // Shodim flag
 143   2          if (BlinkShow) {
 144   3            return K_BLINK_ON;
 145   3          } else {
 146   3            return K_BLINK_OFF;
 147   3          }//else
 148   2        }//if
 149   1      
 150   1        // Testovani necinnosti
 151   1        if (_Timeout > USER_EVENT_TIMEOUT) {
 152   2          _Timeout = 0;              // Zahajime dalsi cekani
 153   2          return K_TIMEOUT;
 154   2        }//if
 155   1      
 156   1        // cteni klavesy :
 157   1        Key = KbdGet();
 158   1        if (Key != K_IDLE) {
 159   2          _Timeout = 0;     // Konec necinnosti
 160   2          PodsvitAutoOn();  // Rozne automaticky podsvit
 161   2          return Key;
 162   2        }//if
 163   1      
 164   1        // Kdyz mam co zobrazit, poslu prikaz k prekresleni
 165   1        if (Display) {
 166   2          return K_REDRAW;
 167   2        }
 168   1      
 169   1        // Pokud dosel az sem, neprobehla zadna udalost
 170   1        return K_IDLE;
 171   1      } // SysYield
 172          
 173          //-----------------------------------------------------------------------------
 174          // Cekani na udalost viz System.h
 175          //-----------------------------------------------------------------------------
 176          
 177          byte SysWaitEvent()
 178          // Cekani na udalost
 179          {
 180   1      byte Key;
 181   1      
 182   1        while(1) {
 183   2          Key = SysYield();
 184   2          if (Key != K_IDLE) {
 185   3            return Key;  // Neprazdna udalost
 186   3          }//if
 187   2        }//while
C51 COMPILER V5.50,  MAIN                                                                  12/10/09  13:17:38  PAGE 4   

 188   1      } // SysWaitEvent
 189          /*
 190          //-----------------------------------------------------------------------------
 191          // Nulovani timeoutu viz System.h
 192          //-----------------------------------------------------------------------------
 193          
 194          void SysFlushTimeout( void)
 195          // Nuluje timeout klavesnice
 196          {
 197             _Timeout = 0;
 198             // nastavit kontext v modulu Kbd, aby nezustal vysilat treba K_REPEAT
 199          } // SysFlushTimeout
 200          */
 201          //-----------------------------------------------------------------------------
 202          // Zakaz timeoutu viz System.h
 203          //-----------------------------------------------------------------------------
 204          
 205          /*void SysDisableTimeout( void)
 206          // Zakaze timeout klavesnice
 207          {
 208             _Timeout = 0;
 209             PocitatNecinnost = NO;
 210          } // SysDisableTimeout*/
 211          
 212          //-----------------------------------------------------------------------------
 213          // Nulovani timeoutu viz System.h
 214          //-----------------------------------------------------------------------------
 215          
 216          /*void SysEnableTimeout( void)
 217          // Povoli timeout klavesnice
 218          {
 219             _Timeout = 0;
 220             PocitatNecinnost = YES;
 221          } // SysEnableTimeout*/
 222          
 223          //-----------------------------------------------------------------------------
 224          // Nastaveni timeoutu viz System.h
 225          //-----------------------------------------------------------------------------
 226          
 227          /*void SysSetTimeout( void)
 228          // Nastavi timeout klavesnice
 229          {
 230             _Timeout = USER_EVENT_TIMEOUT + 1;
 231          } // SysSetTimeout*/
 232          
 233          // ---------------------------------------------------------------------------------------------
 234          // Preruseni casovace
 235          // ---------------------------------------------------------------------------------------------
 236          
 237          static void Timer0Handler() interrupt INT_TIMER0 {
 238   1        // Prerusovaci rutina casovace 0
 239   1      
 240   1        SetTimer0(TIMER0_PERIOD);                   // S touto periodou
 241   1      
 242   1        // casovac blikani :
 243   1        BlinkCounter--;
 244   1        if (BlinkCounter == 0) {
 245   2           // docitali jsme, nastav na novou hodnotu
 246   2           BlinkChange = 1;                        // nastav priznak
 247   2           if (BlinkShow) {
 248   3             BlinkCounter = BLINK_OFF;          // bylo roznuto,  perioda pro zhasni
 249   3           } else {
 250   3             BlinkCounter = BLINK_ON;           // bylo zhasnuto, perioda pro rozsvit
 251   3           }//else
 252   2           BlinkShow = !BlinkShow;      // novy smer citani
 253   2        }//if
C51 COMPILER V5.50,  MAIN                                                                  12/10/09  13:17:38  PAGE 5   

 254   1        // vykonne funkce :
 255   1        CheckTrigger( PocitadloSekundy, UbehlaSekunda = 1);   // casovac 1 s
 256   1        PcaTrigger();                                         // handler asynchronniho pipani
 257   1        KbdTrigger();                                         // casovac klavesnice
 258   1        AlarmTrigger();                                       // Casovac alarmu (LED)
 259   1      } // Timer0Handler
 260          
 261          // ---------------------------------------------------------------------------------------------
 262          // Testovani pinu
 263          // ---------------------------------------------------------------------------------------------
 264          
 265          #define HybejPinem(Pin) \
 266            EA = 0;               \
 267            while (!EA) {         \
 268              Pin = 1;            \
 269              Delay(200);         \
 270              Pin = 0;            \
 271              Delay(100);         \
 272            }                     \
 273          
 274          #define HybejPinemRychle(Pin) \
 275            EA = 0;               \
 276            while (!EA) {         \
 277              Pin = 1;            \
 278              WatchDog();         \
 279              Pin = 0;            \
 280            }                     \
 281          
 282          // ---------------------------------------------------------------------------------------------
 283          // Main
 284          // ---------------------------------------------------------------------------------------------
 285          
 286          void main()
 287          {
 288   1      //  ZapniPodsvit();             // zapni podsvit
 289   1      
 290   1        TimingSetup();              // Nastaveni X2 modu
 291   1        EnableXRAM();               // Povoleni pristupu k vnitrni XRAM
 292   1        WDTPRG = WDTPRG_2090;       // start Watch Dogu
 293   1        WatchDog();
 294   1      
 295   1      //  HybejPinemRychle(AdcCLK);
 296   1      
 297   1        NastavPocitadloSekundy();   // Nastartuju odpocitavani sekundy
 298   1      
 299   1        // Inicializace vsech modulu
 300   1        Delay(300);                 // Pockam, dokud nedojde k vzrustu napajeni - nemam k dispozici lowbat
 301   1      
 302   1        AlarmInit();                // Alarm musim inicializovat jeste pred spustenim preruseni timeru (jinak na
             -hodne blikaji LED)
 303   1      
 304   1        EnableInts();               // Povoleni preruseni
 305   1        Timer0Run(TIMER0_PERIOD);   // Spust casovac 0
 306   1      
 307   1        BeepStartup();              // uvodni pipnuti
 308   1      
 309   1        CfgLoad();                  // Nacteni konfigurace z interni EEPROM
 310   1        CalLoad();                  // Kalibraci mam zvlast
 311   1      
 312   1        KbdInit();
 313   1        MenuInit();                 // inicializace zobrazeni (az za CfgLoad)
 314   1        PodsvitInit();              // Inicializace podsvitu
 315   1        AinInit();                  // inicializace AD prevodniku
 316   1        SignalInit();               // Mereni signalu
 317   1        AccuInit();                 // Mereni stavu akumulatoru
 318   1        Hermes1rInit();             // Prijem dat - volat az po CfgLoad()
C51 COMPILER V5.50,  MAIN                                                                  12/10/09  13:17:38  PAGE 6   

 319   1      
 320   1        // Po resetu otestuju, zda nechce zmenit jazyk
 321   1        switch (KbdPowerUpKey()) {
 322   2          case K_ENTER:
 323   2            // Nastaveni jazyka
 324   2            KbdBeepKey();                     // Indikace, ze muze klavesu pustit
 325   2            KbdPowerUpRelease();              // Cekam na pusteni
 326   2            ExecuteMode = EXECUTE_LANGUAGE;   // Nastavim flag, ze se nastavuje jazyk a vaha nema provadet zadno
             -u cinnost
 327   2            MenuLanguage();
 328   2            while (1);                        // Pockam na reset
 329   2      
 330   2          case K_ESC:
 331   2            // Kalibrace akumulatoru a sily signalu
 332   2            KbdBeepKey();                     // Indikace, ze muze klavesu pustit
 333   2            KbdPowerUpRelease();              // Cekam na pusteni
 334   2            ExecuteMode = EXECUTE_CALIBRATION;// Nastavim flag, ze se kalibruje a vaha nema provadet zadnou cinn
             -ost
 335   2            MenuCalibrateAccu();
 336   2            MenuCalibrateSignal();
 337   2            while (1);                        // Pockam na reset
 338   2      
 339   2          case K_UP:
 340   2            // Zobrazeni diagnostiky
 341   2            KbdBeepKey();                     // Indikace, ze muze klavesu pustit
 342   2            KbdPowerUpRelease();              // Cekam na pusteni
 343   2            DisplayMode = DISPLAY_MODE_DIAGNOSTICS;   // Budu zobrazovat diagnostiku
 344   2            // Pokracuju normalne dal
 345   2      
 346   2        }//switch
 347   1        ExecuteMode = EXECUTE_MEASURE;        // Normalni rezim
 348   1      
 349   1        SysDelay(3000);                       // Cekani pri zobrazeni loga
 350   1      
 351   1        // Hlavni smycka
 352   1        while(1) {
 353   2          switch(SysWaitEvent()) {
 354   3            case K_ENTER: {
 355   4              KbdBeepKey();
 356   4              if (DisplayMode == DISPLAY_MODE_CONNECTION ) {
 357   5                DisplayMode = DISPLAY_MODE_NORMAL;    // Jdu zpet do normalniho zobrazeni
 358   5              } else {
 359   5                MenuExecute();   // Rozjedu menu
 360   5                ZerKlavesu();
 361   5              }
 362   4              MenuRedraw(DISPLAY_ALL);
 363   4              break;
 364   4            }
 365   3            case K_RIGHT: {
 366   4              break;
 367   4            }
 368   3            case K_LEFT: {
 369   4              break;
 370   4            }
 371   3            case K_UP: {
 372   4              break;
 373   4            }
 374   3            case K_DOWN: {
 375   4              break;
 376   4            }
 377   3            case K_ESC: {
 378   4              KbdBeepKey();
 379   4              if (DisplayMode == DISPLAY_MODE_CONNECTION ) {
 380   5                DisplayMode = DISPLAY_MODE_NORMAL;    // Jdu zpet do normalniho zobrazeni
 381   5                MenuRedraw(DISPLAY_ALL);
 382   5              } else {
C51 COMPILER V5.50,  MAIN                                                                  12/10/09  13:17:38  PAGE 7   

 383   5                AlarmChange();                  // Zapnu/vypnu repro
 384   5                MenuRedraw(DISPLAY_1SEC);       // Ihned prekreslim
 385   5              }
 386   4              break;
 387   4            }
 388   3            case K_REDRAW: {
 389   4              MenuRedraw(Display);
 390   4              break;
 391   4            }
 392   3            case K_BLINK_ON:
 393   3            case K_BLINK_OFF: {
 394   4              MenuRedraw(DISPLAY_BLINK);
 395   4              break;
 396   4            }
 397   3          }//switch
 398   2        }//while
 399   1      } // main
C51 COMPILER V5.50,  MAIN                                                                  12/10/09  13:17:38  PAGE 8   

ASSEMBLY LISTING OF GENERATED OBJECT CODE


             ; FUNCTION _SysDelay (BEGIN)
;---- Variable 'ms' assigned to Register 'R6/R7' ----
                                           ; SOURCE LINE # 67
                                           ; SOURCE LINE # 69
0000         ?C0001:
                                           ; SOURCE LINE # 72
0000 D3            SETB    C
0001 EF            MOV     A,R7
0002 9400          SUBB    A,#00H
0004 EE            MOV     A,R6
0005 9400          SUBB    A,#00H
0007 4015          JC      ?C0009
                                           ; SOURCE LINE # 91
0009 75A61E        MOV     WDTRST,#01EH
                                           ; SOURCE LINE # 92
000C 75A6E1        MOV     WDTRST,#0E1H
                                           ; SOURCE LINE # 93
;---- Variable 'm' assigned to Register 'R5' ----
000F 7DFF          MOV     R5,#0FFH
0011         ?C0005:
0011 DDFE          DJNZ    R5,?C0005
                                           ; SOURCE LINE # 94
0013 7D99          MOV     R5,#099H
0015         ?C0008:
0015 DDFE          DJNZ    R5,?C0008
                                           ; SOURCE LINE # 95
0017 EF            MOV     A,R7
0018 1F            DEC     R7
0019 7001          JNZ     ?C0059
001B 1E            DEC     R6
001C         ?C0059:
                                           ; SOURCE LINE # 103
001C 80E2          SJMP    ?C0001
                                           ; SOURCE LINE # 104
001E         ?C0009:
001E 22            RET     
             ; FUNCTION _SysDelay (END)

             ; FUNCTION SysYield (BEGIN)
                                           ; SOURCE LINE # 110
                                           ; SOURCE LINE # 112
                                           ; SOURCE LINE # 113
                                           ; SOURCE LINE # 115
0000 75A61E        MOV     WDTRST,#01EH
0003 75A6E1        MOV     WDTRST,#0E1H
                                           ; SOURCE LINE # 117
0006 900000  R     MOV     DPTR,#ExecuteMode
0009 E0            MOVX    A,@DPTR
000A 702B          JNZ     ?C0010
                                           ; SOURCE LINE # 118
000C 120000  E     LCALL   Hermes1rExecute
                                           ; SOURCE LINE # 120
000F 300025  R     JNB     UbehlaSekunda,?C0010
                                           ; SOURCE LINE # 122
0012 C200    R     CLR     UbehlaSekunda
                                           ; SOURCE LINE # 123
0014 750032  R     MOV     PocitadloSekundy,#032H
                                           ; SOURCE LINE # 124
0017 300004  R     JNB     PocitatNecinnost,?C0012
                                           ; SOURCE LINE # 125
001A 0500    R     INC     _Timeout
                                           ; SOURCE LINE # 126
001C 8003          SJMP    ?C0013
C51 COMPILER V5.50,  MAIN                                                                  12/10/09  13:17:38  PAGE 9   

001E         ?C0012:
                                           ; SOURCE LINE # 127
001E E4            CLR     A
001F F500    R     MOV     _Timeout,A
                                           ; SOURCE LINE # 128
0021         ?C0013:
                                           ; SOURCE LINE # 130
0021 120000  E     LCALL   AlarmClear
                                           ; SOURCE LINE # 131
0024 120000  E     LCALL   PodsvitExecute
                                           ; SOURCE LINE # 132
0027 120000  E     LCALL   AccuRead
                                           ; SOURCE LINE # 133
002A 120000  E     LCALL   SignalExecute
                                           ; SOURCE LINE # 134
002D 120000  E     LCALL   Hermes1rTimer1s
                                           ; SOURCE LINE # 135
0030 900000  E     MOV     DPTR,#Display
0033 E0            MOVX    A,@DPTR
0034 4401          ORL     A,#01H
0036 F0            MOVX    @DPTR,A
                                           ; SOURCE LINE # 136
                                           ; SOURCE LINE # 137
0037         ?C0010:
                                           ; SOURCE LINE # 140
0037 30000B  R     JNB     BlinkChange,?C0014
                                           ; SOURCE LINE # 142
003A C200    R     CLR     BlinkChange
                                           ; SOURCE LINE # 143
003C 300003  R     JNB     BlinkShow,?C0015
                                           ; SOURCE LINE # 144
003F 7F42          MOV     R7,#042H
0041 22            RET     
                                           ; SOURCE LINE # 145
0042         ?C0015:
                                           ; SOURCE LINE # 146
0042 7F41          MOV     R7,#041H
0044 22            RET     
                                           ; SOURCE LINE # 147
                                           ; SOURCE LINE # 148
0045         ?C0014:
                                           ; SOURCE LINE # 151
0045 E500    R     MOV     A,_Timeout
0047 D3            SETB    C
0048 94F0          SUBB    A,#0F0H
004A 4006          JC      ?C0018
                                           ; SOURCE LINE # 152
004C E4            CLR     A
004D F500    R     MOV     _Timeout,A
                                           ; SOURCE LINE # 153
004F 7F43          MOV     R7,#043H
0051 22            RET     
                                           ; SOURCE LINE # 154
0052         ?C0018:
                                           ; SOURCE LINE # 157
0052 120000  E     LCALL   KbdGet
0055 8F00    R     MOV     Key,R7
                                           ; SOURCE LINE # 158
0057 E500    R     MOV     A,Key
0059 F4            CPL     A
005A 6009          JZ      ?C0019
                                           ; SOURCE LINE # 159
005C E4            CLR     A
005D F500    R     MOV     _Timeout,A
                                           ; SOURCE LINE # 160
005F 120000  E     LCALL   PodsvitAutoOn
C51 COMPILER V5.50,  MAIN                                                                  12/10/09  13:17:38  PAGE 10  

                                           ; SOURCE LINE # 161
0062 AF00    R     MOV     R7,Key
0064 22            RET     
                                           ; SOURCE LINE # 162
0065         ?C0019:
                                           ; SOURCE LINE # 165
0065 900000  E     MOV     DPTR,#Display
0068 E0            MOVX    A,@DPTR
0069 6003          JZ      ?C0020
                                           ; SOURCE LINE # 166
006B 7F40          MOV     R7,#040H
006D 22            RET     
                                           ; SOURCE LINE # 167
006E         ?C0020:
                                           ; SOURCE LINE # 170
006E 7FFF          MOV     R7,#0FFH
                                           ; SOURCE LINE # 171
0070         ?C0016:
0070 22            RET     
             ; FUNCTION SysYield (END)

             ; FUNCTION SysWaitEvent (BEGIN)
                                           ; SOURCE LINE # 177
                                           ; SOURCE LINE # 179
0000         ?C0021:
                                           ; SOURCE LINE # 182
                                           ; SOURCE LINE # 183
0000 120000  R     LCALL   SysYield
;---- Variable 'Key' assigned to Register 'R7' ----
                                           ; SOURCE LINE # 184
0003 EF            MOV     A,R7
0004 F4            CPL     A
0005 60F9          JZ      ?C0021
                                           ; SOURCE LINE # 185
                                           ; SOURCE LINE # 186
                                           ; SOURCE LINE # 187
                                           ; SOURCE LINE # 188
0007         ?C0024:
0007 22            RET     
             ; FUNCTION SysWaitEvent (END)

             ; FUNCTION Timer0Handler (BEGIN)
0000 C0E0          PUSH    ACC
0002 C0F0          PUSH    B
0004 C083          PUSH    DPH
0006 C082          PUSH    DPL
0008 C0D0          PUSH    PSW
000A 75D000        MOV     PSW,#00H
000D C000          PUSH    AR0
000F C001          PUSH    AR1
0011 C002          PUSH    AR2
0013 C003          PUSH    AR3
0015 C004          PUSH    AR4
0017 C005          PUSH    AR5
0019 C006          PUSH    AR6
001B C007          PUSH    AR7
                                           ; SOURCE LINE # 237
                                           ; SOURCE LINE # 240
001D 758A05        MOV     TL0,#05H
0020 758CE0        MOV     TH0,#0E0H
                                           ; SOURCE LINE # 243
0023 D5000F  R     DJNZ    BlinkCounter,?C0025
                                           ; SOURCE LINE # 244
                                           ; SOURCE LINE # 246
0026 D200    R     SETB    BlinkChange
                                           ; SOURCE LINE # 247
C51 COMPILER V5.50,  MAIN                                                                  12/10/09  13:17:38  PAGE 11  

0028 300005  R     JNB     BlinkShow,?C0026
                                           ; SOURCE LINE # 248
002B 750014  R     MOV     BlinkCounter,#014H
                                           ; SOURCE LINE # 249
002E 8003          SJMP    ?C0027
0030         ?C0026:
                                           ; SOURCE LINE # 250
0030 750019  R     MOV     BlinkCounter,#019H
                                           ; SOURCE LINE # 251
0033         ?C0027:
                                           ; SOURCE LINE # 252
0033 B200    R     CPL     BlinkShow
                                           ; SOURCE LINE # 253
0035         ?C0025:
                                           ; SOURCE LINE # 255
0035 E500    R     MOV     A,PocitadloSekundy
0037 6005          JZ      ?C0028
0039 D50002  R     DJNZ    PocitadloSekundy,?C0028
003C D200    R     SETB    UbehlaSekunda
003E         ?C0028:
                                           ; SOURCE LINE # 256
003E E500    E     MOV     A,_pca_counter
0040 6006          JZ      ?C0030
0042 D50003  E     DJNZ    _pca_counter,?C0030
0045 120000  E     LCALL   PcaStop
0048         ?C0030:
                                           ; SOURCE LINE # 257
0048 900000  E     MOV     DPTR,#_kbd_counter
004B E0            MOVX    A,@DPTR
004C 543F          ANL     A,#03FH
004E 6003          JZ      ?C0032
0050 E0            MOVX    A,@DPTR
0051 14            DEC     A
0052 F0            MOVX    @DPTR,A
0053         ?C0032:
                                           ; SOURCE LINE # 258
0053 120000  E     LCALL   AlarmTrigger
                                           ; SOURCE LINE # 259
0056 D007          POP     AR7
0058 D006          POP     AR6
005A D005          POP     AR5
005C D004          POP     AR4
005E D003          POP     AR3
0060 D002          POP     AR2
0062 D001          POP     AR1
0064 D000          POP     AR0
0066 D0D0          POP     PSW
0068 D082          POP     DPL
006A D083          POP     DPH
006C D0F0          POP     B
006E D0E0          POP     ACC
0070 32            RETI    
             ; FUNCTION Timer0Handler (END)

             ; FUNCTION main (BEGIN)
                                           ; SOURCE LINE # 286
                                           ; SOURCE LINE # 287
                                           ; SOURCE LINE # 290
0000 E4            CLR     A
0001 F5A2          MOV     AUXR1,A
0003 758F7F        MOV     CKCON0,#07FH
                                           ; SOURCE LINE # 291
0006 758E3D        MOV     AUXR,#03DH
                                           ; SOURCE LINE # 292
0009 75A707        MOV     WDTPRG,#07H
                                           ; SOURCE LINE # 293
C51 COMPILER V5.50,  MAIN                                                                  12/10/09  13:17:38  PAGE 12  

000C 75A61E        MOV     WDTRST,#01EH
000F 75A6E1        MOV     WDTRST,#0E1H
                                           ; SOURCE LINE # 297
0012 750032  R     MOV     PocitadloSekundy,#032H
                                           ; SOURCE LINE # 300
0015 7F2C          MOV     R7,#02CH
0017 7E01          MOV     R6,#01H
0019 120000  R     LCALL   _SysDelay
                                           ; SOURCE LINE # 302
001C 120000  E     LCALL   AlarmInit
                                           ; SOURCE LINE # 304
001F D2AF          SETB    EA
                                           ; SOURCE LINE # 305
0021 5389F0        ANL     TMOD,#0F0H
0024 438901        ORL     TMOD,#01H
0027 758A05        MOV     TL0,#05H
002A 758CE0        MOV     TH0,#0E0H
002D D2A9          SETB    ET0
002F D28C          SETB    TR0
                                           ; SOURCE LINE # 307
0031 120000  E     LCALL   BeepStartup
                                           ; SOURCE LINE # 309
0034 120000  E     LCALL   CfgLoad
                                           ; SOURCE LINE # 310
0037 120000  E     LCALL   CalLoad
                                           ; SOURCE LINE # 312
003A 120000  E     LCALL   KbdInit
                                           ; SOURCE LINE # 313
003D 120000  E     LCALL   MenuInit
                                           ; SOURCE LINE # 314
0040 120000  E     LCALL   PodsvitInit
                                           ; SOURCE LINE # 315
0043 120000  E     LCALL   AinInit
                                           ; SOURCE LINE # 316
0046 120000  E     LCALL   SignalInit
                                           ; SOURCE LINE # 317
0049 120000  E     LCALL   AccuInit
                                           ; SOURCE LINE # 318
004C 120000  E     LCALL   Hermes1rInit
                                           ; SOURCE LINE # 321
004F 120000  E     LCALL   KbdPowerUpKey
0052 EF            MOV     A,R7
0053 24FE          ADD     A,#0FEH
0055 602C          JZ      ?C0041
0057 24FC          ADD     A,#0FCH
0059 6014          JZ      ?C0038
005B 04            INC     A
005C 7031          JNZ     ?C0034
                                           ; SOURCE LINE # 322
005E         ?C0035:
                                           ; SOURCE LINE # 324
005E 120000  E     LCALL   KbdBeepKey
                                           ; SOURCE LINE # 325
0061 120000  E     LCALL   KbdPowerUpRelease
                                           ; SOURCE LINE # 326
0064 900000  R     MOV     DPTR,#ExecuteMode
0067 7401          MOV     A,#01H
0069 F0            MOVX    @DPTR,A
                                           ; SOURCE LINE # 327
006A 120000  E     LCALL   MenuLanguage
006D         ?C0036:
                                           ; SOURCE LINE # 328
006D 80FE          SJMP    ?C0036
                                           ; SOURCE LINE # 330
006F         ?C0038:
                                           ; SOURCE LINE # 332
C51 COMPILER V5.50,  MAIN                                                                  12/10/09  13:17:38  PAGE 13  

006F 120000  E     LCALL   KbdBeepKey
                                           ; SOURCE LINE # 333
0072 120000  E     LCALL   KbdPowerUpRelease
                                           ; SOURCE LINE # 334
0075 900000  R     MOV     DPTR,#ExecuteMode
0078 7402          MOV     A,#02H
007A F0            MOVX    @DPTR,A
                                           ; SOURCE LINE # 335
007B 120000  E     LCALL   MenuCalibrateAccu
                                           ; SOURCE LINE # 336
007E 120000  E     LCALL   MenuCalibrateSignal
0081         ?C0039:
                                           ; SOURCE LINE # 337
0081 80FE          SJMP    ?C0039
                                           ; SOURCE LINE # 339
0083         ?C0041:
                                           ; SOURCE LINE # 341
0083 120000  E     LCALL   KbdBeepKey
                                           ; SOURCE LINE # 342
0086 120000  E     LCALL   KbdPowerUpRelease
                                           ; SOURCE LINE # 343
0089 900000  E     MOV     DPTR,#DisplayMode
008C 7402          MOV     A,#02H
008E F0            MOVX    @DPTR,A
                                           ; SOURCE LINE # 346
008F         ?C0034:
                                           ; SOURCE LINE # 347
008F E4            CLR     A
0090 900000  R     MOV     DPTR,#ExecuteMode
0093 F0            MOVX    @DPTR,A
                                           ; SOURCE LINE # 349
0094 7FB8          MOV     R7,#0B8H
0096 7E0B          MOV     R6,#0BH
0098 120000  R     LCALL   _SysDelay
009B         ?C0042:
                                           ; SOURCE LINE # 352
                                           ; SOURCE LINE # 353
009B 120000  R     LCALL   SysWaitEvent
009E EF            MOV     A,R7
009F 24FA          ADD     A,#0FAH
00A1 6029          JZ      ?C0052
00A3 24C6          ADD     A,#0C6H
00A5 6042          JZ      ?C0055
00A7 14            DEC     A
00A8 6049          JZ      ?C0057
00AA 14            DEC     A
00AB 6046          JZ      ?C0057
00AD 243D          ADD     A,#03DH
00AF 70EA          JNZ     ?C0042
                                           ; SOURCE LINE # 354
00B1         ?C0045:
                                           ; SOURCE LINE # 355
00B1 120000  E     LCALL   KbdBeepKey
                                           ; SOURCE LINE # 356
00B4 900000  E     MOV     DPTR,#DisplayMode
00B7 E0            MOVX    A,@DPTR
00B8 B40104        CJNE    A,#01H,?C0046
                                           ; SOURCE LINE # 357
00BB E4            CLR     A
00BC F0            MOVX    @DPTR,A
                                           ; SOURCE LINE # 358
00BD 8006          SJMP    ?C0047
00BF         ?C0046:
                                           ; SOURCE LINE # 359
00BF 120000  E     LCALL   MenuExecute
                                           ; SOURCE LINE # 360
C51 COMPILER V5.50,  MAIN                                                                  12/10/09  13:17:38  PAGE 14  

00C2 120000  E     LCALL   ZerKlavesu
                                           ; SOURCE LINE # 361
00C5         ?C0047:
                                           ; SOURCE LINE # 362
00C5 7FFF          MOV     R7,#0FFH
00C7 120000  E     LCALL   _MenuRedraw
                                           ; SOURCE LINE # 363
00CA 80CF          SJMP    ?C0042
                                           ; SOURCE LINE # 364
                                           ; SOURCE LINE # 365
                                           ; SOURCE LINE # 366
                                           ; SOURCE LINE # 367
                                           ; SOURCE LINE # 368
                                           ; SOURCE LINE # 369
                                           ; SOURCE LINE # 370
                                           ; SOURCE LINE # 371
                                           ; SOURCE LINE # 372
                                           ; SOURCE LINE # 373
                                           ; SOURCE LINE # 374
                                           ; SOURCE LINE # 375
                                           ; SOURCE LINE # 376
                                           ; SOURCE LINE # 377
00CC         ?C0052:
                                           ; SOURCE LINE # 378
00CC 120000  E     LCALL   KbdBeepKey
                                           ; SOURCE LINE # 379
00CF 900000  E     MOV     DPTR,#DisplayMode
00D2 E0            MOVX    A,@DPTR
00D3 B40109        CJNE    A,#01H,?C0053
                                           ; SOURCE LINE # 380
00D6 E4            CLR     A
00D7 F0            MOVX    @DPTR,A
                                           ; SOURCE LINE # 381
00D8 7FFF          MOV     R7,#0FFH
00DA 120000  E     LCALL   _MenuRedraw
                                           ; SOURCE LINE # 382
00DD 80BC          SJMP    ?C0042
00DF         ?C0053:
                                           ; SOURCE LINE # 383
00DF 120000  E     LCALL   AlarmChange
                                           ; SOURCE LINE # 384
00E2 7F01          MOV     R7,#01H
00E4 120000  E     LCALL   _MenuRedraw
                                           ; SOURCE LINE # 385
                                           ; SOURCE LINE # 386
00E7 80B2          SJMP    ?C0042
                                           ; SOURCE LINE # 387
                                           ; SOURCE LINE # 388
00E9         ?C0055:
                                           ; SOURCE LINE # 389
00E9 900000  E     MOV     DPTR,#Display
00EC E0            MOVX    A,@DPTR
00ED FF            MOV     R7,A
00EE 120000  E     LCALL   _MenuRedraw
                                           ; SOURCE LINE # 390
00F1 80A8          SJMP    ?C0042
                                           ; SOURCE LINE # 391
                                           ; SOURCE LINE # 392
                                           ; SOURCE LINE # 393
00F3         ?C0057:
                                           ; SOURCE LINE # 394
00F3 7F04          MOV     R7,#04H
00F5 120000  E     LCALL   _MenuRedraw
                                           ; SOURCE LINE # 395
00F8 80A1          SJMP    ?C0042
                                           ; SOURCE LINE # 396
C51 COMPILER V5.50,  MAIN                                                                  12/10/09  13:17:38  PAGE 15  

                                           ; SOURCE LINE # 397
                                           ; SOURCE LINE # 398
                                           ; SOURCE LINE # 399
00FA 22            RET     
             ; FUNCTION main (END)



MODULE INFORMATION:   STATIC OVERLAYABLE
   CODE SIZE        =    519    ----
   CONSTANT SIZE    =   ----    ----
   XDATA SIZE       =      1    ----
   PDATA SIZE       =   ----    ----
   DATA SIZE        =      7       1
   IDATA SIZE       =   ----    ----
   BIT SIZE         =      4    ----
END OF MODULE INFORMATION.


C51 COMPILATION COMPLETE.  0 WARNING(S),  0 ERROR(S)
