^C:\USERS\IVO\DOCUMENTS\VISUAL STUDIO 2010\PROJECTS\HIDTEST\ATUSBHID\DEBUG\ATUSBHID.DLL.EMBED.MANIFEST.RES|C:\USERS\IVO\DOCUMENTS\VISUAL STUDIO 2010\PROJECTS\HIDTEST\ATUSBHID\DEBUG\DLLMAIN.OBJ
C:\USERS\IVO\DOCUMENTS\VISUAL STUDIO 2010\PROJECTS\HIDTEST\DEBUG\ATUSBHID.ILK
C:\USERS\IVO\DOCUMENTS\VISUAL STUDIO 2010\PROJECTS\HIDTEST\DEBUG\ATUSBHID.DLL
C:\USERS\IVO\DOCUMENTS\VISUAL STUDIO 2010\PROJECTS\HIDTEST\ATUSBHID\DEBUG\ATUSBHID.DLL.INTERMEDIATE.MANIFEST
C:\USERS\IVO\DOCUMENTS\VISUAL STUDIO 2010\PROJECTS\HIDTEST\DEBUG\ATUSBHID.PDB
