^D:\SOURCE\VISUAL STUDIO\_PREVZATE\BAT1DLL\BAT1DUMMY\DEBUG\BAT1.OBJ|D:\SOURCE\VISUAL STUDIO\_PREVZATE\BAT1DLL\BAT1DUMMY\DEBUG\BAT1DUMMY.DLL.EMBED.MANIFEST.RES|D:\SOURCE\VISUAL STUDIO\_PREVZATE\BAT1DLL\BAT1DUMMY\DEBUG\BATDEVICE.OBJ|D:\SOURCE\VISUAL STUDIO\_PREVZATE\BAT1DLL\BAT1DUMMY\DEBUG\CONSOLELOGGER.OBJ|D:\SOURCE\VISUAL STUDIO\_PREVZATE\BAT1DLL\BAT1DUMMY\DEBUG\DLLMAIN.OBJ|D:\SOURCE\VISUAL STUDIO\_PREVZATE\BAT1DLL\BAT1DUMMY\DEBUG\DT.OBJ|D:\SOURCE\VISUAL STUDIO\_PREVZATE\BAT1DLL\BAT1DUMMY\DEBUG\EEP.OBJ|D:\SOURCE\VISUAL STUDIO\_PREVZATE\BAT1DLL\BAT1DUMMY\DEBUG\FAT.OBJ|D:\SOURCE\VISUAL STUDIO\_PREVZATE\BAT1DLL\BAT1DUMMY\DEBUG\FD.OBJ|D:\SOURCE\VISUAL STUDIO\_PREVZATE\BAT1DLL\BAT1DUMMY\DEBUG\FDIR.OBJ|D:\SOURCE\VISUAL STUDIO\_PREVZATE\BAT1DLL\BAT1DUMMY\DEBUG\FS.OBJ|D:\SOURCE\VISUAL STUDIO\_PREVZATE\BAT1DLL\BAT1DUMMY\DEBUG\PKTADAPTER.OBJ|D:\SOURCE\VISUAL STUDIO\_PREVZATE\BAT1DLL\BAT1DUMMY\DEBUG\SYSTEM.OBJ
C:\PROGRAM FILES\MICROSOFT SDKS\WINDOWS\V7.0A\LIB\KERNEL32.LIB
C:\PROGRAM FILES\MICROSOFT SDKS\WINDOWS\V7.0A\LIB\USER32.LIB
C:\PROGRAM FILES\MICROSOFT SDKS\WINDOWS\V7.0A\LIB\GDI32.LIB
C:\PROGRAM FILES\MICROSOFT SDKS\WINDOWS\V7.0A\LIB\WINSPOOL.LIB
C:\PROGRAM FILES\MICROSOFT SDKS\WINDOWS\V7.0A\LIB\COMDLG32.LIB
C:\PROGRAM FILES\MICROSOFT SDKS\WINDOWS\V7.0A\LIB\ADVAPI32.LIB
C:\PROGRAM FILES\MICROSOFT SDKS\WINDOWS\V7.0A\LIB\SHELL32.LIB
C:\PROGRAM FILES\MICROSOFT SDKS\WINDOWS\V7.0A\LIB\OLE32.LIB
C:\PROGRAM FILES\MICROSOFT SDKS\WINDOWS\V7.0A\LIB\OLEAUT32.LIB
C:\PROGRAM FILES\MICROSOFT SDKS\WINDOWS\V7.0A\LIB\UUID.LIB
C:\PROGRAM FILES\MICROSOFT SDKS\WINDOWS\V7.0A\LIB\ODBC32.LIB
C:\PROGRAM FILES\MICROSOFT SDKS\WINDOWS\V7.0A\LIB\ODBCCP32.LIB
D:\SOURCE\VISUAL STUDIO\_PREVZATE\BAT1DLL\BAT1DUMMY\DEBUG\BAT1DUMMY.DLL.EMBED.MANIFEST.RES
D:\SOURCE\VISUAL STUDIO\_PREVZATE\BAT1DLL\BAT1DUMMY\DEBUG\BAT1.OBJ
D:\SOURCE\VISUAL STUDIO\_PREVZATE\BAT1DLL\BAT1DUMMY\DEBUG\BATDEVICE.OBJ
D:\SOURCE\VISUAL STUDIO\_PREVZATE\BAT1DLL\BAT1DUMMY\DEBUG\CONSOLELOGGER.OBJ
D:\SOURCE\VISUAL STUDIO\_PREVZATE\BAT1DLL\BAT1DUMMY\DEBUG\DLLMAIN.OBJ
D:\SOURCE\VISUAL STUDIO\_PREVZATE\BAT1DLL\BAT1DUMMY\DEBUG\DT.OBJ
D:\SOURCE\VISUAL STUDIO\_PREVZATE\BAT1DLL\BAT1DUMMY\DEBUG\EEP.OBJ
D:\SOURCE\VISUAL STUDIO\_PREVZATE\BAT1DLL\BAT1DUMMY\DEBUG\FAT.OBJ
D:\SOURCE\VISUAL STUDIO\_PREVZATE\BAT1DLL\BAT1DUMMY\DEBUG\FD.OBJ
D:\SOURCE\VISUAL STUDIO\_PREVZATE\BAT1DLL\BAT1DUMMY\DEBUG\FDIR.OBJ
D:\SOURCE\VISUAL STUDIO\_PREVZATE\BAT1DLL\BAT1DUMMY\DEBUG\FS.OBJ
D:\SOURCE\VISUAL STUDIO\_PREVZATE\BAT1DLL\BAT1DUMMY\DEBUG\PKTADAPTER.OBJ
D:\SOURCE\VISUAL STUDIO\_PREVZATE\BAT1DLL\BAT1DUMMY\DEBUG\SYSTEM.OBJ
C:\WINDOWS\SYSTEM32\TZRES.DLL
D:\SOURCE\VISUAL STUDIO\_PREVZATE\BAT1DLL\DEBUG\BAT1DUMMY.DLL
D:\SOURCE\VISUAL STUDIO\_PREVZATE\BAT1DLL\DEBUG\BAT1DUMMY.PDB
C:\WINDOWS\GLOBALIZATION\SORTING\SORTDEFAULT.NLS
D:\SOURCE\VISUAL STUDIO\_PREVZATE\BAT1DLL\DEBUG\BAT1DUMMY.EXP
D:\SOURCE\VISUAL STUDIO\_PREVZATE\BAT1DLL\DEBUG\BAT1DUMMY.LIB
C:\PROGRAM FILES\MICROSOFT VISUAL STUDIO 10.0\VC\LIB\MSVCRTD.LIB
C:\PROGRAM FILES\MICROSOFT VISUAL STUDIO 10.0\VC\LIB\OLDNAMES.LIB
C:\PROGRAM FILES\MICROSOFT VISUAL STUDIO 10.0\VC\LIB\MSVCPRTD.LIB
C:\PROGRAM FILES\MICROSOFT VISUAL STUDIO 10.0\VC\BIN\LINK.EXE
C:\WINDOWS\SYSTEM32\RSAENH.DLL
C:\PROGRAM FILES\MICROSOFT VISUAL STUDIO 10.0\VC\BIN\1033\LINKUI.DLL
C:\PROGRAM FILES\MICROSOFT VISUAL STUDIO 10.0\VC\BIN\CVTRES.EXE
