//---------------------------------------------------------------
//	Downloadable Hex-File for PS08
//	File generated by ASM2 on Thu Mar 15 15:09:00 2012
//	All rights reserved by acam messelectronic gmbh
//---------------------------------------------------------------

0000: 28 83	//--- 0: equal_2 (2655020);  equal_1 (2655020);
0002: 2C 2F	//--- 2: equal_0 (2655020);  equal_2 (3096711);
0004: 40 87	//--- 4: equal_1 (3096711);  equal_0 (3096711);
0006: 52 84	//--- 6: equal_2 (5407934);  equal_1 (5407934);
0008: BE 02	//--- 8: equal_0 (5407934);  equal_2 (147993);
000A: 42 19	//--- 10: equal_1 (147993);  equal_0 (147993);
000C: 40 00	//--- 12: equal_2 (4194304);  equal_1 (4194304);
000E: 00 40	//--- 14: equal_0 (4194304);  equal_2 (4194304);
0010: 00 00	//--- 16: equal_1 (4194304);  equal_0 (4194304);
0012: 10 00	//--- 18: equal_2 (1048576);  equal_1 (1048576);
0014: 00 10	//--- 20: equal_0 (1048576);  equal_2 (1048576);
0016: 00 00	//--- 22: equal_1 (1048576);  equal_0 (1048576);
0018: 26 66	//--- 24: equal_2 (2516582);  equal_1 (2516582);
001A: 66 00	//--- 26: equal_0 (2516582);  equal_2 (0);
001C: 00 00	//--- 28: equal_1 (0);  equal_0 (0);
001E: 14 00	//--- 30: equal_2 (1310880);  equal_1 (1310880);
0020: A0 AA	//--- 32: equal_0 (1310880);  equal_2 (11158618);
0022: 44 5A	//--- 34: equal_1 (11158618);  equal_0 (11158618);
0024: E8 E7	//--- 36: equal_2 (15263528);  equal_1 (15263528);
0026: 28 48	//--- 38: equal_0 (15263528);  equal_2 (4736320);
0028: 45 40	//--- 40: equal_1 (4736320);  equal_0 (4736320);
002A: 60 07	//--- 42: equal_2 (6293248);  equal_1 (6293248);
002C: 00 00	//--- 44: equal_0 (6293248);  equal_2 (0);
002E: 00 00	//--- 46: equal_1 (0);  equal_0 (0);
0030: F2 41	//--- 48: ramadr_1 (65);  ramadr_0 (65);
0032: F1 1F	//--- 50: bitclr_1 (3,7);  bitclr_0 (3,7);
0034: 69 55	//--- 52: loadByte_1 (1,85);  loadByte_0 (1,85);
0036: EC A3	//--- 54: jsub2_1 (3235);  jsub2_0 (3235);
0038: 6A 08	//--- 56: loadByte_1 (2,8);  loadByte_0 (2,8);
003A: EC B1	//--- 58: jsub2_1 (3249);  jsub2_0 (3249);
003C: F2 41	//--- 60: ramadr_1 (65);  ramadr_0 (65);
003E: F1 3F	//--- 62: bitset_1 (3,7);  bitset_0 (3,7);
0040: CB 01	//--- 64: clrwdt_1 ();  clrwdt_0 ();
0042: CD 00	//--- 66: stop ();  filled with NOP

// --- EOF ---
