C51 COMPILER V5.50,  CORR                                                                  05/01/12  11:59:14  PAGE 1   


DOS C51 COMPILER V5.50, COMPILATION OF MODULE CORR
OBJECT MODULE PLACED IN CORR.OBJ
COMPILER INVOKED BY: E:\C51_V5.5\BIN\C51.EXE CORR.C51 CD DB

stmt level    source

   1          //*****************************************************************************
   2          //
   3          //    Corr.c - Weight correction
   4          //    Version 1.0, (c) P.Veit
   5          //
   6          //*****************************************************************************
   7          
   8          #include "Corr.h"
   9          
  10          //-----------------------------------------------------------------------------
  11          // Staticke funkce
  12          //-----------------------------------------------------------------------------
  13          
  14          static TNumber MakeCorrection(TNumber Weight, byte Correction);
  15          // Vrati hmotnost <Weight> zvysenou o <Correction> procent
  16          
  17          
  18          //-----------------------------------------------------------------------------
  19          // Vypocet korigovane hmotnosti
  20          //-----------------------------------------------------------------------------
  21          
  22          TNumber CorrectionCalcWeight(word Day, TNumber Weight) {
  23   1        // Vypocte korigovanou hmotnost ze dne <Day> s puvodni hmotnosti <Weight>
  24   1        if (!CorrectionIsActive(Day)) {
  25   2          // Bud nepouziva korekci
  26   2          // Nebo jeste neni za dnem prvniho zlomu, tj. zatim bez korekce
  27   2          return Weight;
  28   2        }
  29   1      
  30   1        if (Day >= Config.WeightCorrection.Day2) {
  31   2          // Uz je za dnem druheho zlomu => vratim plne zkorigovanou hmotnost
  32   2          return MakeCorrection(Weight, Config.WeightCorrection.Correction);
  33   2        }
  34   1      
  35   1        // Je mezi dnem 1 a 2, tj. delam linearni aproximaci
  36   1        Day -= Config.WeightCorrection.Day1;
  37   1        return MakeCorrection(Weight, (dword)Config.WeightCorrection.Correction * (dword)Day / (dword)(Config.We
             -ightCorrection.Day2 - Config.WeightCorrection.Day1));
  38   1      }
  39          
  40          //-----------------------------------------------------------------------------
  41          // Vypocet korekce
  42          //-----------------------------------------------------------------------------
  43          
  44          static TNumber MakeCorrection(TNumber Weight, byte Correction) {
  45   1      // Vrati hmotnost <Weight> zvysenou o <Correction> procent
  46   1        return (TNumber)(Weight * (TNumber)(100 + Correction) / (TNumber)100);
  47   1      }
  48          
C51 COMPILER V5.50,  CORR                                                                  05/01/12  11:59:14  PAGE 2   

ASSEMBLY LISTING OF GENERATED OBJECT CODE


             ; FUNCTION _CorrectionCalcWeight (BEGIN)
0000 8E00    R     MOV     Day,R6
0002 8F00    R     MOV     Day+01H,R7
                                           ; SOURCE LINE # 22
                                           ; SOURCE LINE # 24
0004 900000  E     MOV     DPTR,#Config+096H
0007 E0            MOVX    A,@DPTR
0008 FB            MOV     R3,A
0009 6011          JZ      ?C0002
000B 900000  E     MOV     DPTR,#Config+092H
000E E0            MOVX    A,@DPTR
000F FE            MOV     R6,A
0010 A3            INC     DPTR
0011 E0            MOVX    A,@DPTR
0012 FF            MOV     R7,A
0013 D3            SETB    C
0014 E500    R     MOV     A,Day+01H
0016 9F            SUBB    A,R7
0017 E500    R     MOV     A,Day
0019 9E            SUBB    A,R6
001A 5009          JNC     ?C0001
001C         ?C0002:
                                           ; SOURCE LINE # 27
001C AF00    R     MOV     R7,Weight+03H
001E AE00    R     MOV     R6,Weight+02H
0020 AD00    R     MOV     R5,Weight+01H
0022 AC00    R     MOV     R4,Weight
0024 22            RET     
                                           ; SOURCE LINE # 28
0025         ?C0001:
                                           ; SOURCE LINE # 30
0025 900000  E     MOV     DPTR,#Config+094H
0028 E0            MOVX    A,@DPTR
0029 FE            MOV     R6,A
002A A3            INC     DPTR
002B E0            MOVX    A,@DPTR
002C FF            MOV     R7,A
002D C3            CLR     C
002E E500    R     MOV     A,Day+01H
0030 9F            SUBB    A,R7
0031 E500    R     MOV     A,Day
0033 9E            SUBB    A,R6
0034 400E          JC      ?C0004
                                           ; SOURCE LINE # 32
0036 AF00    R     MOV     R7,Weight+03H
0038 AE00    R     MOV     R6,Weight+02H
003A AD00    R     MOV     R5,Weight+01H
003C AC00    R     MOV     R4,Weight
003E 8B00    R     MOV     ?_MakeCorrection?BYTE+04H,R3
0040 120000  R     LCALL   _MakeCorrection
0043 22            RET     
                                           ; SOURCE LINE # 33
0044         ?C0004:
                                           ; SOURCE LINE # 36
0044 900000  E     MOV     DPTR,#Config+092H
0047 E0            MOVX    A,@DPTR
0048 FE            MOV     R6,A
0049 A3            INC     DPTR
004A E0            MOVX    A,@DPTR
004B FF            MOV     R7,A
004C C3            CLR     C
004D E500    R     MOV     A,Day+01H
004F 9F            SUBB    A,R7
C51 COMPILER V5.50,  CORR                                                                  05/01/12  11:59:14  PAGE 3   

0050 F500    R     MOV     Day+01H,A
0052 E500    R     MOV     A,Day
0054 9E            SUBB    A,R6
0055 F500    R     MOV     Day,A
                                           ; SOURCE LINE # 37
0057 FE            MOV     R6,A
0058 AF00    R     MOV     R7,Day+01H
005A E4            CLR     A
005B FC            MOV     R4,A
005C FD            MOV     R5,A
005D F8            MOV     R0,A
005E F9            MOV     R1,A
005F AA06          MOV     R2,AR6
0061 AB07          MOV     R3,AR7
0063 900000  E     MOV     DPTR,#Config+096H
0066 E0            MOVX    A,@DPTR
0067 FF            MOV     R7,A
0068 E4            CLR     A
0069 FE            MOV     R6,A
006A 120000  E     LCALL   ?C?LMUL
006D C004          PUSH    AR4
006F C005          PUSH    AR5
0071 C006          PUSH    AR6
0073 C007          PUSH    AR7
0075 900000  E     MOV     DPTR,#Config+092H
0078 E0            MOVX    A,@DPTR
0079 FE            MOV     R6,A
007A A3            INC     DPTR
007B E0            MOVX    A,@DPTR
007C FF            MOV     R7,A
007D C3            CLR     C
007E 900000  E     MOV     DPTR,#Config+095H
0081 E0            MOVX    A,@DPTR
0082 9F            SUBB    A,R7
0083 FF            MOV     R7,A
0084 900000  E     MOV     DPTR,#Config+094H
0087 E0            MOVX    A,@DPTR
0088 9E            SUBB    A,R6
0089 FE            MOV     R6,A
008A E4            CLR     A
008B FC            MOV     R4,A
008C FD            MOV     R5,A
008D F8            MOV     R0,A
008E F9            MOV     R1,A
008F AA06          MOV     R2,AR6
0091 AB07          MOV     R3,AR7
0093 D007          POP     AR7
0095 D006          POP     AR6
0097 D005          POP     AR5
0099 D004          POP     AR4
009B 120000  E     LCALL   ?C?ULDIV
009E 8F00    R     MOV     ?_MakeCorrection?BYTE+04H,R7
00A0 AF00    R     MOV     R7,Weight+03H
00A2 AE00    R     MOV     R6,Weight+02H
00A4 AD00    R     MOV     R5,Weight+01H
00A6 AC00    R     MOV     R4,Weight
00A8 120000  R     LCALL   _MakeCorrection
                                           ; SOURCE LINE # 38
00AB         ?C0003:
00AB 22            RET     
             ; FUNCTION _CorrectionCalcWeight (END)

             ; FUNCTION _MakeCorrection (BEGIN)
0000 8F00    R     MOV     Weight+03H,R7
0002 8E00    R     MOV     Weight+02H,R6
0004 8D00    R     MOV     Weight+01H,R5
C51 COMPILER V5.50,  CORR                                                                  05/01/12  11:59:14  PAGE 4   

0006 8C00    R     MOV     Weight,R4
                                           ; SOURCE LINE # 44
                                           ; SOURCE LINE # 46
0008 E500    R     MOV     A,Correction
000A 2464          ADD     A,#064H
000C FD            MOV     R5,A
000D E4            CLR     A
000E 33            RLC     A
000F FC            MOV     R4,A
0010 E4            CLR     A
0011 120000  E     LCALL   ?C?FCASTI
0014 AB00    R     MOV     R3,Weight+03H
0016 AA00    R     MOV     R2,Weight+02H
0018 A900    R     MOV     R1,Weight+01H
001A A800    R     MOV     R0,Weight
001C 120000  E     LCALL   ?C?FPMUL
001F 7B00          MOV     R3,#00H
0021 7A00          MOV     R2,#00H
0023 79C8          MOV     R1,#0C8H
0025 7842          MOV     R0,#042H
0027 120000  E     LCALL   ?C?FPDIV
                                           ; SOURCE LINE # 47
002A         ?C0005:
002A 22            RET     
             ; FUNCTION _MakeCorrection (END)



MODULE INFORMATION:   STATIC OVERLAYABLE
   CODE SIZE        =    215    ----
   CONSTANT SIZE    =   ----    ----
   XDATA SIZE       =   ----    ----
   PDATA SIZE       =   ----    ----
   DATA SIZE        =   ----      11
   IDATA SIZE       =   ----    ----
   BIT SIZE         =   ----    ----
END OF MODULE INFORMATION.


C51 COMPILATION COMPLETE.  0 WARNING(S),  0 ERROR(S)
