C51 COMPILER V5.50,  LANGFR                                                                05/01/12  11:59:13  PAGE 1   


DOS C51 COMPILER V5.50, COMPILATION OF MODULE LANGFR
OBJECT MODULE PLACED IN LANGFR.OBJ
COMPILER INVOKED BY: E:\C51_V5.5\BIN\C51.EXE LANGFR.C51 CD DB

stmt level    source

   1          //*****************************************************************************
   2          //
   3          // Definice stringu:
   4          //   - En
   5          //   - Fr
   6          //
   7          //*****************************************************************************
   8          
   9          #include "Lang.h"                   // Stringy
  10          
  11          #ifdef LANG_VERSION_FR  // Prekladam, jen pokud je tato jazykova verze aktivni
  12          
  13          // ---------------------------------------------------------------------------------------------
  14          // Definice jazyka
  15          // ---------------------------------------------------------------------------------------------
  16          
  17          byte code STR_LANGUAGE[] = "Language";   // Toto menu se nepreklada
  18          byte code STR_MENU_LANGUAGE[] =
  19            "English\x0"
  20            "Fran\x013ais\x0"
  21            "Deutsch";
  22          
  23          // ---------------------------------------------------------------------------------------------
  24          // HW verze
  25          // ---------------------------------------------------------------------------------------------
  26          
  27          byte code STR_HW_VERSION[] =
  28            "BASIC\x0"
  29            "LITE";
  30          
  31          // ---------------------------------------------------------------------------------------------
  32          // Menu
  33          // ---------------------------------------------------------------------------------------------
  34          
  35          byte code STR_DAY[] =
  36            "Day\x0"
  37            "Jour";
  38          byte code STR_WEIGHT[] =
  39            "Weight\x0"
  40            "Poids";
  41          byte code STR_TARGET_WEIGHT[] =
  42            "Target\x0"
  43            "Cible";
  44          byte code STR_LAST_SAVED_WEIGHT[] =
  45            "Last\x0"
  46            "Precedent";
  47          byte code STR_OK[] =
  48            "OK\x0"
  49            "OK";
  50          byte code STR_CANCEL[] =
  51            "Cancel\x0"
  52            "Annuler";
  53          byte code STR_RETRY[] =
  54            "Retry\x0"
  55            "Re-essay";
  56          byte code STR_YES[] =
  57            "Yes\x0"
  58            "Oui";
  59          byte code STR_NO[] =
C51 COMPILER V5.50,  LANGFR                                                                05/01/12  11:59:13  PAGE 2   

  60            "No\x0"
  61            "Non";
  62          byte code STR_WAIT[] =
  63            "Wait\x0"
  64            "Attendre";
  65          
  66          // Jednotky mam zvlast pro vyber v menu a pro zobrazeni (kvuli jednoduchosti)
  67          byte code STR_UNITS_MENU[] =    // Pro menu
  68            "kg\x0"
  69            "lb";
  70          byte code STR_UNITS[_UNITS_COUNT][3]= {   // Pro zobrazeni
  71            "kg",
  72            "lb"
  73          };
  74          
  75          // Dilek v menu
  76          byte code STR_DIVISION_MENU[] =
  77            "1\x0"
  78            "2\x0"
  79            "5\x0"
  80            "10";
  81          
  82          byte code STR_INVALID_VALUE[] =
  83            "The value\x0FFis not valid\x0"
  84            "La valeur n'est\x0FFpas valable";
  85          byte code STR_SAVE_CHANGES[] =
  86            "Save changes?\x0"
  87            "Enregistrer\x0FFmodifications?";
  88          byte code STR_STOP_WEIGHING_FIRST[] =
  89            "Weighing is started.\x0FFStop the weighing\x0FFfirst.\x0"
  90            "La pesee est commencee.\x0FFArreter la pesee d'abord.";
  91          
  92          byte code STR_NO_DATA[] =
  93            "No data\x0"
  94            "Pas de donnees";
  95          
  96          // Editace hejna
  97          byte code STR_STOP_WEIGHING[] =
  98            "Really stop\x0FFweighing of the flock?\x0"
  99            "Arreter vraiment\x0FFla pesee?";
 100          byte code STR_STARTING_DAY[] =
 101            "Starting day:\x0FF\x0FF\x0FF\x0"
 102            "Debut de pesee:\x0FF\x0FF\x0FF";
 103          
 104          // Editace datumu a casu
 105          byte code STR_DATE[] =
 106            "Date:\x0FF\x0FF\x0FF\x0"
 107            "Date:\x0FF\x0FF\x0FF";
 108          byte code STR_TIME[] =
 109            "Time:\x0FF\x0FF\x0FF\x0"
 110            "Heure:\x0FF\x0FF\x0FF";
 111          
 112          // Parametry naslapne vahy
 113          byte code STR_SCALE_MARGIN_ABOVE[] =
 114            "Margin above\x0FFtarget:\x0FF\x0FF\x0"
 115            "Marge au-dessus\x0FFde la cible:\x0FF\x0FF";
 116          byte code STR_SCALE_MARGIN_BELOW[] =
 117            "Margin below\x0FFtarget:\x0FF\x0FF\x0"
 118            "Marge en-dessous\x0FFde la cible:\x0FF\x0FF";
 119          byte code STR_SCALE_FILTER[] =
 120            "Filter:\x0FF\x0FF\x0FF\x0"
 121            "Filtre:\x0FF\x0FF\x0FF";
 122          byte code STR_SCALE_STABILIZATION_RANGE[] =
 123            "Stabilization:\x0FF\x0FF\x0FF\x0"
 124            "Stabilisation:\x0FF\x0FF\x0FF";
 125          byte code STR_SCALE_STABILIZATION_TIME[] =
C51 COMPILER V5.50,  LANGFR                                                                05/01/12  11:59:13  PAGE 3   

 126            "Stabilization\x0FFtime:\x0FF\x0FF\x0"
 127            "Temps\x0FFde stabilisation:\x0FF\x0FF";
 128          byte code STR_SCALE_AUTO_MODE_TYPE[] =
 129            "Use gain in\x0FFautomatic mode?\x0"
 130            "Utiliser le calcul\x0FFautomatique du GMQ?";
 131          byte code STR_JUMP_MODE[] =
 132             "Save sample upon:\x0FF\x0FF\x0FF\x0"
 133             "Sauveg. la donn\x082e\x0FFlors de:\x0FF\x0FF";
 134          byte code STR_ENTER_LEAVE_BOTH[] =
 135             "Entering the scale\x0" "Leaving the scale\x0" "Both\x0"
 136             "Arriv\x082e sur balance\x0" "Sortie de la balance\x0" "Des deux";
 137          
 138          // Kalibrace
 139          byte code STR_CALIBRATION_UNITS[] =
 140            "Units:\x0FF\x0FF\x0FF\x0"
 141            "Unit\x082:\x0FF\x0FF\x0FF";
 142          byte code STR_CALIBRATION_DIVISION[] =
 143            "Division:\x0FF\x0FF\x0FF\x0"
 144            "Graduation:\x0FF\x0FF\x0FF";
 145          byte code STR_CALIBRATION_ZERO[] =
 146            "Empty the scale\x0"
 147            "Liberer les balances";
 148          byte code STR_CALIBRATION_RANGE[] =
 149            "Put on the scale:\x0FF\x0FF\x0FF\x0"
 150            "Calibrer les balances:\x0FF\x0FF\x0FF";
 151          
 152          // Podsvit
 153          byte code STR_BACKLIGHT[]=
 154             "Backlight:\x0FF\x0FF\x0FF\x0"
 155             "Eclairage:\x0FF\x0FF\x0FF";
 156          
 157          byte code STR_ON_OFF_AUTO[]=
 158             "Off\x0" "On\x0" "Automatic\x0"
 159             "Arr\x015t\x082\x0" "En marche\x0" "Automatique";
 160          
 161          //-----------------------------------------------------------------------------
 162          // Hlavni Menu
 163          //-----------------------------------------------------------------------------
 164          
 165          byte code STR_MAIN_MENU_IDLE_BASIC[] =
 166            // Eng
 167            "Start weighing\x0"
 168            "Setup\x0"
 169            // Sp
 170            "Debut de la pesee\x0"
 171            "Mise au point";
 172          
 173          byte code STR_MAIN_MENU_IDLE_LITE[] =
 174            // Eng
 175            "Start weighing\x0"
 176            "Archive\x0"
 177            "Setup\x0"
 178            // Sp
 179            "Debut de la pesee\x0"
 180            "Archive\x0"
 181            "Mise au point";
 182          
 183          byte code STR_MAIN_MENU_WEIGHING_BASIC[] =
 184            // Eng
 185            "Stop weighing\x0"
 186            "Setup\x0"
 187            // Sp
 188            "Arr\x015ter la pesee\x0"
 189            "Mise au point";
 190          
 191          byte code STR_MAIN_MENU_WEIGHING_LITE[] =
C51 COMPILER V5.50,  LANGFR                                                                05/01/12  11:59:13  PAGE 4   

 192            // Eng
 193            "Stop weighing\x0"
 194            "Archive\x0"
 195            "Setup\x0"
 196            // Sp
 197            "Arr\x015ter la pesee\x0"
 198            "Archive\x0"
 199            "Mise au point";
 200          
 201          //-----------------------------------------------------------------------------
 202          // Menu nastaveni
 203          //-----------------------------------------------------------------------------
 204          
 205          byte code STR_MENU_SETUP_TITLE[] =
 206            "Setup\x0"
 207            "Mise au point";
 208          
 209          byte code STR_MENU_SETUP[] =
 210            // Eng
 211            "Date and time\x0"
 212            "Growth curve\x0"
 213            "Correction curve\x0"
 214            "Saving parameters\x0"
 215            "Backlight\x0"
 216            "Calibration\x0"
 217            // Sp
 218            "Date et heure\x0"
 219            "Courbe de croissance\x0"
 220            "Courbe de correction\x0"
 221            "Sauvegarde\x0"
 222            "Eclairage\x0"
 223            "Calibrage";
 224          
 225          //-----------------------------------------------------------------------------
 226          // Editace hejn
 227          //-----------------------------------------------------------------------------
 228          
 229          byte code STR_USE_CURVE[] =
 230            "Use growth curve?\x0"
 231            "Utiliser la courbe\x0FFde croissance?";
 232          byte code STR_PREFACE_CURVE[] =
 233            "Now you can enter\x0FFa growth curve.\x0"
 234            "Maintenant programmer\x0FFune courbe\x0FFde croissance.";
 235          
 236          byte code STR_INITIAL_WEIGHT[] =
 237            "Initial weight:\x0FF\x0FF\x0FF\x0"
 238            "Poids initial:\x0FF\x0FF\x0FF";
 239          
 240          // ---------------------------------------------------------------------------------------------
 241          // Editace rustove krivky
 242          // ---------------------------------------------------------------------------------------------
 243          
 244          byte code STR_SAVE[] =
 245            "Save\x0"
 246            "Sauveg.";
 247          byte code STR_DELETE[] =
 248            "Delete\x0"
 249            "Effacer";
 250          byte code STR_QUIT[] =
 251            "Quit\x0"
 252            "Quitter";
 253          byte code STR_NEXT[] =
 254            "Next\x0"
 255            "Suivant";
 256          byte code STR_ADD[] =
 257            "Add\x0"
C51 COMPILER V5.50,  LANGFR                                                                05/01/12  11:59:13  PAGE 5   

 258            "Ajouter";
 259          byte code STR_CHANGE[] =
 260            "Change\x0"
 261            "Modifier";
 262          byte code STR_MOVE[] =
 263            "Move\x0"
 264            "Deplac.";
 265          byte code STR_DAY_COLON[] =
 266            "Day:\x0"
 267            "Jour:";
 268          byte code STR_WEIGHT_COLON[] =
 269            "Weight:\x0"
 270            "Poids:";
 271          byte code STR_CURVE_FULL[] =
 272            "The curve is full\x0"
 273            "La courbe est satur\x082e";
 274          
 275          byte code STR_CURVE_DAY_EXISTS[] =
 276            "The day already exists.\x0FFOverwrite?\x0"
 277            "Ce jour existe deja.\x0FFLe remplacer?";
 278          byte code STR_CURVE_DELETE[] =
 279            "Delete the selected\x0FFday from the table?\x0"
 280            "Supprimer le jour\x0FFchoisi du tableau?";
 281          
 282          byte code STR_CURVE_EMPTY[] =
 283            "The curve is empty\x0"
 284            "Courbe non \x082tablie";
 285          
 286          // ---------------------------------------------------------------------------------------------
 287          // Editace korekcni krivky
 288          // ---------------------------------------------------------------------------------------------
 289          
 290          byte code STR_CORRECTION_DAY1[] =
 291            "Day 1:\x0FF\x0FF\x0FF\x0"
 292            "Jour 1:\x0FF\x0FF\x0FF";
 293          
 294          byte code STR_CORRECTION_DAY2[] =
 295            "Day 2:\x0FF\x0FF\x0FF\x0"
 296            "Jour 2:\x0FF\x0FF\x0FF";
 297          
 298          byte code STR_CORRECTION_CORRECTION[] =
 299            "Correction:\x0FF\x0FF\x0FF\x0"
 300            "Correction:\x0FF\x0FF\x0FF";
 301          
 302          #endif
C51 COMPILER V5.50,  LANGFR                                                                05/01/12  11:59:13  PAGE 6   

ASSEMBLY LISTING OF GENERATED OBJECT CODE




MODULE INFORMATION:   STATIC OVERLAYABLE
   CODE SIZE        =   ----    ----
   CONSTANT SIZE    =   2177    ----
   XDATA SIZE       =   ----    ----
   PDATA SIZE       =   ----    ----
   DATA SIZE        =   ----    ----
   IDATA SIZE       =   ----    ----
   BIT SIZE         =   ----    ----
END OF MODULE INFORMATION.


C51 COMPILATION COMPLETE.  0 WARNING(S),  0 ERROR(S)
