C51 COMPILER V5.50,  MWI                                                                   24/07/12  10:33:52  PAGE 1   


DOS C51 COMPILER V5.50, COMPILATION OF MODULE MWI
OBJECT MODULE PLACED IN ..\MODULY\MWI\MWI.OBJ
COMPILER INVOKED BY: E:\C51_V5.5\BIN\C51.EXE ..\MODULY\MWI\MWI.C51 CD DB

stmt level    source

   1          //*****************************************************************************
   2          //
   3          //    Mwi.c  -  1-Wire bus services
   4          //    Version 1.0, (c) Vymos
   5          //
   6          //  16.5.2006: moznost inverze vstupu (dosud bylo pouze u vystupu), nove DQI_LO a DQI_HI v hardware.h
   7          //
   8          //*****************************************************************************
   9          
  10          #include "..\inc\Mwi.h"
  11          
  12          // Makra pro generovani funkci, pro prehlednost je lepsi zdrojovy
  13          // text Owi.c :
  14          
  15          // zakaz preruseni po dobu cekani na presence :
  16          #define _MwiReset( DQI)              \
  17                   if( DQI == DQI_LO) {        \
  18                      presence = 1;            \
  19                   } else {                    \
  20                     MwiDQO = DQO_LO;          \
  21                     MWI_DELAY_RESET;          \
  22                     DisableInts();            \
  23                     MwiDQO = DQO_HI;          \
  24                     MWI_DELAY_PRESENCE;       \
  25                     presence = (TYesNo)(DQI == DQI_HI);    \
  26                     EnableInts();             \
  27                   }                           \
  28          
  29          #define _MwiReadBit( DQI)         \
  30                   DisableInts();           \
  31                   MwiDQO = DQO_LO;         \
  32                   MWI_DELAY_START;         \
  33                   MwiDQO = DQO_HI;         \
  34                   for( i = 0; i < MWI_DELAY_READ; i++); \
  35                   value = (TYesNo)(DQI == DQI_HI);      \
  36                   EnableInts();            \
  37          
  38          
  39          
  40          
  41          // Lokalni funkce :
  42          
  43          static void MwiMicroDelay( word count);
  44          // Zpozdeni v mikrosekundach
  45          
  46          //-----------------------------------------------------------------------------
  47          // Atakovani sbernice
  48          //-----------------------------------------------------------------------------
  49          
  50          void MwiAttach( void)
  51          // Pripravi sbernici pro provoz
  52          {
  53   1         #ifdef MwiDATA
                    // sdilena sbernice
                    MwiDATA = 0xFF;                  // vstupy do jednicek
                    MwiDQO  = DQO_HI;                // vystup do jednicky
                    MwiCS   = 0;                     // povoleni latche 1-wire sbernic
                 #else
  59   1            // individualni vstupy
C51 COMPILER V5.50,  MWI                                                                   24/07/12  10:33:52  PAGE 2   

  60   1            #ifdef MWI_CH0
  61   1               MwiDQI0 = 1;                  // vstupy do jednicek - primo na procesoru
  62   1            #endif
  63   1            #ifdef MWI_CH1
  64   1               MwiDQI1 = 1;
  65   1            #endif
  66   1            #ifdef MWI_CH2
  67   1               MwiDQI2 = 1;
  68   1            #endif
  69   1            #ifdef MWI_CH3
  70   1               MwiDQI3 = 1;
  71   1            #endif
  72   1            #ifdef MWI_CH4
  73   1               MwiDQI4 = 1;
  74   1            #endif
  75   1            #ifdef MWI_CH5
  76   1               MwiDQI5 = 1;
  77   1            #endif
  78   1            #ifdef MWI_CH6
                       MwiDQI6 = 1;
                    #endif
  81   1            #ifdef MWI_CH7
                       MwiDQI7 = 1;
                    #endif
  84   1            MwiDQO = DQO_HI;                 // vystup do jednicky - az za pripadnym invertorem
  85   1         #endif // sdilena sbernice
  86   1      } // MwiAttach
  87          
  88          #ifdef MwiDATA
              //-----------------------------------------------------------------------------
              // Uvolneni sbernice
              //-----------------------------------------------------------------------------
              
              void MwiRelease( void)
              // Uvolneni sbernice - jen pro sdilenou sbernici
              {
                 MwiDATA = 0xFF;                     // vstupy do jednicek (primo na procesoru)
                 MwiDQO  = DQO_HI;                   // vystup do jednicky
                 MwiCS   = 1;                        // zakaz latche 1-wire sbernic
              } // MwiRelease
              #endif
 101          
 102          //-----------------------------------------------------------------------------
 103          // Reset
 104          //-----------------------------------------------------------------------------
 105          
 106          void MwiResetAll( void)
 107          // Resetuje sbernici
 108          {
 109   1         MwiDQO = DQO_LO;
 110   1         MWI_DELAY_RESET;
 111   1         MwiDQO = DQO_HI;
 112   1         MWI_DELAY_RESET;
 113   1      } // MwiResetAll
 114          
 115          //-----------------------------------------------------------------------------
 116          // Reset
 117          //-----------------------------------------------------------------------------
 118          
 119          TYesNo MwiReset( byte channel)
 120          // Resetuje sbernici, vraci signal pritomnosti.
 121          // YES - zarizeni pritomno
 122          {
 123   1      bit presence;
 124   1      
 125   1         switch( channel){
C51 COMPILER V5.50,  MWI                                                                   24/07/12  10:33:52  PAGE 3   

 126   2            #ifdef MWI_CH0
 127   2            case MWI_CH0 :
 128   2               _MwiReset( MwiDQI0);
 129   2               break;
 130   2            #endif
 131   2            #ifdef MWI_CH1
 132   2            case MWI_CH1 :
 133   2               _MwiReset( MwiDQI1);
 134   2               break;
 135   2            #endif
 136   2            #ifdef MWI_CH2
 137   2            case MWI_CH2 :
 138   2               _MwiReset( MwiDQI2);
 139   2               break;
 140   2            #endif
 141   2            #ifdef MWI_CH3
 142   2            case MWI_CH3 :
 143   2               _MwiReset( MwiDQI3);
 144   2               break;
 145   2            #endif
 146   2            #ifdef MWI_CH4
 147   2            case MWI_CH4 :
 148   2               _MwiReset( MwiDQI4);
 149   2               break;
 150   2            #endif
 151   2            #ifdef MWI_CH5
 152   2            case MWI_CH5 :
 153   2               _MwiReset( MwiDQI5);
 154   2               break;
 155   2            #endif
 156   2            #ifdef MWI_CH6
                    case MWI_CH6 :
                       _MwiReset( MwiDQI6);
                       break;
                    #endif
 161   2            #ifdef MWI_CH7
                    case MWI_CH7 :
                       _MwiReset( MwiDQI7);
                       break;
                    #endif
 166   2         }
 167   1         MWI_DELAY_RESET_TIMESLOT;
 168   1         return( !presence);
 169   1      } // MwiReset
 170          
 171          //-----------------------------------------------------------------------------
 172          // Cteni bitu
 173          //-----------------------------------------------------------------------------
 174          
 175          bit MwiReadBit( byte channel)
 176          // Vytvori Read slot a vrati hodnotu bitu
 177          {
 178   1      byte i;
 179   1      bit  value;
 180   1      
 181   1         switch( channel){
 182   2            #ifdef MWI_CH0
 183   2            case MWI_CH0 :
 184   2               _MwiReadBit( MwiDQI0);
 185   2               break;
 186   2            #endif
 187   2            #ifdef MWI_CH1
 188   2            case MWI_CH1 :
 189   2               _MwiReadBit( MwiDQI1);
 190   2               break;
 191   2            #endif
C51 COMPILER V5.50,  MWI                                                                   24/07/12  10:33:52  PAGE 4   

 192   2            #ifdef MWI_CH2
 193   2            case MWI_CH2 :
 194   2               _MwiReadBit( MwiDQI2);
 195   2               break;
 196   2            #endif
 197   2            #ifdef MWI_CH3
 198   2            case MWI_CH3 :
 199   2               _MwiReadBit( MwiDQI3);
 200   2               break;
 201   2            #endif
 202   2            #ifdef MWI_CH4
 203   2            case MWI_CH4 :
 204   2               _MwiReadBit( MwiDQI4);
 205   2               break;
 206   2            #endif
 207   2            #ifdef MWI_CH5
 208   2            case MWI_CH5 :
 209   2               _MwiReadBit( MwiDQI5);
 210   2               break;
 211   2            #endif
 212   2            #ifdef MWI_CH6
                    case MWI_CH6 :
                       _MwiReadBit( MwiDQI6);
                       break;
                    #endif
 217   2            #ifdef MWI_CH7
                    case MWI_CH7 :
                       _MwiReadBit( MwiDQI7);
                       break;
                    #endif
 222   2         }
 223   1         MWI_DELAY_READ_SLOT;
 224   1         return( value);
 225   1      } // MwiReadBit
 226          
 227          //-----------------------------------------------------------------------------
 228          // Zapis bitu
 229          //-----------------------------------------------------------------------------
 230          
 231          void MwiWriteBit( bit value)
 232          // Vytvori Write slot s hodnotou <value>
 233          {
 234   1         DisableInts();
 235   1         MwiDQO = DQO_LO;
 236   1         MWI_DELAY_START;
 237   1         if( value){
 238   2            MwiDQO = DQO_HI;
 239   2         }
 240   1         MWI_DELAY_WRITE;
 241   1         MwiDQO = DQO_HI;
 242   1         EnableInts();
 243   1      } // MwiWriteBit
 244          
 245          //-----------------------------------------------------------------------------
 246          // Cteni bytu
 247          //-----------------------------------------------------------------------------
 248          
 249          byte MwiReadByte( byte channel)
 250          // Precte byte ze sbernice
 251          {
 252   1      byte i;
 253   1      byte value;
 254   1      
 255   1         value = 0;
 256   1         for( i = 0; i < 8; i++){
 257   2            value >>= 1;
C51 COMPILER V5.50,  MWI                                                                   24/07/12  10:33:52  PAGE 5   

 258   2            if( MwiReadBit( channel)){
 259   3               value |= 0x80;
 260   3            }
 261   2         }
 262   1         return( value);
 263   1      } // MwiReadByte
 264          
 265          //-----------------------------------------------------------------------------
 266          // Cteni bytu
 267          //-----------------------------------------------------------------------------
 268          
 269          void MwiWriteByte( byte value)
 270          // Zapise byte na sbernici
 271          {
 272   1      byte i;
 273   1      
 274   1         for( i = 0; i < 8; i++){
 275   2            MwiWriteBit( value & 1);
 276   2            value >>= 1;
 277   2         }
 278   1      } // MwiWriteByte
 279          
 280          #ifdef MWI_READ_ROM
              
              //-----------------------------------------------------------------------------
              // Cteni identifikace
              //-----------------------------------------------------------------------------
              
              TYesNo MwiReadROM( byte channel, TMwiIdentification *ident)
              // Precte identifikaci cipu
              {
              byte i;
              
                 if( !MwiReset( channel)){
                    return( NO);      // chybi presence impuls
                 }
                 MwiWriteByte( MWI_CMD_READ_ROM);
                 ident->family = MwiReadByte( channel);
                 for( i = 0; i < MWI_SERIAL_LENGTH; i++){
                    ident->serial[ i] = MwiReadByte( channel);
                 }
                 ident->crc = MwiReadByte( channel);
              #ifdef MWI_CRC8
                 // Kontrola zabezpeceni
                 MwiResetCrc();
                 // pres vsechny byty :
                 for( i = 0; i < MWI_IDENTIFICATION_LENGTH; i++){
                    MwiCalcCrc( ((byte *)ident)[ i]);
                 }
                 // vysledek by mel byt 0 :
                 if( MwiGetCrc() != 0){
                    return( NO);
                 }
              #endif
                 return( YES);
              } // MwiReadROM
              #endif
 315          
 316          #ifdef MWI_CRC8
 317          
 318          //-----------------------------------------------------------------------------
 319          // Vypocet CRC
 320          //-----------------------------------------------------------------------------
 321          
 322          byte _mwi_old_crc;        // kontext CRC, pred vypoctem nulovat !
 323          
C51 COMPILER V5.50,  MWI                                                                   24/07/12  10:33:52  PAGE 6   

 324          #ifdef MWI_FAST_CRC8         // vypocet CRC tabulkou
 325          
 326          static byte code crc_table[] = {
 327          0, 94,188,226, 97, 63,221,131,194,156,126, 32,163,253, 31, 65,
 328          157,195, 33,127,252,162, 64, 30, 95, 1,227,189, 62, 96,130,220,
 329          35,125,159,193, 66, 28,254,160,225,191, 93, 3,128,222, 60, 98,
 330          190,224, 2, 92,223,129, 99, 61,124, 34,192,158, 29, 67,161,255,
 331          70, 24,250,164, 39,121,155,197,132,218, 56,102,229,187, 89, 7,
 332          219,133,103, 57,186,228, 6, 88, 25, 71,165,251,120, 38,196,154,
 333          101, 59,217,135, 4, 90,184,230,167,249, 27, 69,198,152,122, 36,
 334          248,166, 68, 26,153,199, 37,123, 58,100,134,216, 91, 5,231,185,
 335          140,210, 48,110,237,179, 81, 15, 78, 16,242,172, 47,113,147,205,
 336          17, 79,173,243,112, 46,204,146,211,141,111, 49,178,236, 14, 80,
 337          175,241, 19, 77,206,144,114, 44,109, 51,209,143, 12, 82,176,238,
 338          50,108,142,208, 83, 13,239,177,240,174, 76, 18,145,207, 45,115,
 339          202,148,118, 40,171,245, 23, 73, 8, 86,180,234,105, 55,213,139,
 340          87, 9,235,181, 54,104,138,212,149,203, 41,119,244,170, 72, 22,
 341          233,183, 85, 11,136,214, 52,106, 43,117,151,201, 74, 20,246,168,
 342          116, 42,200,150, 21, 75,169,247,182,232, 10, 84,215,137,107, 53
 343          };
 344          
 345          byte MwiCalcCrc( byte value)
 346          // Vypocte z bytu zabezpeceni, vrati vysledek
 347          {
 348   1         _mwi_old_crc = crc_table[ value ^ _mwi_old_crc];
 349   1         return( _mwi_old_crc);
 350   1      } // CalcCrc
 351          
 352          #endif
 353          
 354          #else   //-- Algoritmicky vypocet CRC -----------------------------------------
              
              byte MwiCalcCrc( byte value)
              // Vypocte z bytu zabezpeceni, vrati vysledek
              {
              byte i;
              byte feedback;
              
                 for( i = 8; i > 0; i--){
                    feedback = 0;                                    // vystup prvniho hradla XOR, zatim 0
                    if( (value ^ _mwi_old_crc) & 0x01){              // XOR obou LSB
                       _old_crc ^= 0x18;                             // uplatni zpetnou vazbu pres vnitrni hradla
                       feedback  = 0x80;                             // vystup prvniho hradla je 1
                    }
                    _old_crc  = (_mwi_old_crc >> 1) | feedback;      // posun registr, do MSB pridej XOR
                    value >>= 1;                                     // dalsi datovy bit
                 }
                 return( _mwi_old_crc);
              } // MwiCalcCrc
              
              #endif // MWI_FAST_CRC8
 375          
 376          //-----------------------------------------------------------------------------
 377          // Zpozdeni
 378          //-----------------------------------------------------------------------------
 379          
 380          // Volani funkce s konstantou 4 takty
 381          // cyklus je <count + 1> * 12 taktu
 382          
 383          static void MwiMicroDelay( word count)
 384          // Zpozdeni v mikrosekundach
 385          {
 386   1      word i;
 387   1      
 388   1         for( i = 0; i < count; i++);
 389   1      } // MicroDelay
C51 COMPILER V5.50,  MWI                                                                   24/07/12  10:33:52  PAGE 7   

 390          
 391          
C51 COMPILER V5.50,  MWI                                                                   24/07/12  10:33:52  PAGE 8   

ASSEMBLY LISTING OF GENERATED OBJECT CODE


             ; FUNCTION MwiAttach (BEGIN)
                                           ; SOURCE LINE # 50
                                           ; SOURCE LINE # 52
                                           ; SOURCE LINE # 61
0000 D290          SETB    TmcTP1
                                           ; SOURCE LINE # 64
0002 D2C0          SETB    TmcTP2
                                           ; SOURCE LINE # 67
0004 D291          SETB    TmcTP3
                                           ; SOURCE LINE # 70
0006 D292          SETB    TmcTP4
                                           ; SOURCE LINE # 73
0008 D293          SETB    TmcTP5
                                           ; SOURCE LINE # 76
000A D2C1          SETB    TmcTP6
                                           ; SOURCE LINE # 84
000C D2EF          SETB    TmcBUZTP
                                           ; SOURCE LINE # 86
000E 22            RET     
             ; FUNCTION MwiAttach (END)

             ; FUNCTION MwiResetAll (BEGIN)
                                           ; SOURCE LINE # 106
                                           ; SOURCE LINE # 108
                                           ; SOURCE LINE # 109
0000 C2EF          CLR     TmcBUZTP
                                           ; SOURCE LINE # 110
0002 7F7A          MOV     R7,#07AH
0004 7E00          MOV     R6,#00H
0006 120000  R     LCALL   _MwiMicroDelay
                                           ; SOURCE LINE # 111
0009 D2EF          SETB    TmcBUZTP
                                           ; SOURCE LINE # 112
000B 7F7A          MOV     R7,#07AH
000D 7E00          MOV     R6,#00H
000F 120000  R     LCALL   _MwiMicroDelay
                                           ; SOURCE LINE # 113
0012 22            RET     
             ; FUNCTION MwiResetAll (END)

             ; FUNCTION _MwiReset (BEGIN)
;---- Variable 'channel' assigned to Register 'R7' ----
                                           ; SOURCE LINE # 119
                                           ; SOURCE LINE # 122
                                           ; SOURCE LINE # 125
0000 EF            MOV     A,R7
0001 14            DEC     A
0002 6047          JZ      ?C0009
0004 14            DEC     A
0005 606F          JZ      ?C0014
0007 14            DEC     A
0008 7003          JNZ     $ + 5H
000A 020000  R     LJMP    ?C0019
000D 14            DEC     A
000E 7003          JNZ     $ + 5H
0010 020000  R     LJMP    ?C0024
0013 14            DEC     A
0014 7003          JNZ     $ + 5H
0016 020000  R     LJMP    ?C0029
0019 2405          ADD     A,#05H
001B 6003          JZ      $ + 5H
001D 020000  R     LJMP    ?C0003
                                           ; SOURCE LINE # 127
C51 COMPILER V5.50,  MWI                                                                   24/07/12  10:33:52  PAGE 9   

0020         ?C0004:
                                           ; SOURCE LINE # 128
0020 209005        JB      TmcTP1,?C0005
0023 D200    R     SETB    presence
0025 020000  R     LJMP    ?C0003
0028         ?C0005:
0028 C2EF          CLR     TmcBUZTP
002A 7F7A          MOV     R7,#07AH
002C 7E00          MOV     R6,#00H
002E 120000  R     LCALL   _MwiMicroDelay
0031 C2AF          CLR     EA
0033 D2EF          SETB    TmcBUZTP
0035 7F11          MOV     R7,#011H
0037 7E00          MOV     R6,#00H
0039 120000  R     LCALL   _MwiMicroDelay
003C A290          MOV     C,TmcTP1
003E 5003          JNC     ?C0007
0040 D3            SETB    C
0041 8001          SJMP    ?C0008
0043         ?C0007:
0043 C3            CLR     C
0044         ?C0008:
0044 9200    R     MOV     presence,C
0046 D2AF          SETB    EA
                                           ; SOURCE LINE # 129
0048 020000  R     LJMP    ?C0003
                                           ; SOURCE LINE # 132
004B         ?C0009:
                                           ; SOURCE LINE # 133
004B 20C005        JB      TmcTP2,?C0010
004E D200    R     SETB    presence
0050 020000  R     LJMP    ?C0003
0053         ?C0010:
0053 C2EF          CLR     TmcBUZTP
0055 7F7A          MOV     R7,#07AH
0057 7E00          MOV     R6,#00H
0059 120000  R     LCALL   _MwiMicroDelay
005C C2AF          CLR     EA
005E D2EF          SETB    TmcBUZTP
0060 7F11          MOV     R7,#011H
0062 7E00          MOV     R6,#00H
0064 120000  R     LCALL   _MwiMicroDelay
0067 A2C0          MOV     C,TmcTP2
0069 5003          JNC     ?C0012
006B D3            SETB    C
006C 8001          SJMP    ?C0013
006E         ?C0012:
006E C3            CLR     C
006F         ?C0013:
006F 9200    R     MOV     presence,C
0071 D2AF          SETB    EA
                                           ; SOURCE LINE # 134
0073 020000  R     LJMP    ?C0003
                                           ; SOURCE LINE # 137
0076         ?C0014:
                                           ; SOURCE LINE # 138
0076 209105        JB      TmcTP3,?C0015
0079 D200    R     SETB    presence
007B 020000  R     LJMP    ?C0003
007E         ?C0015:
007E C2EF          CLR     TmcBUZTP
0080 7F7A          MOV     R7,#07AH
0082 7E00          MOV     R6,#00H
0084 120000  R     LCALL   _MwiMicroDelay
0087 C2AF          CLR     EA
0089 D2EF          SETB    TmcBUZTP
C51 COMPILER V5.50,  MWI                                                                   24/07/12  10:33:52  PAGE 10  

008B 7F11          MOV     R7,#011H
008D 7E00          MOV     R6,#00H
008F 120000  R     LCALL   _MwiMicroDelay
0092 A291          MOV     C,TmcTP3
0094 5003          JNC     ?C0017
0096 D3            SETB    C
0097 8001          SJMP    ?C0018
0099         ?C0017:
0099 C3            CLR     C
009A         ?C0018:
009A 9200    R     MOV     presence,C
009C D2AF          SETB    EA
                                           ; SOURCE LINE # 139
009E 8079          SJMP    ?C0003
                                           ; SOURCE LINE # 142
00A0         ?C0019:
                                           ; SOURCE LINE # 143
00A0 209204        JB      TmcTP4,?C0020
00A3 D200    R     SETB    presence
00A5 8072          SJMP    ?C0003
00A7         ?C0020:
00A7 C2EF          CLR     TmcBUZTP
00A9 7F7A          MOV     R7,#07AH
00AB 7E00          MOV     R6,#00H
00AD 120000  R     LCALL   _MwiMicroDelay
00B0 C2AF          CLR     EA
00B2 D2EF          SETB    TmcBUZTP
00B4 7F11          MOV     R7,#011H
00B6 7E00          MOV     R6,#00H
00B8 120000  R     LCALL   _MwiMicroDelay
00BB A292          MOV     C,TmcTP4
00BD 5003          JNC     ?C0022
00BF D3            SETB    C
00C0 8001          SJMP    ?C0023
00C2         ?C0022:
00C2 C3            CLR     C
00C3         ?C0023:
00C3 9200    R     MOV     presence,C
00C5 D2AF          SETB    EA
                                           ; SOURCE LINE # 144
00C7 8050          SJMP    ?C0003
                                           ; SOURCE LINE # 147
00C9         ?C0024:
                                           ; SOURCE LINE # 148
00C9 209304        JB      TmcTP5,?C0025
00CC D200    R     SETB    presence
00CE 8049          SJMP    ?C0003
00D0         ?C0025:
00D0 C2EF          CLR     TmcBUZTP
00D2 7F7A          MOV     R7,#07AH
00D4 7E00          MOV     R6,#00H
00D6 120000  R     LCALL   _MwiMicroDelay
00D9 C2AF          CLR     EA
00DB D2EF          SETB    TmcBUZTP
00DD 7F11          MOV     R7,#011H
00DF 7E00          MOV     R6,#00H
00E1 120000  R     LCALL   _MwiMicroDelay
00E4 A293          MOV     C,TmcTP5
00E6 5003          JNC     ?C0027
00E8 D3            SETB    C
00E9 8001          SJMP    ?C0028
00EB         ?C0027:
00EB C3            CLR     C
00EC         ?C0028:
00EC 9200    R     MOV     presence,C
00EE D2AF          SETB    EA
C51 COMPILER V5.50,  MWI                                                                   24/07/12  10:33:52  PAGE 11  

                                           ; SOURCE LINE # 149
00F0 8027          SJMP    ?C0003
                                           ; SOURCE LINE # 152
00F2         ?C0029:
                                           ; SOURCE LINE # 153
00F2 20C104        JB      TmcTP6,?C0030
00F5 D200    R     SETB    presence
00F7 8020          SJMP    ?C0003
00F9         ?C0030:
00F9 C2EF          CLR     TmcBUZTP
00FB 7F7A          MOV     R7,#07AH
00FD 7E00          MOV     R6,#00H
00FF 120000  R     LCALL   _MwiMicroDelay
0102 C2AF          CLR     EA
0104 D2EF          SETB    TmcBUZTP
0106 7F11          MOV     R7,#011H
0108 7E00          MOV     R6,#00H
010A 120000  R     LCALL   _MwiMicroDelay
010D A2C1          MOV     C,TmcTP6
010F 5003          JNC     ?C0032
0111 D3            SETB    C
0112 8001          SJMP    ?C0033
0114         ?C0032:
0114 C3            CLR     C
0115         ?C0033:
0115 9200    R     MOV     presence,C
0117 D2AF          SETB    EA
                                           ; SOURCE LINE # 154
                                           ; SOURCE LINE # 166
0119         ?C0003:
                                           ; SOURCE LINE # 167
0119 7F68          MOV     R7,#068H
011B 7E00          MOV     R6,#00H
011D 120000  R     LCALL   _MwiMicroDelay
                                           ; SOURCE LINE # 168
0120 A200    R     MOV     C,presence
0122 B3            CPL     C
                                           ; SOURCE LINE # 169
0123         ?C0034:
0123 22            RET     
             ; FUNCTION _MwiReset (END)

             ; FUNCTION _MwiReadBit (BEGIN)
;---- Variable 'channel' assigned to Register 'R7' ----
                                           ; SOURCE LINE # 175
                                           ; SOURCE LINE # 177
                                           ; SOURCE LINE # 181
0000 EF            MOV     A,R7
0001 14            DEC     A
0002 603C          JZ      ?C0042
0004 14            DEC     A
0005 605C          JZ      ?C0048
0007 14            DEC     A
0008 607B          JZ      ?C0054
000A 14            DEC     A
000B 7003          JNZ     $ + 5H
000D 020000  R     LJMP    ?C0060
0010 14            DEC     A
0011 7003          JNZ     $ + 5H
0013 020000  R     LJMP    ?C0066
0016 2405          ADD     A,#05H
0018 6003          JZ      $ + 5H
001A 020000  R     LJMP    ?C0035
                                           ; SOURCE LINE # 183
001D         ?C0036:
                                           ; SOURCE LINE # 184
C51 COMPILER V5.50,  MWI                                                                   24/07/12  10:33:52  PAGE 12  

001D C2AF          CLR     EA
001F C2EF          CLR     TmcBUZTP
0021 00            NOP     
0022 00            NOP     
0023 00            NOP     
0024 00            NOP     
0025 D2EF          SETB    TmcBUZTP
0027 E4            CLR     A
0028 F500    R     MOV     i,A
002A         ?C0037:
002A 0500    R     INC     i
002C E500    R     MOV     A,i
002E B407F9        CJNE    A,#07H,?C0037
0031         ?C0038:
0031 A290          MOV     C,TmcTP1
0033 5003          JNC     ?C0040
0035 D3            SETB    C
0036 8001          SJMP    ?C0041
0038         ?C0040:
0038 C3            CLR     C
0039         ?C0041:
0039 9200    R     MOV     value,C
003B D2AF          SETB    EA
                                           ; SOURCE LINE # 185
003D 020000  R     LJMP    ?C0035
                                           ; SOURCE LINE # 188
0040         ?C0042:
                                           ; SOURCE LINE # 189
0040 C2AF          CLR     EA
0042 C2EF          CLR     TmcBUZTP
0044 00            NOP     
0045 00            NOP     
0046 00            NOP     
0047 00            NOP     
0048 D2EF          SETB    TmcBUZTP
004A E4            CLR     A
004B F500    R     MOV     i,A
004D         ?C0043:
004D 0500    R     INC     i
004F E500    R     MOV     A,i
0051 B407F9        CJNE    A,#07H,?C0043
0054         ?C0044:
0054 A2C0          MOV     C,TmcTP2
0056 5003          JNC     ?C0046
0058 D3            SETB    C
0059 8001          SJMP    ?C0047
005B         ?C0046:
005B C3            CLR     C
005C         ?C0047:
005C 9200    R     MOV     value,C
005E D2AF          SETB    EA
                                           ; SOURCE LINE # 190
0060 020000  R     LJMP    ?C0035
                                           ; SOURCE LINE # 193
0063         ?C0048:
                                           ; SOURCE LINE # 194
0063 C2AF          CLR     EA
0065 C2EF          CLR     TmcBUZTP
0067 00            NOP     
0068 00            NOP     
0069 00            NOP     
006A 00            NOP     
006B D2EF          SETB    TmcBUZTP
006D E4            CLR     A
006E F500    R     MOV     i,A
0070         ?C0049:
C51 COMPILER V5.50,  MWI                                                                   24/07/12  10:33:52  PAGE 13  

0070 0500    R     INC     i
0072 E500    R     MOV     A,i
0074 B407F9        CJNE    A,#07H,?C0049
0077         ?C0050:
0077 A291          MOV     C,TmcTP3
0079 5003          JNC     ?C0052
007B D3            SETB    C
007C 8001          SJMP    ?C0053
007E         ?C0052:
007E C3            CLR     C
007F         ?C0053:
007F 9200    R     MOV     value,C
0081 D2AF          SETB    EA
                                           ; SOURCE LINE # 195
0083 8064          SJMP    ?C0035
                                           ; SOURCE LINE # 198
0085         ?C0054:
                                           ; SOURCE LINE # 199
0085 C2AF          CLR     EA
0087 C2EF          CLR     TmcBUZTP
0089 00            NOP     
008A 00            NOP     
008B 00            NOP     
008C 00            NOP     
008D D2EF          SETB    TmcBUZTP
008F E4            CLR     A
0090 F500    R     MOV     i,A
0092         ?C0055:
0092 0500    R     INC     i
0094 E500    R     MOV     A,i
0096 B407F9        CJNE    A,#07H,?C0055
0099         ?C0056:
0099 A292          MOV     C,TmcTP4
009B 5003          JNC     ?C0058
009D D3            SETB    C
009E 8001          SJMP    ?C0059
00A0         ?C0058:
00A0 C3            CLR     C
00A1         ?C0059:
00A1 9200    R     MOV     value,C
00A3 D2AF          SETB    EA
                                           ; SOURCE LINE # 200
00A5 8042          SJMP    ?C0035
                                           ; SOURCE LINE # 203
00A7         ?C0060:
                                           ; SOURCE LINE # 204
00A7 C2AF          CLR     EA
00A9 C2EF          CLR     TmcBUZTP
00AB 00            NOP     
00AC 00            NOP     
00AD 00            NOP     
00AE 00            NOP     
00AF D2EF          SETB    TmcBUZTP
00B1 E4            CLR     A
00B2 F500    R     MOV     i,A
00B4         ?C0061:
00B4 0500    R     INC     i
00B6 E500    R     MOV     A,i
00B8 B407F9        CJNE    A,#07H,?C0061
00BB         ?C0062:
00BB A293          MOV     C,TmcTP5
00BD 5003          JNC     ?C0064
00BF D3            SETB    C
00C0 8001          SJMP    ?C0065
00C2         ?C0064:
00C2 C3            CLR     C
C51 COMPILER V5.50,  MWI                                                                   24/07/12  10:33:52  PAGE 14  

00C3         ?C0065:
00C3 9200    R     MOV     value,C
00C5 D2AF          SETB    EA
                                           ; SOURCE LINE # 205
00C7 8020          SJMP    ?C0035
                                           ; SOURCE LINE # 208
00C9         ?C0066:
                                           ; SOURCE LINE # 209
00C9 C2AF          CLR     EA
00CB C2EF          CLR     TmcBUZTP
00CD 00            NOP     
00CE 00            NOP     
00CF 00            NOP     
00D0 00            NOP     
00D1 D2EF          SETB    TmcBUZTP
00D3 E4            CLR     A
00D4 F500    R     MOV     i,A
00D6         ?C0067:
00D6 0500    R     INC     i
00D8 E500    R     MOV     A,i
00DA B407F9        CJNE    A,#07H,?C0067
00DD         ?C0068:
00DD A2C1          MOV     C,TmcTP6
00DF 5003          JNC     ?C0070
00E1 D3            SETB    C
00E2 8001          SJMP    ?C0071
00E4         ?C0070:
00E4 C3            CLR     C
00E5         ?C0071:
00E5 9200    R     MOV     value,C
00E7 D2AF          SETB    EA
                                           ; SOURCE LINE # 210
                                           ; SOURCE LINE # 222
00E9         ?C0035:
                                           ; SOURCE LINE # 223
00E9 7F18          MOV     R7,#018H
00EB 7E00          MOV     R6,#00H
00ED 120000  R     LCALL   _MwiMicroDelay
                                           ; SOURCE LINE # 224
00F0 A200    R     MOV     C,value
                                           ; SOURCE LINE # 225
00F2         ?C0072:
00F2 22            RET     
             ; FUNCTION _MwiReadBit (END)

             ; FUNCTION MwiWriteBit (BEGIN)
                                           ; SOURCE LINE # 231
                                           ; SOURCE LINE # 233
                                           ; SOURCE LINE # 234
0000 C2AF          CLR     EA
                                           ; SOURCE LINE # 235
0002 C2EF          CLR     TmcBUZTP
                                           ; SOURCE LINE # 236
0004 00            NOP     
0005 00            NOP     
0006 00            NOP     
0007 00            NOP     
                                           ; SOURCE LINE # 237
0008 300002  R     JNB     value,?C0073
                                           ; SOURCE LINE # 238
000B D2EF          SETB    TmcBUZTP
                                           ; SOURCE LINE # 239
000D         ?C0073:
                                           ; SOURCE LINE # 240
000D 7F13          MOV     R7,#013H
000F 7E00          MOV     R6,#00H
C51 COMPILER V5.50,  MWI                                                                   24/07/12  10:33:52  PAGE 15  

0011 120000  R     LCALL   _MwiMicroDelay
                                           ; SOURCE LINE # 241
0014 D2EF          SETB    TmcBUZTP
                                           ; SOURCE LINE # 242
0016 D2AF          SETB    EA
                                           ; SOURCE LINE # 243
0018 22            RET     
             ; FUNCTION MwiWriteBit (END)

             ; FUNCTION _MwiReadByte (BEGIN)
0000 8F00    R     MOV     channel,R7
                                           ; SOURCE LINE # 249
                                           ; SOURCE LINE # 251
                                           ; SOURCE LINE # 255
0002 E4            CLR     A
0003 F500    R     MOV     value,A
                                           ; SOURCE LINE # 256
0005 F500    R     MOV     i,A
0007         ?C0075:
                                           ; SOURCE LINE # 257
0007 E500    R     MOV     A,value
0009 C3            CLR     C
000A 13            RRC     A
000B F500    R     MOV     value,A
                                           ; SOURCE LINE # 258
000D AF00    R     MOV     R7,channel
000F 120000  R     LCALL   _MwiReadBit
0012 5003          JNC     ?C0077
                                           ; SOURCE LINE # 259
0014 430080  R     ORL     value,#080H
                                           ; SOURCE LINE # 260
                                           ; SOURCE LINE # 261
0017         ?C0077:
0017 0500    R     INC     i
0019 E500    R     MOV     A,i
001B C3            CLR     C
001C 9408          SUBB    A,#08H
001E 40E7          JC      ?C0075
0020         ?C0076:
                                           ; SOURCE LINE # 262
0020 AF00    R     MOV     R7,value
                                           ; SOURCE LINE # 263
0022         ?C0079:
0022 22            RET     
             ; FUNCTION _MwiReadByte (END)

             ; FUNCTION _MwiWriteByte (BEGIN)
0000 8F00    R     MOV     value,R7
                                           ; SOURCE LINE # 269
                                           ; SOURCE LINE # 271
                                           ; SOURCE LINE # 274
0002 E4            CLR     A
0003 F500    R     MOV     i,A
0005         ?C0080:
                                           ; SOURCE LINE # 275
0005 E500    R     MOV     A,value
0007 13            RRC     A
0008 9200    R     MOV     ?MwiWriteBit?BIT,C
000A 120000  R     LCALL   MwiWriteBit
                                           ; SOURCE LINE # 276
000D E500    R     MOV     A,value
000F C3            CLR     C
0010 13            RRC     A
0011 F500    R     MOV     value,A
                                           ; SOURCE LINE # 277
0013 0500    R     INC     i
C51 COMPILER V5.50,  MWI                                                                   24/07/12  10:33:52  PAGE 16  

0015 E500    R     MOV     A,i
0017 C3            CLR     C
0018 9408          SUBB    A,#08H
001A 40E9          JC      ?C0080
                                           ; SOURCE LINE # 278
001C         ?C0083:
001C 22            RET     
             ; FUNCTION _MwiWriteByte (END)

             ; FUNCTION _MwiCalcCrc (BEGIN)
;---- Variable 'value' assigned to Register 'R7' ----
                                           ; SOURCE LINE # 345
                                           ; SOURCE LINE # 347
                                           ; SOURCE LINE # 348
0000 E500    R     MOV     A,_mwi_old_crc
0002 6F            XRL     A,R7
0003 900000  R     MOV     DPTR,#crc_table
0006 93            MOVC    A,@A+DPTR
0007 F500    R     MOV     _mwi_old_crc,A
                                           ; SOURCE LINE # 349
0009 FF            MOV     R7,A
                                           ; SOURCE LINE # 350
000A         ?C0084:
000A 22            RET     
             ; FUNCTION _MwiCalcCrc (END)

             ; FUNCTION _MwiMicroDelay (BEGIN)
;---- Variable 'count' assigned to Register 'R6/R7' ----
                                           ; SOURCE LINE # 383
                                           ; SOURCE LINE # 385
                                           ; SOURCE LINE # 388
;---- Variable 'i' assigned to Register 'R4/R5' ----
0000 E4            CLR     A
0001 FD            MOV     R5,A
0002 FC            MOV     R4,A
0003         ?C0085:
0003 C3            CLR     C
0004 ED            MOV     A,R5
0005 9F            SUBB    A,R7
0006 EC            MOV     A,R4
0007 9E            SUBB    A,R6
0008 5007          JNC     ?C0088
000A 0D            INC     R5
000B BD0001        CJNE    R5,#00H,?C0089
000E 0C            INC     R4
000F         ?C0089:
000F 80F2          SJMP    ?C0085
                                           ; SOURCE LINE # 389
0011         ?C0088:
0011 22            RET     
             ; FUNCTION _MwiMicroDelay (END)



MODULE INFORMATION:   STATIC OVERLAYABLE
   CODE SIZE        =    687    ----
   CONSTANT SIZE    =    256    ----
   XDATA SIZE       =   ----    ----
   PDATA SIZE       =   ----    ----
   DATA SIZE        =      1       6
   IDATA SIZE       =   ----    ----
   BIT SIZE         =   ----       3
END OF MODULE INFORMATION.


C51 COMPILATION COMPLETE.  0 WARNING(S),  0 ERROR(S)
