C51 COMPILER V5.50,  HC165                                                                 24/07/12  10:33:52  PAGE 1   


DOS C51 COMPILER V5.50, COMPILATION OF MODULE HC165
OBJECT MODULE PLACED IN ..\MODULY\HC165\HC165.OBJ
COMPILER INVOKED BY: E:\C51_V5.5\BIN\C51.EXE ..\MODULY\HC165\HC165.C51 CD DB

stmt level    source

   1          //*****************************************************************************
   2          //
   3          //    Hc165.c    -  74HC165 shift register as digital input
   4          //    Version 1.0   (c) VymOs
   5          //
   6          //*****************************************************************************
   7          
   8          #include "..\inc\Hc165.h"
   9          
  10          //-----------------------------------------------------------------------------
  11          // Inicializace
  12          //-----------------------------------------------------------------------------
  13          
  14          void DigitalInInit( void)
  15          // Inicializace modulu
  16          {
  17   1         DinCP = 0;                          // vychozi hodiny
  18   1         DinPL = 1;                          // shift
  19   1         DinQ7 = 1;                          // vstup
  20   1      } // DinInit
  21          
  22          //-----------------------------------------------------------------------------
  23          // Cteni
  24          //-----------------------------------------------------------------------------
  25          
  26          byte DigitalInRead( void)
  27          // Cteni vstupu
  28          {
  29   1      byte i;
  30   1      byte Value;
  31   1         DinPL = 1;                          // shift
  32   1         DinCP = 0;                          // vychozi hodiny
  33   1         DinPL = 0;                          // strobovani vstupu
  34   1         DinQ7 = 1;                          // inicializace cteni
  35   1         DinPL = 1;                          // konec strobovani
  36   1         // shift dat :
  37   1         Value = 0;
  38   1         for( i = 0; i < 8; i++){
  39   2            DinCP = 0;                       // neaktivni hrana hodin
  40   2            Value <<= 1;
  41   2            if( DinQ7){
  42   3               Value |= 0x01;
  43   3            }
  44   2            DinCP = 1;                       // posun registru
  45   2         }
  46   1         DinCP = 0;
  47   1         return( Value);
  48   1      } // DinRead
C51 COMPILER V5.50,  HC165                                                                 24/07/12  10:33:52  PAGE 2   

ASSEMBLY LISTING OF GENERATED OBJECT CODE


             ; FUNCTION DigitalInInit (BEGIN)
                                           ; SOURCE LINE # 14
                                           ; SOURCE LINE # 16
                                           ; SOURCE LINE # 17
0000 C2E8          CLR     TmcCLKDI
                                           ; SOURCE LINE # 18
0002 D282          SETB    TmcD2
                                           ; SOURCE LINE # 19
0004 D2A3          SETB    TmcOUTDI
                                           ; SOURCE LINE # 20
0006 22            RET     
             ; FUNCTION DigitalInInit (END)

             ; FUNCTION DigitalInRead (BEGIN)
                                           ; SOURCE LINE # 26
                                           ; SOURCE LINE # 28
                                           ; SOURCE LINE # 31
0000 D282          SETB    TmcD2
                                           ; SOURCE LINE # 32
0002 C2E8          CLR     TmcCLKDI
                                           ; SOURCE LINE # 33
0004 C282          CLR     TmcD2
                                           ; SOURCE LINE # 34
0006 D2A3          SETB    TmcOUTDI
                                           ; SOURCE LINE # 35
0008 D282          SETB    TmcD2
                                           ; SOURCE LINE # 37
;---- Variable 'Value' assigned to Register 'R7' ----
000A E4            CLR     A
000B FF            MOV     R7,A
                                           ; SOURCE LINE # 38
;---- Variable 'i' assigned to Register 'R6' ----
000C FE            MOV     R6,A
000D         ?C0002:
                                           ; SOURCE LINE # 39
000D C2E8          CLR     TmcCLKDI
                                           ; SOURCE LINE # 40
000F EF            MOV     A,R7
0010 25E0          ADD     A,ACC
0012 FF            MOV     R7,A
                                           ; SOURCE LINE # 41
0013 30A303        JNB     TmcOUTDI,?C0005
                                           ; SOURCE LINE # 42
0016 430701        ORL     AR7,#01H
                                           ; SOURCE LINE # 43
0019         ?C0005:
                                           ; SOURCE LINE # 44
0019 D2E8          SETB    TmcCLKDI
                                           ; SOURCE LINE # 45
001B 0E            INC     R6
001C BE08EE        CJNE    R6,#08H,?C0002
001F         ?C0003:
                                           ; SOURCE LINE # 46
001F C2E8          CLR     TmcCLKDI
                                           ; SOURCE LINE # 47
                                           ; SOURCE LINE # 48
0021         ?C0006:
0021 22            RET     
             ; FUNCTION DigitalInRead (END)



MODULE INFORMATION:   STATIC OVERLAYABLE
C51 COMPILER V5.50,  HC165                                                                 24/07/12  10:33:52  PAGE 3   

   CODE SIZE        =     41    ----
   CONSTANT SIZE    =   ----    ----
   XDATA SIZE       =   ----    ----
   PDATA SIZE       =   ----    ----
   DATA SIZE        =   ----    ----
   IDATA SIZE       =   ----    ----
   BIT SIZE         =   ----    ----
END OF MODULE INFORMATION.


C51 COMPILATION COMPLETE.  0 WARNING(S),  0 ERROR(S)
