^D:\SOURCE\VISUAL STUDIO\BAT1DIAG\BAT1DIAG\FORM1.RESX|D:\SOURCE\VISUAL STUDIO\BAT1DIAG\BAT1DIAG\PROPERTIES\RESOURCES.RESX|D:\SOURCE\VISUAL STUDIO\BAT1DIAG\BAT1DIAG\SETTINGSFORM.RESX
D:\SOURCE\VISUAL STUDIO\BAT1DIAG\BAT1DIAG\OBJ\X86\RELEASE\BAT1DIAG.FORM1.RESOURCES
D:\SOURCE\VISUAL STUDIO\BAT1DIAG\BAT1DIAG\OBJ\X86\RELEASE\BAT1DIAG.PROPERTIES.RESOURCES.RESOURCES
D:\SOURCE\VISUAL STUDIO\BAT1DIAG\BAT1DIAG\OBJ\X86\RELEASE\BAT1DIAG.SETTINGSFORM.RESOURCES
