^D:\SOURCE\VISUAL STUDIO\PICOSTRAINCONFIGURATOR\PICOSTRAINCONFIGURATOR\PROPERTIES\RESOURCES.RESX
^D:\SOURCE\VISUAL STUDIO\PICOSTRAINCONFIGURATOR\PICOSTRAINCONFIGURATOR\OUTPUT.RESX
^D:\SOURCE\VISUAL STUDIO\PICOSTRAINCONFIGURATOR\PICOSTRAINCONFIGURATOR\FORM1.RESX
