0000: 28 83
0002: 2C 2F
0004: 40 87
0006: 01 0F
0008: 0A 04
000A: 60 41
000C: 20 00
000E: 00 20
0010: 00 00
0012: 10 00
0014: 00 10
0016: 00 00
0018: 26 66
001A: 66 00
001C: 00 00
001E: 14 00
0020: A0 AA
0022: 44 5A
0024: E8 E7
0026: 28 C8
0028: 45 40
002A: 60 07
002C: 00 00
002E: 00 00
0030: 96 60
0032: 9F 0C
0034: 61 7B
0036: C9 01
0038: 09 60
003A: 87 13
003C: C9 01
003E: 56 61
0040: 93 C9
0042: 01 56
0044: 61 8B
0046: C9 01
0048: 56 81
004A: 0B C9
004C: 01 56
004E: F2 41
0050: F1 1F
0052: 81 F1
0054: 0F 86
0056: 2C 88
0058: FF 49
005A: C9 01
005C: 56 86
005E: 7B 0B
0060: 87 77
0062: 88 7D
0064: CB 79
0066: 72 AC
0068: 7B E1
006A: 6A 78
006C: 82 7E
006E: 81 60
0070: 23 1F
0072: 81 60
0074: 2B 0C
0076: F1 17
0078: F2 41
007A: 60 9B
007C: 76 E1
007E: 83 64
0080: 72 81
0082: 60 33
0084: 6E F1
0086: 1B F2
0088: 41 60
008A: 9F 67
008C: E1 83
008E: 64 63
0090: 8A FB
0092: 6F 14
0094: 58 07
0096: F2 41
0098: F1 3B
009A: F1 1B
009C: 6F 28
009E: 58 08
00A0: 0B F2
00A2: 41 F1
00A4: 3B F1
00A6: 1B 82
00A8: 7B 83
00AA: 2E A2
00AC: FF 48
00AE: 05 84
00B0: 73 64
00B2: 13 A1
00B4: 77 A2
00B6: 7D 83
00B8: 73 0B
00BA: C1 4A
00BC: C0 64
00BE: FC A3
00C0: 7B EC
00C2: 21 84
00C4: 7C 82
00C6: 7B 32
00C8: CB 28
00CA: A5 13
00CC: 4C 08
00CE: A7 0B
00D0: 81 F1
00D2: 0B 64
00D4: 1A A6
00D6: 77 A7
00D8: 17 4B
00DA: FB 17
00DC: 58 11
00DE: 81 60
00E0: 17 0D
00E2: F1 2B
00E4: 81 60
00E6: 0F 0B
00E8: 84 73
00EA: 82 7C
00EC: 64 05
00EE: 81 60
00F0: 0B 65
00F2: 82 73
00F4: A8 7B
00F6: 38 CE
00F8: 2A A0
00FA: CB 4B
00FC: AA 2B
00FE: 80 7E
0100: 81 F1
0102: 2F F2
0104: 41 F1
0106: 3F 64
0108: 4E 81
010A: 60 03
010C: 4A E1
010E: 83 F2
0110: 41 F5
0112: 2F 86
0114: 0B 87
0116: 73 88
0118: 7C A7
011A: 0B 84
011C: 0B 83
011E: 0B 8A
0120: 0B A3
0122: 73 A1
0124: 6B 01
0126: 6C 11
0128: 4F D3
012A: C0 64
012C: FA 77
012E: A2 7D
0130: A3 7C
0132: 77 6D
0134: 01 4B
0136: FD D0
0138: 64 FA
013A: 6A 01
013C: 77 6D
013E: 02 4B
0140: FD D2
0142: 64 FA
0144: FE CB
0146: A8 A3
0148: 7E AA
014A: 73 EC
014C: 30 AA
014E: 73 AC
0150: 7B E1
0152: 59 B1
0154: F5 07
0156: CB 01
0158: CD 6E
015A: 00 59
015C: CF 8B
015E: 7C 8C
0160: 7C 6E
0162: 03 59
0164: CF 8D
0166: 7C 8E
0168: 7C CF
016A: 6E 00
016C: 59 CF
016E: 74 8B
0170: 23 07
0172: 8C 23
0174: 07 6E
0176: 03 59
0178: 64 07
017A: 8D 23
017C: 07 8E
017E: 23 07
0180: CB 72
0182: CF F2
0184: 41 F5
0186: 6F B2
0188: 73 B6
018A: 03 B2
018C: 7C A5
018E: 73 89
0190: 03 A5
0192: 7C A8
0194: 73 AD
0196: 03 A8
0198: 7C A9
019A: 77 AE
019C: 07 A9
019E: 7D 33
01A0: CE 28
01A2: AB 77
01A4: CB 64
01A6: A0 7D
01A8: CF CF
01AA: CF 00
