C51 COMPILER V5.50,  TIME                                                                  24/07/12  10:33:55  PAGE 1   


DOS C51 COMPILER V5.50, COMPILATION OF MODULE TIME
OBJECT MODULE PLACED IN TIME.OBJ
COMPILER INVOKED BY: E:\C51_V5.5\BIN\C51.EXE TIME.C51 CD DB

stmt level    source

   1          //*****************************************************************************
   2          //
   3          //    Time.c - Datum a cas
   4          //    Version 1.0
   5          //
   6          //*****************************************************************************
   7          
   8          #include "Time.h"
   9          #include "..\inc\Rx8025.h"     // RTC
  10          #include "..\inc\bcd.h"        // BCD aritmetika pro prevody
  11          
  12          // Globalni datum a cas
  13          TTime __xdata__ Time;
  14          
  15          #ifndef __TMCREMOTE__
  16          
  17          //-----------------------------------------------------------------------------
  18          // Inicializace
  19          //-----------------------------------------------------------------------------
  20          
  21          void TimeInit() {
  22   1        // Inicializuje realny cas
  23   1        RtcInit();
  24   1        RtcSec();             // Kvuli warningu, sekundy se normalne nepouzivaji
  25   1        Time.Changed = NO;    // Hodiny beze zmeny
  26   1      }
  27          
  28          //-----------------------------------------------------------------------------
  29          // Cteni data a casu
  30          //-----------------------------------------------------------------------------
  31          
  32          void TimeRead() {
  33   1        // Nacte aktualni datum a cas a ulozi je do lokalnich promennych
  34   1        Time.Day   = bbcd2bin(RtcDay());
  35   1        Time.Month = bbcd2bin(RtcMonth());
  36   1        Time.Year  = wbcd2bin(RtcYear());
  37   1        Time.Hour  = bbcd2bin(RtcHour());
  38   1        Time.Min   = bbcd2bin(RtcMin());
  39   1      }
  40          
  41          //-----------------------------------------------------------------------------
  42          // Nostaveni noveho data a casu
  43          //-----------------------------------------------------------------------------
  44          
  45          void TimeSetNewTime(TTransferTime data *NewTime) {
  46   1        // Nastavi novy datum a cas zadany strukturou TTransferTime
  47   1        RtcSetDay(bbin2bcd(NewTime->Time.Day));
  48   1        RtcSetMonth(bbin2bcd(NewTime->Time.Month));
  49   1        RtcSetYear(wbin2bcd(NewTime->Time.Year));
  50   1        RtcSetHour(bbin2bcd(NewTime->Time.Hour));
  51   1        RtcSetMin(bbin2bcd(NewTime->Time.Min));
  52   1        RtcSetSec(0);         // Sekundy jen nuluju
  53   1      }
  54          
  55          #endif // __TMCREMOTE__
C51 COMPILER V5.50,  TIME                                                                  24/07/12  10:33:55  PAGE 2   

ASSEMBLY LISTING OF GENERATED OBJECT CODE


             ; FUNCTION TimeInit (BEGIN)
                                           ; SOURCE LINE # 21
                                           ; SOURCE LINE # 23
0000 120000  E     LCALL   RtcInit
                                           ; SOURCE LINE # 24
0003 120000  E     LCALL   RtcSec
                                           ; SOURCE LINE # 25
0006 E4            CLR     A
0007 900000  R     MOV     DPTR,#Time+06H
000A F0            MOVX    @DPTR,A
                                           ; SOURCE LINE # 26
000B 22            RET     
             ; FUNCTION TimeInit (END)

             ; FUNCTION TimeRead (BEGIN)
                                           ; SOURCE LINE # 32
                                           ; SOURCE LINE # 34
0000 120000  E     LCALL   RtcDay
0003 120000  E     LCALL   _bbcd2bin
0006 900000  R     MOV     DPTR,#Time+02H
0009 EF            MOV     A,R7
000A F0            MOVX    @DPTR,A
                                           ; SOURCE LINE # 35
000B 120000  E     LCALL   RtcMonth
000E 120000  E     LCALL   _bbcd2bin
0011 900000  R     MOV     DPTR,#Time+03H
0014 EF            MOV     A,R7
0015 F0            MOVX    @DPTR,A
                                           ; SOURCE LINE # 36
0016 120000  E     LCALL   RtcYear
0019 120000  E     LCALL   _wbcd2bin
001C 900000  R     MOV     DPTR,#Time+04H
001F EE            MOV     A,R6
0020 F0            MOVX    @DPTR,A
0021 A3            INC     DPTR
0022 EF            MOV     A,R7
0023 F0            MOVX    @DPTR,A
                                           ; SOURCE LINE # 37
0024 120000  E     LCALL   RtcHour
0027 120000  E     LCALL   _bbcd2bin
002A 900000  R     MOV     DPTR,#Time+01H
002D EF            MOV     A,R7
002E F0            MOVX    @DPTR,A
                                           ; SOURCE LINE # 38
002F 120000  E     LCALL   RtcMin
0032 120000  E     LCALL   _bbcd2bin
0035 900000  R     MOV     DPTR,#Time
0038 EF            MOV     A,R7
0039 F0            MOVX    @DPTR,A
                                           ; SOURCE LINE # 39
003A 22            RET     
             ; FUNCTION TimeRead (END)

             ; FUNCTION _TimeSetNewTime (BEGIN)
0000 8F00    R     MOV     NewTime,R7
                                           ; SOURCE LINE # 45
                                           ; SOURCE LINE # 47
0002 A807          MOV     R0,AR7
0004 E8            MOV     A,R0
0005 2402          ADD     A,#02H
0007 F8            MOV     R0,A
0008 E6            MOV     A,@R0
0009 08            INC     R0
C51 COMPILER V5.50,  TIME                                                                  24/07/12  10:33:55  PAGE 3   

000A E6            MOV     A,@R0
000B 541F          ANL     A,#01FH
000D FF            MOV     R7,A
000E 120000  E     LCALL   _bbin2bcd
0011 120000  E     LCALL   _RtcSetDay
                                           ; SOURCE LINE # 48
0014 A800    R     MOV     R0,NewTime
0016 E6            MOV     A,@R0
0017 FE            MOV     R6,A
0018 08            INC     R0
0019 E6            MOV     A,@R0
001A EE            MOV     A,R6
001B C4            SWAP    A
001C 540F          ANL     A,#0FH
001E 540F          ANL     A,#0FH
0020 FF            MOV     R7,A
0021 120000  E     LCALL   _bbin2bcd
0024 120000  E     LCALL   _RtcSetMonth
                                           ; SOURCE LINE # 49
0027 A800    R     MOV     R0,NewTime
0029 E6            MOV     A,@R0
002A FE            MOV     R6,A
002B 08            INC     R0
002C E6            MOV     A,@R0
002D FF            MOV     R7,A
002E EE            MOV     A,R6
002F 540F          ANL     A,#0FH
0031 FE            MOV     R6,A
0032 120000  E     LCALL   _wbin2bcd
0035 120000  E     LCALL   _RtcSetYear
                                           ; SOURCE LINE # 50
0038 E500    R     MOV     A,NewTime
003A 2402          ADD     A,#02H
003C F8            MOV     R0,A
003D E6            MOV     A,@R0
003E FE            MOV     R6,A
003F 08            INC     R0
0040 E6            MOV     A,@R0
0041 7805          MOV     R0,#05H
0043         ?C0004:
0043 CE            XCH     A,R6
0044 C3            CLR     C
0045 13            RRC     A
0046 CE            XCH     A,R6
0047 13            RRC     A
0048 D8F9          DJNZ    R0,?C0004
004A 541F          ANL     A,#01FH
004C FF            MOV     R7,A
004D 120000  E     LCALL   _bbin2bcd
0050 120000  E     LCALL   _RtcSetHour
                                           ; SOURCE LINE # 51
0053 E500    R     MOV     A,NewTime
0055 2402          ADD     A,#02H
0057 F8            MOV     R0,A
0058 E6            MOV     A,@R0
0059 FE            MOV     R6,A
005A 08            INC     R0
005B E6            MOV     A,@R0
005C EE            MOV     A,R6
005D 13            RRC     A
005E 13            RRC     A
005F 543F          ANL     A,#03FH
0061 543F          ANL     A,#03FH
0063 FF            MOV     R7,A
0064 120000  E     LCALL   _bbin2bcd
0067 120000  E     LCALL   _RtcSetMin
C51 COMPILER V5.50,  TIME                                                                  24/07/12  10:33:55  PAGE 4   

                                           ; SOURCE LINE # 52
006A E4            CLR     A
006B FF            MOV     R7,A
006C 120000  E     LCALL   _RtcSetSec
                                           ; SOURCE LINE # 53
006F 22            RET     
             ; FUNCTION _TimeSetNewTime (END)



MODULE INFORMATION:   STATIC OVERLAYABLE
   CODE SIZE        =    183    ----
   CONSTANT SIZE    =   ----    ----
   XDATA SIZE       =      7    ----
   PDATA SIZE       =   ----    ----
   DATA SIZE        =   ----       1
   IDATA SIZE       =   ----    ----
   BIT SIZE         =   ----    ----
END OF MODULE INFORMATION.


C51 COMPILATION COMPLETE.  0 WARNING(S),  0 ERROR(S)
