^D:\SOURCE\VISUAL STUDIO\AVR32UARTMODE\AVR32UARTTIMEOUT\FORM1.RESX|D:\SOURCE\VISUAL STUDIO\AVR32UARTMODE\AVR32UARTTIMEOUT\PROPERTIES\RESOURCES.RESX
D:\SOURCE\VISUAL STUDIO\AVR32UARTMODE\AVR32UARTTIMEOUT\OBJ\X86\DEBUG\AVR32UARTTIMEOUT.FORM1.RESOURCES
D:\SOURCE\VISUAL STUDIO\AVR32UARTMODE\AVR32UARTTIMEOUT\OBJ\X86\DEBUG\AVR32UARTTIMEOUT.PROPERTIES.RESOURCES.RESOURCES
^D:\SOURCE\VISUAL STUDIO\AVR32UARTNATIVEMODE\AVR32UARTTIMEOUT\FORM1.RESX|D:\SOURCE\VISUAL STUDIO\AVR32UARTNATIVEMODE\AVR32UARTTIMEOUT\PROPERTIES\RESOURCES.RESX
D:\SOURCE\VISUAL STUDIO\AVR32UARTNATIVEMODE\AVR32UARTTIMEOUT\OBJ\X86\DEBUG\AVR32UARTTIMEOUT.FORM1.RESOURCES
D:\SOURCE\VISUAL STUDIO\AVR32UARTNATIVEMODE\AVR32UARTTIMEOUT\OBJ\X86\DEBUG\AVR32UARTTIMEOUT.PROPERTIES.RESOURCES.RESOURCES
