^D:\SOURCE\VISUAL STUDIO\AGPOWERSUPPLY\AGPOWERSUPPLY\PROPERTIES\RESOURCES.RESX
D:\SOURCE\VISUAL STUDIO\AGPOWERSUPPLY\AGPOWERSUPPLY\OBJ\X86\DEBUG\AGPOWERSUPPLY.PROPERTIES.RESOURCES.RESOURCES
^D:\SOURCE\VISUAL STUDIO\AGPOWERSUPPLY\AGPOWERSUPPLY\FORM1.RESX|D:\SOURCE\VISUAL STUDIO\AGPOWERSUPPLY\AGPOWERSUPPLY\PROPERTIES\RESOURCES.RESX
D:\SOURCE\VISUAL STUDIO\AGPOWERSUPPLY\AGPOWERSUPPLY\OBJ\X86\DEBUG\AGPOWER.FORM1.RESOURCES
D:\SOURCE\VISUAL STUDIO\AGPOWERSUPPLY\AGPOWERSUPPLY\OBJ\X86\DEBUG\AGPOWERSUPPLY.PROPERTIES.RESOURCES.RESOURCES
