C51 COMPILER V5.50,  COM                                                                   13/09/12  16:09:44  PAGE 1   


DOS C51 COMPILER V5.50, COMPILATION OF MODULE COM
OBJECT MODULE PLACED IN ..\MODULY\RS232\COM.OBJ
COMPILER INVOKED BY: E:\C51_V5.5\BIN\C51.EXE ..\MODULY\RS232\COM.C51 CD DB

stmt level    source

   1          //*****************************************************************************
   2          //
   3          //    Com.c - RS232 simple communication services
   4          //    Version 1.0, (c) VymOs
   5          //
   6          //*****************************************************************************
   7          
   8          /*
   9            - 7.1.2007: Pridana MARK parity (2 stop bity)
  10            - 2.9.2008: Upravena inicializace po modifikaci Rd2.h (konstanty SCON_...)
  11                        nastavena pripravenost Tx
  12           */
  13          
  14          #include "..\inc\Com.h"
  15          #include "..\inc\Delays.h"             // Delay computing
  16          
  17          #if COM_RX_TIMEOUT > WDELAY_MAX( 0)
                 #error "COM_RX_TIMEOUT out of range"
              #endif
  20          
  21          //-----------------------------------------------------------------------------
  22          // Inicializace komunikace
  23          //-----------------------------------------------------------------------------
  24          
  25          #define ComSpecialInit()   TI = 1;
  26          
  27          #include "ComInit.c51"
  28          
  29          //-----------------------------------------------------------------------------
  30          // Vysilani s cekanim
  31          //-----------------------------------------------------------------------------
  32          
  33          #ifdef COM_TX_CHAR
  34          
  35          void ComTxChar( byte Char)
  36          // Vyslani znaku
  37          {
  38   1         while( !TI);                        // odeslani predchoziho
  39   1         TI = 0;                             // zrus priznak
  40   1         #ifdef COM_PARITY_EVEN
                    ACC = Char;
                    TB8 = P;
                 #endif
  44   1         #ifdef COM_PARITY_ODD
                    ACC = Char;
                    TB8 = !P;
                 #endif
  48   1         #ifdef COM_PARITY_MARK
                    TB8 = 1;
                 #endif
  51   1         SBUF = Char;                        // vyslani
  52   1      } // ComTxChar
  53          
  54          #endif //COM_TX_CHAR
  55          
  56          #ifdef COM_TX_WAIT
              
              void ComTxWait( void)
              // Cekani na vyslani znaku
C51 COMPILER V5.50,  COM                                                                   13/09/12  16:09:44  PAGE 2   

              {
                 while( !TI);                        // odeslani predchoziho
              } // ComTxWait
              
              #endif //COM_TX_WAIT
  65          
  66          
  67          //-----------------------------------------------------------------------------
  68          // Prijem
  69          //-----------------------------------------------------------------------------
  70          
  71          #ifdef COM_RX_CHAR
  72          
  73          TYesNo ComRxChar( byte data *Char)
  74          // Ceka na prijem znaku, vraci NO pri timeoutu
  75          {
  76   1      word Timeout;
  77   1      byte c;
  78   1      
  79   1         Timeout = WDelayCount( COM_RX_TIMEOUT, 2);
  80   1         do {
  81   2            if( RI){
  82   3               RI = 0;                       // zrus priznak preruseni
  83   3               c  = SBUF;                    // prevezmi znak
  84   3               #ifdef COM_PARITY_EVEN
                          ACC = c;
                          if( RB8 != P){
                             return( NO);            // chyba parity
                          }
                       #endif
  90   3               #ifdef COM_PARITY_ODD
                          ACC = c;
                          if( RB8 == P){
                             return( NO);            // chyba parity
                          }
                       #endif
  96   3               *Char = c;
  97   3               return( YES);
  98   3            }
  99   2         } while( --Timeout);
 100   1         return( NO);
 101   1      } // ComRxChar
 102          
 103          #endif
 104          
 105          #ifdef COM_RX_WAIT
 106          //-----------------------------------------------------------------------------
 107          // Cekani na Rx
 108          //-----------------------------------------------------------------------------
 109          
 110          TYesNo ComRxWait( byte Timeout)
 111          // Ceka na znak az <Timeout> * 100 milisekund
 112          {
 113   1      word i;
 114   1      
 115   1         i = 1;
 116   1         Timeout++;
 117   1         do{
 118   2            WatchDog();
 119   2            do {
 120   3               if( RI){
 121   4                  return( YES);
 122   4               }
 123   3            } while( --i);
 124   2            i = WDelayCount( 100000, 2);
 125   2         } while( --Timeout);
C51 COMPILER V5.50,  COM                                                                   13/09/12  16:09:44  PAGE 3   

 126   1         return( NO);
 127   1      } // ComRxWait
 128          #endif // COM_RX_WAIT
 129          
 130          #ifdef COM_FLUSH_CHARS
 131          //-----------------------------------------------------------------------------
 132          // Preskok prijmu
 133          //-----------------------------------------------------------------------------
 134          
 135          void ComFlushChars( void)
 136          // Vynecha vsechny znaky az do meziznakoveho timeoutu
 137          {
 138   1      word Timeout;
 139   1      byte c;
 140   1      
 141   1         Timeout = WDelayCount( COM_RX_TIMEOUT, 6);
 142   1         do {
 143   2            WatchDog();
 144   2            if( RI){
 145   3               RI = 0;                                      // zrus priznak preruseni
 146   3               c  = SBUF;                                   // prevezmi znak
 147   3               Timeout = WDelayCount( COM_RX_TIMEOUT, 6);   // znovu timeout
 148   3               continue;
 149   3            }
 150   2         } while( --Timeout);
 151   1      } // ComFlushChars
 152          #endif // COM_FLUSH_CHARS
C51 COMPILER V5.50,  COM                                                                   13/09/12  16:09:44  PAGE 4   

ASSEMBLY LISTING OF GENERATED OBJECT CODE


             ; FUNCTION ComInit (BEGIN)
                                           ; SOURCE LINE # 13
                                           ; SOURCE LINE # 15
                                           ; SOURCE LINE # 22
0000 53877F        ANL     PCON,#07FH
                                           ; SOURCE LINE # 32
0003 75CAC4        MOV     RCAP2L,#0C4H
0006 75CBFF        MOV     RCAP2H,#0FFH
                                           ; SOURCE LINE # 33
0009 75C834        MOV     T2CON,#034H
                                           ; SOURCE LINE # 41
000C 759850        MOV     SCON,#050H
                                           ; SOURCE LINE # 44
000F D299          SETB    TI
                                           ; SOURCE LINE # 46
0011 22            RET     
             ; FUNCTION ComInit (END)

             ; FUNCTION _ComTxChar (BEGIN)
;---- Variable 'Char' assigned to Register 'R7' ----
                                           ; SOURCE LINE # 35
                                           ; SOURCE LINE # 37
0000         ?C0002:
                                           ; SOURCE LINE # 38
0000 3099FD        JNB     TI,?C0002
0003         ?C0003:
                                           ; SOURCE LINE # 39
0003 C299          CLR     TI
                                           ; SOURCE LINE # 51
0005 8F99          MOV     SBUF,R7
                                           ; SOURCE LINE # 52
0007 22            RET     
             ; FUNCTION _ComTxChar (END)

             ; FUNCTION _ComRxChar (BEGIN)
;---- Variable 'Char' assigned to Register 'R7' ----
                                           ; SOURCE LINE # 73
                                           ; SOURCE LINE # 75
                                           ; SOURCE LINE # 79
;---- Variable 'Timeout' assigned to Register 'R4/R5' ----
0000 7DE8          MOV     R5,#0E8H
0002 7C0A          MOV     R4,#0AH
0004         ?C0007:
                                           ; SOURCE LINE # 80
                                           ; SOURCE LINE # 81
0004 30980A        JNB     RI,?C0005
                                           ; SOURCE LINE # 82
0007 C298          CLR     RI
                                           ; SOURCE LINE # 83
;---- Variable 'c' assigned to Register 'R6' ----
0009 AE99          MOV     R6,SBUF
                                           ; SOURCE LINE # 96
000B A807          MOV     R0,AR7
000D A606          MOV     @R0,AR6
                                           ; SOURCE LINE # 97
000F D3            SETB    C
0010 22            RET     
                                           ; SOURCE LINE # 98
                                           ; SOURCE LINE # 99
0011         ?C0005:
0011 ED            MOV     A,R5
0012 1D            DEC     R5
0013 7001          JNZ     ?C0023
C51 COMPILER V5.50,  COM                                                                   13/09/12  16:09:44  PAGE 5   

0015 1C            DEC     R4
0016         ?C0023:
0016 14            DEC     A
0017 4C            ORL     A,R4
0018 70EA          JNZ     ?C0007
                                           ; SOURCE LINE # 100
001A C3            CLR     C
                                           ; SOURCE LINE # 101
001B         ?C0009:
001B 22            RET     
             ; FUNCTION _ComRxChar (END)

             ; FUNCTION _ComRxWait (BEGIN)
;---- Variable 'Timeout' assigned to Register 'R7' ----
                                           ; SOURCE LINE # 110
                                           ; SOURCE LINE # 112
                                           ; SOURCE LINE # 115
;---- Variable 'i' assigned to Register 'R4/R5' ----
0000 7D01          MOV     R5,#01H
0002 7C00          MOV     R4,#00H
                                           ; SOURCE LINE # 116
0004 0F            INC     R7
0005         ?C0012:
                                           ; SOURCE LINE # 117
                                           ; SOURCE LINE # 118
0005 75A61E        MOV     WDTRST,#01EH
0008 75A6E1        MOV     WDTRST,#0E1H
000B         ?C0015:
                                           ; SOURCE LINE # 119
                                           ; SOURCE LINE # 120
000B 309802        JNB     RI,?C0013
                                           ; SOURCE LINE # 121
000E D3            SETB    C
000F 22            RET     
                                           ; SOURCE LINE # 122
                                           ; SOURCE LINE # 123
0010         ?C0013:
0010 ED            MOV     A,R5
0011 1D            DEC     R5
0012 7001          JNZ     ?C0024
0014 1C            DEC     R4
0015         ?C0024:
0015 14            DEC     A
0016 4C            ORL     A,R4
0017 70F2          JNZ     ?C0015
                                           ; SOURCE LINE # 124
0019 7C6D          MOV     R4,#06DH
001B 7D16          MOV     R5,#016H
                                           ; SOURCE LINE # 125
001D DFE6          DJNZ    R7,?C0012
                                           ; SOURCE LINE # 126
001F C3            CLR     C
                                           ; SOURCE LINE # 127
0020         ?C0017:
0020 22            RET     
             ; FUNCTION _ComRxWait (END)

             ; FUNCTION ComFlushChars (BEGIN)
                                           ; SOURCE LINE # 135
                                           ; SOURCE LINE # 137
                                           ; SOURCE LINE # 141
;---- Variable 'Timeout' assigned to Register 'R6/R7' ----
0000 7F00          MOV     R7,#00H
0002 7E08          MOV     R6,#08H
0004         ?C0020:
                                           ; SOURCE LINE # 142
C51 COMPILER V5.50,  COM                                                                   13/09/12  16:09:44  PAGE 6   

                                           ; SOURCE LINE # 143
0004 75A61E        MOV     WDTRST,#01EH
0007 75A6E1        MOV     WDTRST,#0E1H
                                           ; SOURCE LINE # 144
000A 309809        JNB     RI,?C0018
                                           ; SOURCE LINE # 145
000D C298          CLR     RI
                                           ; SOURCE LINE # 146
000F 859900  R     MOV     c,SBUF
                                           ; SOURCE LINE # 147
0012 7E08          MOV     R6,#08H
0014 7F00          MOV     R7,#00H
                                           ; SOURCE LINE # 148
                                           ; SOURCE LINE # 149
                                           ; SOURCE LINE # 150
0016         ?C0018:
0016 EF            MOV     A,R7
0017 1F            DEC     R7
0018 7001          JNZ     ?C0025
001A 1E            DEC     R6
001B         ?C0025:
001B 14            DEC     A
001C 4E            ORL     A,R6
001D 70E5          JNZ     ?C0020
                                           ; SOURCE LINE # 151
001F 22            RET     
             ; FUNCTION ComFlushChars (END)



MODULE INFORMATION:   STATIC OVERLAYABLE
   CODE SIZE        =    119    ----
   CONSTANT SIZE    =   ----    ----
   XDATA SIZE       =   ----    ----
   PDATA SIZE       =   ----    ----
   DATA SIZE        =   ----       1
   IDATA SIZE       =   ----    ----
   BIT SIZE         =   ----    ----
END OF MODULE INFORMATION.


C51 COMPILATION COMPLETE.  0 WARNING(S),  0 ERROR(S)
