FILES.DB
FN=C:\SOURCE\C51\VEIT\Inc\Gsm.h
FN=C:\SOURCE\C51\VEIT\Inc\Spi.h
FN=C:\SOURCE\C51\VEIT\Inc\SpiHw.h
FN=C:\SOURCE\C51\VEIT\Moduly\Rd2\SpiHw.c51
FN=C:\SOURCE\C51\VEIT\Inc\AtFlash.h
FN=C:\SOURCE\C51\VEIT\Bat2uart\SpiBat.c51
FN=C:\SOURCE\C51\VEIT\Inc\At45dbxx.h
FN=C:\SOURCE\C51\VEIT\Moduly\AtFlash\At45dbxx.c51
FN=C:\SOURCE\C51\VEIT\Moduly\AtFlash\AtFlash.c51
FN=C:\SOURCE\C51\VEIT\Moduly\Megavi\Megavi.c51
FN=C:\SOURCE\C51\VEIT\Inc\MegaviDf.h
FN=C:\SOURCE\C51\VEIT\Inc\Megavi.h
FN=C:\SOURCE\C51\VEIT\Moduly\RS232\Com.c51
FN=C:\SOURCE\C51\VEIT\Moduly\GSM\Com_util.c51
FN=C:\SOURCE\C51\VEIT\Moduly\GSM\GsmSms.c51
FN=C:\SOURCE\C51\VEIT\Moduly\GSM\GsmBase.c51
FN=C:\SOURCE\C51\VEIT\Bat2uart\Makefile
FN=C:\SOURCE\C51\VEIT\Bat2uart\Hardware.h
FN=C:\SOURCE\C51\VEIT\Bat2uart\Main.c51
ASSOCIATE.DB
URL.DB
VERSION.DB
NUM=13
