C51 COMPILER V5.50,  ALARM                                                                 12/04/12  07:45:31  PAGE 1   


DOS C51 COMPILER V5.50, COMPILATION OF MODULE ALARM
OBJECT MODULE PLACED IN ALARM.OBJ
COMPILER INVOKED BY: E:\C51_V5.5\BIN\C51.EXE ALARM.C51 CD DB

stmt level    source

   1          //*****************************************************************************
   2          //
   3          //    Alarm.c - Ovladani alarmu podle poruch
   4          //    Version 1.0
   5          //
   6          //*****************************************************************************
   7          
   8          #include "Alarm.h"
   9          #include "Beep.h"              // Repro v jednotce
  10          #include "Dout.h"              // Digitalni vystupy
  11          
  12          TAlarm __xdata__ Alarm;
  13          
  14          // Piskani vestaveneho reproduktoru v jednotce
  15          static byte __xdata__ BeepCounter;      // Citac piskani
  16          #define BEEP_PERIOD     10              // Perioda piskani v sekundach
  17          
  18          // Struktura pro ovladani majaku (majak neblika pri chybe porad, ale prerusovane po cca 1 minute)
  19          #define BEACON_ON_TIME  10              // Doba roznuti v sekundach
  20          #define BEACON_OFF_TIME 50              // Doba zhasnuti v sekundach
  21          
  22          typedef enum {
  23            BEACON_OFF,                           // Majak je prave zhasnuty, neni zadna porucha
  24            BEACON_FAULT_ON,                      // Majak prave blika a sviti
  25            BEACON_FAULT_OFF                      // Majak prave blika a nesviti
  26          } TBeaconState;
  27          
  28          typedef struct {
  29            TBeaconState Status;                  // Aktualni stav majaku
  30            byte Counter;                         // Pocitadlo pro dobu roznuti/zhasnuti
  31          } TBeacon;
  32          static TBeacon __xdata__ Beacon;
  33          
  34          
  35          //-----------------------------------------------------------------------------
  36          // Inicializace
  37          //-----------------------------------------------------------------------------
  38          
  39          void AlarmInit() {
  40   1        // Inicializuje alarmu
  41   1        Alarm.Quiet     = NO;         // Repro zapnuty
  42   1        Alarm.ShowAlarm = NO;         // Neindikuje se alarm
  43   1        BeepCounter = 0;              // Nuluju pocitadlo piskani
  44   1        // Inicializuju majak
  45   1        Beacon.Status  = BEACON_OFF;  // Citac se vynuluje po zmene stavu
  46   1      }
  47          
  48          //-----------------------------------------------------------------------------
  49          // Zapnuti/vypnuti reproduktoru a majaku (hlaseni alarmu)
  50          //-----------------------------------------------------------------------------
  51          
  52          #ifndef __TMCREMOTE__
  53          
  54          void AlarmChange() {
  55   1        // Zapne / vypne hlaseni alarmu
  56   1        Alarm.Quiet = !Alarm.Quiet;
  57   1      }
  58          
  59          #endif // __TMCREMOTE__
C51 COMPILER V5.50,  ALARM                                                                 12/04/12  07:45:31  PAGE 2   

  60          
  61          //-----------------------------------------------------------------------------
  62          // Nulovani alarmu
  63          //-----------------------------------------------------------------------------
  64          
  65          #ifndef __TMCREMOTE__
  66          
  67          void AlarmClear() {
  68   1        // Vynuluje alarm (volat periodicky na zacatku kazdeho mericiho cyklu)
  69   1        Alarm.ShowAlarm = NO;
  70   1      }
  71          
  72          #endif // __TMCREMOTE__
  73          
  74          //-----------------------------------------------------------------------------
  75          // Obsluha alarmu
  76          //-----------------------------------------------------------------------------
  77          
  78          void AlarmExecute() {
  79   1        // Obsluha piskani reproduktoru a blikani majaku pri alarmu, volat kazdou sekundu na konci mericiho cykl
             -u
  80   1        if (!Alarm.ShowAlarm || Alarm.Quiet) {
  81   2          // Neni alarm nebo je, ale nechce piskat ani blikat majakem
  82   2          BeepCounter = BEEP_PERIOD - 1;  // Pripravim si pocitadlo tak, aby to pisklo ihned jak se poprve vysky
             -tne alarm (aby to necekalo nekolik sekund)
  83   2      #ifndef __TMCREMOTE__
  84   2          DoutSetBeacon(NO);              // Vypnu majak
  85   2      #endif // __TMCREMOTE__
  86   2          Beacon.Status = BEACON_OFF;
  87   2          return;
  88   2        }
  89   1      
  90   1        // Reproduktor
  91   1        BeepCounter++;
  92   1        if (BeepCounter >= BEEP_PERIOD) {
  93   2          // Ubehla perioda piskani
  94   2          BeepCounter = 0;            // Nulovani citace
  95   2          BeepAlarm();                // Pisknu
  96   2        }
  97   1      
  98   1      #ifndef __TMCREMOTE__
  99   1        // Majak
 100   1        Beacon.Counter++;
 101   1        switch (Beacon.Status) {
 102   2          case BEACON_OFF: {
 103   3            // Majak prave nesviti => ihned po vyskytu poruchy ho roznu
 104   3            Beacon.Status  = BEACON_FAULT_ON;
 105   3            Beacon.Counter = 0;        // Pocitam od nuly
 106   3            break;
 107   3          }
 108   2          case BEACON_FAULT_ON: {
 109   3            // Majak prave sviti, hlidam, aby nesvitil moc dlouho
 110   3            if (Beacon.Counter > BEACON_ON_TIME) {
 111   4              // Majak uz sviti danou dobu => vypnu ho
 112   4              Beacon.Status  = BEACON_FAULT_OFF;
 113   4              Beacon.Counter = 0;        // Pocitam od nuly
 114   4            }//if
 115   3            break;
 116   3          }
 117   2          case BEACON_FAULT_OFF: {
 118   3            // Majak prave nesviti, ale porucha trva. Hlidam, aby majak nebyl zhasnuty moc dlouho.
 119   3            if (Beacon.Counter > BEACON_OFF_TIME) {
 120   4              // Majak uz nesviti danou dobu => zase ho zapnu
 121   4              Beacon.Status  = BEACON_FAULT_ON;
 122   4              Beacon.Counter = 0;        // Pocitam od nuly
 123   4            }//if
C51 COMPILER V5.50,  ALARM                                                                 12/04/12  07:45:31  PAGE 3   

 124   3            break;
 125   3          }
 126   2        }//switch
 127   1        if (Beacon.Status == BEACON_FAULT_ON && Beacon.Counter % 2 == 0) {
 128   2          // Roznu svetlo - behem periody BEACON_FAULT_ON ovladam i blikani
 129   2          DoutSetBeacon(YES);
 130   2        } else {
 131   2          // Zhasnu svetlo
 132   2          DoutSetBeacon(NO);
 133   2        }
 134   1      #endif // __TMCREMOTE__
 135   1      }
 136          
 137          //-----------------------------------------------------------------------------
 138          // Nastaveni alarmu
 139          //-----------------------------------------------------------------------------
 140          
 141          void AlarmSet() {
 142   1        // Nastavi alarm pri enjake poruse
 143   1        Alarm.ShowAlarm = YES;
 144   1      }
C51 COMPILER V5.50,  ALARM                                                                 12/04/12  07:45:31  PAGE 4   

ASSEMBLY LISTING OF GENERATED OBJECT CODE


             ; FUNCTION AlarmInit (BEGIN)
                                           ; SOURCE LINE # 39
                                           ; SOURCE LINE # 41
0000 E4            CLR     A
0001 900000  R     MOV     DPTR,#Alarm+01H
0004 F0            MOVX    @DPTR,A
                                           ; SOURCE LINE # 42
0005 900000  R     MOV     DPTR,#Alarm
0008 F0            MOVX    @DPTR,A
                                           ; SOURCE LINE # 43
0009 900000  R     MOV     DPTR,#BeepCounter
000C F0            MOVX    @DPTR,A
                                           ; SOURCE LINE # 45
000D 900000  R     MOV     DPTR,#Beacon
0010 F0            MOVX    @DPTR,A
                                           ; SOURCE LINE # 46
0011 22            RET     
             ; FUNCTION AlarmInit (END)

             ; FUNCTION AlarmChange (BEGIN)
                                           ; SOURCE LINE # 54
                                           ; SOURCE LINE # 56
0000 900000  R     MOV     DPTR,#Alarm+01H
0003 E0            MOVX    A,@DPTR
0004 7004          JNZ     ?C0002
0006 7F01          MOV     R7,#01H
0008 8002          SJMP    ?C0003
000A         ?C0002:
000A 7F00          MOV     R7,#00H
000C         ?C0003:
000C 900000  R     MOV     DPTR,#Alarm+01H
000F EF            MOV     A,R7
0010 F0            MOVX    @DPTR,A
                                           ; SOURCE LINE # 57
0011 22            RET     
             ; FUNCTION AlarmChange (END)

             ; FUNCTION AlarmClear (BEGIN)
                                           ; SOURCE LINE # 67
                                           ; SOURCE LINE # 69
0000 E4            CLR     A
0001 900000  R     MOV     DPTR,#Alarm
0004 F0            MOVX    @DPTR,A
                                           ; SOURCE LINE # 70
0005 22            RET     
             ; FUNCTION AlarmClear (END)

             ; FUNCTION AlarmExecute (BEGIN)
                                           ; SOURCE LINE # 78
                                           ; SOURCE LINE # 80
0000 900000  R     MOV     DPTR,#Alarm
0003 E0            MOVX    A,@DPTR
0004 6004          JZ      ?C0007
0006 A3            INC     DPTR
0007 E0            MOVX    A,@DPTR
0008 6011          JZ      ?C0006
000A         ?C0007:
                                           ; SOURCE LINE # 82
000A 900000  R     MOV     DPTR,#BeepCounter
000D 7409          MOV     A,#09H
000F F0            MOVX    @DPTR,A
                                           ; SOURCE LINE # 84
0010 C200    E     CLR     ?DoutSetBeacon?BIT
C51 COMPILER V5.50,  ALARM                                                                 12/04/12  07:45:31  PAGE 5   

0012 120000  E     LCALL   DoutSetBeacon
                                           ; SOURCE LINE # 86
0015 E4            CLR     A
0016 900000  R     MOV     DPTR,#Beacon
0019 F0            MOVX    @DPTR,A
001A 22            RET     
                                           ; SOURCE LINE # 88
001B         ?C0006:
                                           ; SOURCE LINE # 91
001B 900000  R     MOV     DPTR,#BeepCounter
001E E0            MOVX    A,@DPTR
001F 04            INC     A
0020 F0            MOVX    @DPTR,A
                                           ; SOURCE LINE # 92
0021 E0            MOVX    A,@DPTR
0022 C3            CLR     C
0023 940A          SUBB    A,#0AH
0025 400D          JC      ?C0009
                                           ; SOURCE LINE # 94
0027 E4            CLR     A
0028 F0            MOVX    @DPTR,A
                                           ; SOURCE LINE # 95
0029 750005  E     MOV     _pca_duration,#05H
002C 7F99          MOV     R7,#099H
002E 7E08          MOV     R6,#08H
0030 FD            MOV     R5,A
0031 120000  E     LCALL   _PcaSoundRun
                                           ; SOURCE LINE # 96
0034         ?C0009:
                                           ; SOURCE LINE # 100
0034 900000  R     MOV     DPTR,#Beacon+01H
0037 E0            MOVX    A,@DPTR
0038 04            INC     A
0039 F0            MOVX    @DPTR,A
                                           ; SOURCE LINE # 101
003A 900000  R     MOV     DPTR,#Beacon
003D E0            MOVX    A,@DPTR
003E 14            DEC     A
003F 6012          JZ      ?C0012
0041 14            DEC     A
0042 6023          JZ      ?C0014
0044 2402          ADD     A,#02H
0046 7031          JNZ     ?C0010
                                           ; SOURCE LINE # 102
0048         ?C0011:
                                           ; SOURCE LINE # 104
0048 900000  R     MOV     DPTR,#Beacon
004B 7401          MOV     A,#01H
004D F0            MOVX    @DPTR,A
                                           ; SOURCE LINE # 105
004E E4            CLR     A
004F A3            INC     DPTR
0050 F0            MOVX    @DPTR,A
                                           ; SOURCE LINE # 106
0051 8026          SJMP    ?C0010
                                           ; SOURCE LINE # 107
                                           ; SOURCE LINE # 108
0053         ?C0012:
                                           ; SOURCE LINE # 110
0053 900000  R     MOV     DPTR,#Beacon+01H
0056 E0            MOVX    A,@DPTR
0057 D3            SETB    C
0058 940A          SUBB    A,#0AH
005A 401D          JC      ?C0010
                                           ; SOURCE LINE # 112
005C 900000  R     MOV     DPTR,#Beacon
C51 COMPILER V5.50,  ALARM                                                                 12/04/12  07:45:31  PAGE 6   

005F 7402          MOV     A,#02H
0061 F0            MOVX    @DPTR,A
                                           ; SOURCE LINE # 113
0062 E4            CLR     A
0063 A3            INC     DPTR
0064 F0            MOVX    @DPTR,A
                                           ; SOURCE LINE # 114
                                           ; SOURCE LINE # 115
0065 8012          SJMP    ?C0010
                                           ; SOURCE LINE # 116
                                           ; SOURCE LINE # 117
0067         ?C0014:
                                           ; SOURCE LINE # 119
0067 900000  R     MOV     DPTR,#Beacon+01H
006A E0            MOVX    A,@DPTR
006B D3            SETB    C
006C 9432          SUBB    A,#032H
006E 4009          JC      ?C0010
                                           ; SOURCE LINE # 121
0070 900000  R     MOV     DPTR,#Beacon
0073 7401          MOV     A,#01H
0075 F0            MOVX    @DPTR,A
                                           ; SOURCE LINE # 122
0076 E4            CLR     A
0077 A3            INC     DPTR
0078 F0            MOVX    @DPTR,A
                                           ; SOURCE LINE # 123
                                           ; SOURCE LINE # 124
                                           ; SOURCE LINE # 125
                                           ; SOURCE LINE # 126
0079         ?C0010:
                                           ; SOURCE LINE # 127
0079 900000  R     MOV     DPTR,#Beacon
007C E0            MOVX    A,@DPTR
007D B4010B        CJNE    A,#01H,?C0016
0080 A3            INC     DPTR
0081 E0            MOVX    A,@DPTR
0082 20E006        JB      ACC.0,?C0016
                                           ; SOURCE LINE # 129
0085 D200    E     SETB    ?DoutSetBeacon?BIT
0087 120000  E     LCALL   DoutSetBeacon
                                           ; SOURCE LINE # 130
008A 22            RET     
008B         ?C0016:
                                           ; SOURCE LINE # 132
008B C200    E     CLR     ?DoutSetBeacon?BIT
008D 120000  E     LCALL   DoutSetBeacon
                                           ; SOURCE LINE # 133
                                           ; SOURCE LINE # 135
0090         ?C0008:
0090 22            RET     
             ; FUNCTION AlarmExecute (END)

             ; FUNCTION AlarmSet (BEGIN)
                                           ; SOURCE LINE # 141
                                           ; SOURCE LINE # 143
0000 900000  R     MOV     DPTR,#Alarm
0003 7401          MOV     A,#01H
0005 F0            MOVX    @DPTR,A
                                           ; SOURCE LINE # 144
0006 22            RET     
             ; FUNCTION AlarmSet (END)



MODULE INFORMATION:   STATIC OVERLAYABLE
C51 COMPILER V5.50,  ALARM                                                                 12/04/12  07:45:31  PAGE 7   

   CODE SIZE        =    194    ----
   CONSTANT SIZE    =   ----    ----
   XDATA SIZE       =      5    ----
   PDATA SIZE       =   ----    ----
   DATA SIZE        =   ----    ----
   IDATA SIZE       =   ----    ----
   BIT SIZE         =   ----    ----
END OF MODULE INFORMATION.


C51 COMPILATION COMPLETE.  0 WARNING(S),  0 ERROR(S)
