C51 COMPILER V5.50,  PCA                                                                   02/04/08  16:30:11  PAGE 1   


DOS C51 COMPILER V5.50, COMPILATION OF MODULE PCA
OBJECT MODULE PLACED IN ..\MODULY\RD2\PCA.OBJ
COMPILER INVOKED BY: E:\C51_V5.5\BIN\C51.EXE ..\MODULY\RD2\PCA.C51 CD DB

stmt level    source

   1          //*****************************************************************************
   2          //
   3          //    Pca.c  -  PCA sound generation only
   4          //    Version 1.0, (c) Vymos
   5          //
   6          //*****************************************************************************
   7          
   8          #include "..\inc\Pca.h"
   9          
  10          #ifdef PCA_ASYNC_BEEP
  11             byte _pca_counter = 0;       // citac delky tonu pro asynchronni pipnuti
  12          #endif
  13          
  14          static byte count_lo;     // nastaveni citace PCA LSB
  15          static byte count_hi;     // nastaveni citace PCA MSB
  16          
  17          //-----------------------------------------------------------------------------
  18          // Spusteni
  19          //-----------------------------------------------------------------------------
  20          
  21          void PcaRun( word count, word pwm)
  22          // Spusti casovac PCA s periodou <count>,
  23          // Komparator preklapi po nacitani <pwm> pulsu
  24          {
  25   1      
  26   1         EC         = 0;                       // zakaz preruseni od PCA
  27   1         CCON       = 0;                       // stop PCA, smazani vsech priznaku preruseni
  28   1         CMOD       = CMOD_ECF  | CMOD_CPS4;   // povoleni preruseni od PCA citace, clock fosc/4
  29   1         CCAPM0     = CCAPM_MAT | CCAPM_ECCF;  // enable match, povoleni preruseni od komparatoru
  30   1         CCAPM1     = 0;                       // ostatni komparatory zakaz
  31   1         CCAPM2     = 0;
  32   1         CCAPM3     = 0;
  33   1         CCAPM4     = 0;
  34   1      
  35   1         count      = -count;                // pocet impulsu do pretoku
  36   1         count_lo   = count & 0xFF;
  37   1         count_hi   = count >> 8;
  38   1         CL         = count_lo;              // napln citac vychozi hodnotou
  39   1         CH         = count_hi;
  40   1      
  41   1         if( pwm < 1){
  42   2            pwm = 1;
  43   2         }
  44   1         pwm        = -pwm;                  // pocet impulsu do pretoku
  45   1         CCAP0L     = pwm & 0xFF;            // nastav komparator
  46   1         CCAP0H     = pwm >> 8;
  47   1         CCAPM0    |= CCAPM_ECOM;            // povoleni komparatoru
  48   1      
  49   1         CCON       = CCON_CR;               // povol citani, vynuluj flagy
  50   1         EC         = 1;                     // povol preruseni od PCA
  51   1      } // PcaRun
  52          
  53          //-----------------------------------------------------------------------------
  54          // Zastaveni
  55          //-----------------------------------------------------------------------------
  56          
  57          void PcaStop( void)
  58          // Zastavi casovac PCA
  59          {
C51 COMPILER V5.50,  PCA                                                                   02/04/08  16:30:11  PAGE 2   

  60   1         EC   = 0;                       // zakaz preruseni od PCA
  61   1         CCON = 0;                       // CCON zastav citani, vynluj flagy
  62   1         PcaOut = PCA_IDLE_STATE;        // 11.1.2006: Uvedu vystupni pin do klidove urovne
  63   1      } // PcaStop
  64          
  65          //-----------------------------------------------------------------------------
  66          // Prerusovaci rutina
  67          //-----------------------------------------------------------------------------
  68          
  69          static void PcaHandler( void) interrupt INT_PCA
  70          // Prerusovaci rutina PCA
  71          {
  72   1         if( CCF0){
  73   2            // od komparatoru
  74   2            CCF0   = 0;           // nuluj flag od komparatoru
  75   2            PcaOut = !PcaOut;     // toggle output
  76   2         }
  77   1         if( !CF){
  78   2            return;               // nebyl od pretoku citace
  79   2         }
  80   1         // pretok citace
  81   1         PcaOut = !PcaOut;        // toggle output
  82   1         CR     = 0;              // CCON zastav citani
  83   1         CL     = count_lo;       // napln citac vychozi hodnotou
  84   1         CH     = count_hi;
  85   1         CCON   = CCON_CR;        // povol citani, vynuluj flagy
  86   1      } // PcaHandler
C51 COMPILER V5.50,  PCA                                                                   02/04/08  16:30:11  PAGE 3   

ASSEMBLY LISTING OF GENERATED OBJECT CODE


             ; FUNCTION _PcaRun (BEGIN)
;---- Variable 'count' assigned to Register 'R6/R7' ----
;---- Variable 'pwm' assigned to Register 'R4/R5' ----
                                           ; SOURCE LINE # 21
                                           ; SOURCE LINE # 24
                                           ; SOURCE LINE # 26
0000 C2AE          CLR     EC
                                           ; SOURCE LINE # 27
0002 E4            CLR     A
0003 F5D8          MOV     CCON,A
                                           ; SOURCE LINE # 28
0005 75D903        MOV     CMOD,#03H
                                           ; SOURCE LINE # 29
0008 75DA09        MOV     CCAPM0,#09H
                                           ; SOURCE LINE # 30
000B F5DB          MOV     CCAPM1,A
                                           ; SOURCE LINE # 31
000D F5DC          MOV     CCAPM2,A
                                           ; SOURCE LINE # 32
000F F5DD          MOV     CCAPM3,A
                                           ; SOURCE LINE # 33
0011 F5DE          MOV     CCAPM4,A
                                           ; SOURCE LINE # 35
0013 C3            CLR     C
0014 9F            SUBB    A,R7
0015 FF            MOV     R7,A
0016 E4            CLR     A
0017 9E            SUBB    A,R6
0018 FE            MOV     R6,A
                                           ; SOURCE LINE # 36
0019 EF            MOV     A,R7
001A F500    R     MOV     count_lo,A
                                           ; SOURCE LINE # 37
001C EE            MOV     A,R6
001D F500    R     MOV     count_hi,A
                                           ; SOURCE LINE # 38
001F 8500E9  R     MOV     CL,count_lo
                                           ; SOURCE LINE # 39
0022 8500F9  R     MOV     CH,count_hi
                                           ; SOURCE LINE # 41
0025 C3            CLR     C
0026 ED            MOV     A,R5
0027 9401          SUBB    A,#01H
0029 EC            MOV     A,R4
002A 9400          SUBB    A,#00H
002C 5004          JNC     ?C0001
                                           ; SOURCE LINE # 42
002E 7C00          MOV     R4,#00H
0030 7D01          MOV     R5,#01H
                                           ; SOURCE LINE # 43
0032         ?C0001:
                                           ; SOURCE LINE # 44
0032 C3            CLR     C
0033 E4            CLR     A
0034 9D            SUBB    A,R5
0035 FD            MOV     R5,A
0036 E4            CLR     A
0037 9C            SUBB    A,R4
0038 FC            MOV     R4,A
                                           ; SOURCE LINE # 45
0039 ED            MOV     A,R5
003A F5EA          MOV     CCAP0L,A
                                           ; SOURCE LINE # 46
C51 COMPILER V5.50,  PCA                                                                   02/04/08  16:30:11  PAGE 4   

003C EC            MOV     A,R4
003D F5FA          MOV     CCAP0H,A
                                           ; SOURCE LINE # 47
003F 43DA40        ORL     CCAPM0,#040H
                                           ; SOURCE LINE # 49
0042 75D840        MOV     CCON,#040H
                                           ; SOURCE LINE # 50
0045 D2AE          SETB    EC
                                           ; SOURCE LINE # 51
0047 22            RET     
             ; FUNCTION _PcaRun (END)

             ; FUNCTION PcaStop (BEGIN)
                                           ; SOURCE LINE # 57
                                           ; SOURCE LINE # 59
                                           ; SOURCE LINE # 60
0000 C2AE          CLR     EC
                                           ; SOURCE LINE # 61
0002 E4            CLR     A
0003 F5D8          MOV     CCON,A
                                           ; SOURCE LINE # 62
0005 D2A2          SETB    BatPISK
                                           ; SOURCE LINE # 63
0007 22            RET     
             ; FUNCTION PcaStop (END)

             ; FUNCTION PcaHandler (BEGIN)
                                           ; SOURCE LINE # 69
                                           ; SOURCE LINE # 72
0000 30D804        JNB     CCF0,?C0004
                                           ; SOURCE LINE # 74
0003 C2D8          CLR     CCF0
                                           ; SOURCE LINE # 75
0005 B2A2          CPL     BatPISK
                                           ; SOURCE LINE # 76
0007         ?C0004:
                                           ; SOURCE LINE # 77
0007 30DF0D        JNB     CF,?C0006
                                           ; SOURCE LINE # 79
000A         ?C0005:
                                           ; SOURCE LINE # 81
000A B2A2          CPL     BatPISK
                                           ; SOURCE LINE # 82
000C C2DE          CLR     CR
                                           ; SOURCE LINE # 83
000E 8500E9  R     MOV     CL,count_lo
                                           ; SOURCE LINE # 84
0011 8500F9  R     MOV     CH,count_hi
                                           ; SOURCE LINE # 85
0014 75D840        MOV     CCON,#040H
                                           ; SOURCE LINE # 86
0017         ?C0006:
0017 32            RETI    
             ; FUNCTION PcaHandler (END)



MODULE INFORMATION:   STATIC OVERLAYABLE
   CODE SIZE        =    107    ----
   CONSTANT SIZE    =   ----    ----
   XDATA SIZE       =   ----    ----
   PDATA SIZE       =   ----    ----
   DATA SIZE        =      3    ----
   IDATA SIZE       =   ----    ----
   BIT SIZE         =   ----    ----
END OF MODULE INFORMATION.
C51 COMPILER V5.50,  PCA                                                                   02/04/08  16:30:11  PAGE 5   



C51 COMPILATION COMPLETE.  0 WARNING(S),  0 ERROR(S)
